EXTRA,AGREE,CONSC,NEURO,OPEN,CONCEPT,STRING
3.88,3.22,3.11,1.63,3.7,s4377,agitado
3.88,3.22,3.11,1.63,3.7,s4418,agitado
3.88,3.22,3.11,1.63,3.7,s4549,agitado
3.88,3.22,3.11,1.63,3.7,s8514,negro
3.88,3.22,3.11,1.63,3.7,s4650,simples
3.88,3.22,3.11,1.63,3.7,s7576,simples
3.88,3.22,3.11,1.63,3.7,s9051,calmo
3.88,3.22,3.11,1.63,3.7,s9761,calmo
3.88,3.22,3.11,1.63,3.7,s10496,calmo
1.75,3.22,3.56,3.88,4.1,s8514,negro
3.13,4.0,1.89,3.75,3.0,s8514,negro
3.13,4.0,1.89,3.75,3.0,s8514,negro
3.13,4.0,1.89,3.75,3.0,s4596,pobre
3.38,3.33,2.89,3.75,3.8,s4596,pobre
3.38,3.33,2.89,3.75,3.8,s4559,claro
3.38,3.33,2.89,3.75,3.8,s5610,claro
3.38,3.33,2.89,3.75,3.8,s8195,claro
3.38,3.33,2.89,3.75,3.8,s8461,claro
3.38,3.33,2.89,3.75,3.8,s8727,claro
3.38,3.33,2.89,3.75,3.8,s10308,claro
3.0,4.33,3.56,2.25,3.4,s9152,remoto
3.0,4.33,3.56,2.25,3.4,s4691,nacional
4.75,4.22,2.56,2.75,4.6,s8514,negro
4.75,4.22,2.56,2.75,4.6,s4490,sério
4.75,4.22,2.56,2.75,4.6,s4148,rústico
3.0,3.44,3.33,2.38,4.4,s8514,negro
3.0,3.44,3.33,2.38,4.4,s10421,nítido
3.0,3.44,3.33,2.38,4.4,s4650,simples
3.0,3.44,3.33,2.38,4.4,s7576,simples
3.0,3.44,3.33,2.38,4.4,s9864,proveitoso
3.0,3.44,3.33,2.38,4.4,s10106,proveitoso
3.0,3.44,3.33,2.38,4.4,s4698,feliz
2.25,3.67,2.22,3.13,3.2,s4983,jovem
2.25,3.67,2.22,3.13,3.2,s8514,negro
2.25,3.67,2.22,3.13,3.2,s4650,simples
2.25,3.67,2.22,3.13,3.2,s7576,simples
4.13,3.22,3.11,3.5,3.4,s8641,trabalhador
4.63,3.56,3.44,3.38,3.6,s8104,grande
4.63,3.56,3.44,3.38,3.6,s8223,grande
4.63,3.56,3.44,3.38,3.6,s8514,negro
4.63,3.56,3.44,3.38,3.6,s4650,simples
4.63,3.56,3.44,3.38,3.6,s7576,simples
4.63,3.56,3.44,3.38,3.6,s4753,diverso
4.63,3.56,3.44,3.38,3.6,s9696,esticado
4.13,3.78,3.78,1.88,3.4,s4565,escuro
4.13,3.78,3.78,1.88,3.4,s8514,escuro
4.13,3.78,3.78,1.88,3.4,s4527,triste
4.13,3.78,3.78,1.88,3.4,s8494,triste
4.13,3.78,3.78,1.88,3.4,s4983,jovem
4.13,3.78,3.78,1.88,3.4,s8365,velho
4.13,3.78,3.78,1.88,3.4,s9572,velho
4.0,3.56,3.33,4.75,3.2,s8514,negro
4.0,3.56,3.33,4.75,3.2,s5643,possível
1.75,3.0,3.89,4.75,3.0,s8514,negro
3.0,3.67,4.22,3.25,3.7,s9572,antigo
3.0,3.67,4.22,3.25,3.7,s8514,preto
3.0,3.67,4.22,3.25,3.7,s8514,preto
3.0,3.67,4.22,3.25,3.7,s4559,branco
3.0,3.67,4.22,3.25,3.7,s4559,claro
3.0,3.67,4.22,3.25,3.7,s5610,claro
3.0,3.67,4.22,3.25,3.7,s8195,claro
3.0,3.67,4.22,3.25,3.7,s8461,claro
3.0,3.67,4.22,3.25,3.7,s8727,claro
3.0,3.67,4.22,3.25,3.7,s10308,claro
3.5,3.78,2.67,3.63,4.3,s4483,direito
3.5,3.78,2.67,3.63,4.3,s4486,direito
3.5,3.78,2.67,3.63,4.3,s4490,direito
3.5,3.78,2.67,3.63,4.3,s6321,direito
2.88,2.11,4.56,5.0,4.8,s8365,idoso
3.38,3.56,2.78,4.13,4.0,s8514,negro
3.38,3.56,2.78,4.13,4.0,s5643,possível
4.13,4.11,3.33,2.75,3.8,s8514,negro
3.88,4.89,2.89,1.75,3.7,s8514,negro
3.88,4.89,2.89,1.75,3.7,s8514,negro
2.88,3.44,3.0,2.13,3.7,s8514,negro
4.0,3.89,3.78,2.25,3.9,s8514,negro
3.25,3.11,4.0,2.88,4.1,s7576,humilde
3.25,3.11,4.0,2.88,4.1,s4549,bravo
3.25,3.11,4.0,2.88,4.1,s7204,bravo
3.25,3.11,4.0,2.88,4.1,s9157,bravo
3.25,3.11,4.0,2.88,4.1,s10484,bravo
4.13,3.44,2.67,1.88,3.6,s4569,visível
4.13,3.44,2.67,1.88,3.6,s8727,visível
4.13,3.44,2.67,1.88,3.6,s7626,alto
4.13,3.44,2.67,1.88,3.6,s10484,alto
4.13,3.44,2.67,1.88,3.6,s9696,esticado
4.13,3.44,2.67,1.88,3.6,s8104,grande
4.13,3.44,2.67,1.88,3.6,s8223,grande
4.13,3.44,2.67,1.88,3.6,s4207,forte
4.13,3.44,2.67,1.88,3.6,s4565,forte
4.13,3.44,2.67,1.88,3.6,s5460,forte
4.13,3.44,2.67,1.88,3.6,s10484,forte
4.0,4.44,3.44,1.5,4.0,s4596,pobre
4.0,4.78,3.56,1.38,3.6,s8514,negro
4.0,4.78,3.56,1.38,3.6,s9696,esticado
4.75,4.56,4.33,3.88,3.9,s8514,negro
4.75,4.56,4.33,3.88,3.9,s8365,idoso
4.75,4.56,4.33,3.88,3.9,s6321,plano
2.25,3.22,3.67,3.25,3.5,s8902,atento
2.25,3.22,3.67,3.25,3.5,s10599,atento
2.25,3.22,3.67,3.25,3.5,s7935,exterior
3.63,3.56,2.33,4.13,3.6,s8514,negro
3.63,3.56,2.33,4.13,3.6,s5643,possível
3.63,3.56,2.33,4.13,3.6,s5643,possível
3.63,3.56,2.33,4.13,3.6,s4650,simples
3.63,3.56,2.33,4.13,3.6,s7576,simples
3.63,3.56,2.33,4.13,3.6,s5138,considerável
3.63,3.56,2.33,4.13,3.6,s9152,distante
3.25,3.33,4.44,2.5,3.5,s8514,negro
3.25,3.33,4.44,2.5,3.5,s8365,velho
3.25,3.33,4.44,2.5,3.5,s9572,velho
3.25,3.33,4.44,2.5,3.5,s4502,sujo
3.25,3.33,4.44,2.5,3.5,s8191,sujo
3.25,3.33,4.44,2.5,3.5,s4596,pobre
2.25,3.44,2.22,4.25,3.5,s8514,negro
2.25,3.44,2.22,4.25,3.5,s4603,próximo
2.25,3.44,2.22,4.25,3.5,s9864,bom
2.0,2.67,1.78,3.5,4.2,s4596,pobre
2.0,2.67,1.78,3.5,4.2,s4596,pobre
2.0,2.67,1.78,3.5,4.2,s5643,possível
2.25,3.78,3.56,3.63,3.7,s9152,extremo
3.25,3.0,3.0,3.25,3.9,s8514,negro
3.25,3.0,3.0,3.25,3.9,s9696,esticado
3.25,3.0,3.0,3.25,3.9,s8461,desbotado
3.25,3.0,3.0,3.25,3.9,s8365,idoso
3.25,3.0,3.0,3.25,3.9,s4559,branco
3.25,3.0,3.0,3.25,3.9,s4753,diverso
1.75,3.89,3.0,2.38,3.7,s8514,negro
1.75,3.89,3.0,2.38,3.7,s4299,largo
1.75,3.89,3.0,2.38,3.7,s8104,largo
1.75,3.89,3.0,2.38,3.7,s8365,idoso
2.0,3.11,2.22,1.88,2.7,s8514,negro
2.0,3.11,2.22,1.88,2.7,s4559,claro
2.0,3.11,2.22,1.88,2.7,s5610,claro
2.0,3.11,2.22,1.88,2.7,s8195,claro
2.0,3.11,2.22,1.88,2.7,s8461,claro
2.0,3.11,2.22,1.88,2.7,s8727,claro
2.0,3.11,2.22,1.88,2.7,s10308,claro
2.0,3.11,2.22,1.88,2.7,s8223,comprido
2.0,3.11,2.22,1.88,2.7,s4483,direito
2.0,3.11,2.22,1.88,2.7,s4486,direito
2.0,3.11,2.22,1.88,2.7,s4490,direito
2.0,3.11,2.22,1.88,2.7,s6321,direito
2.0,3.11,2.22,1.88,2.7,s4565,escuro
2.0,3.11,2.22,1.88,2.7,s8514,escuro
3.25,4.11,3.44,3.38,4.3,s8514,negro
3.25,4.11,3.44,3.38,4.3,s10495,confortável
3.25,4.11,3.44,3.38,4.3,s4983,jovem
3.25,4.11,3.44,3.38,4.3,s8365,idoso
3.5,3.44,3.56,4.13,3.2,s5643,possível
3.5,3.44,3.56,4.13,3.2,s8514,negro
3.5,3.44,3.56,4.13,3.2,s4458,colorido
4.63,3.56,2.67,3.5,2.8,s8514,negro
2.88,3.44,3.78,3.13,4.6,s4569,visível
2.88,3.44,3.78,3.13,4.6,s4569,visível
2.88,3.44,3.78,3.13,4.6,s8727,visível
2.88,3.44,3.78,3.13,4.6,s8727,visível
2.88,3.44,3.78,3.13,4.6,s4275,pronto
3.38,3.0,3.56,2.25,4.0,s8514,negro
3.38,3.0,3.56,2.25,4.0,s8365,idoso
3.38,3.0,3.56,2.25,4.0,s4527,miserável
3.38,3.0,3.56,2.25,4.0,s4596,miserável
3.38,3.0,3.56,2.25,4.0,s4983,novo
2.63,4.11,3.56,3.0,3.5,s9696,esticado
2.75,3.78,2.33,3.38,3.3,s7077,extraordinário
2.75,3.78,2.33,3.38,3.3,s8514,negro
2.75,3.78,2.33,3.38,3.3,s8514,negro
3.25,3.11,2.44,1.63,2.4,s8514,negro
3.25,3.11,2.44,1.63,2.4,s4596,pobre
3.25,3.11,2.44,1.63,2.4,s4650,simples
3.25,3.11,2.44,1.63,2.4,s7576,simples
4.25,4.11,1.56,3.75,3.7,s8514,negro
4.25,4.11,1.56,3.75,3.7,s4527,triste
4.25,4.11,1.56,3.75,3.7,s8494,triste
2.63,3.22,4.0,2.13,3.7,s8514,negro
2.63,3.22,4.0,2.13,3.7,s6321,plano
3.25,3.33,3.0,2.63,3.9,s8514,negro
3.25,3.33,3.0,2.63,3.9,s8365,velho
3.25,3.33,3.0,2.63,3.9,s9572,velho
3.38,3.67,4.56,3.75,3.6,s8514,negro
3.38,3.67,4.56,3.75,3.6,s4983,jovem
3.38,3.67,4.56,3.75,3.6,s8365,velho
3.38,3.67,4.56,3.75,3.6,s9572,velho
3.38,3.67,4.56,3.75,3.6,s4603,próximo
3.38,3.67,4.56,3.75,3.6,s4559,claro
3.38,3.67,4.56,3.75,3.6,s4559,claro
3.38,3.67,4.56,3.75,3.6,s5610,claro
3.38,3.67,4.56,3.75,3.6,s5610,claro
3.38,3.67,4.56,3.75,3.6,s8195,claro
3.38,3.67,4.56,3.75,3.6,s8195,claro
3.38,3.67,4.56,3.75,3.6,s8461,claro
3.38,3.67,4.56,3.75,3.6,s8461,claro
3.38,3.67,4.56,3.75,3.6,s8727,claro
3.38,3.67,4.56,3.75,3.6,s8727,claro
3.38,3.67,4.56,3.75,3.6,s10308,claro
3.38,3.67,4.56,3.75,3.6,s10308,claro
2.63,3.33,3.56,2.75,3.8,s8514,negro
2.63,3.33,3.56,2.75,3.8,s4753,diverso
2.63,3.33,3.56,2.75,3.8,s8104,grande
2.63,3.33,3.56,2.75,3.8,s8223,grande
2.25,4.44,4.0,2.88,4.7,s8514,negro
2.13,4.44,3.89,2.13,4.0,s4650,simples
2.13,4.44,3.89,2.13,4.0,s7576,simples
2.13,4.44,3.89,2.13,4.0,s4698,feliz
1.63,4.33,4.0,2.5,4.1,s4753,diverso
1.63,4.33,4.0,2.5,4.1,s4753,diverso
1.63,4.33,4.0,2.5,4.1,s8514,negro
3.75,4.22,4.44,1.38,4.5,s8104,grande
3.75,4.22,4.44,1.38,4.5,s8223,grande
3.75,4.22,4.44,1.38,4.5,s4483,direito
3.75,4.22,4.44,1.38,4.5,s4486,direito
3.75,4.22,4.44,1.38,4.5,s4490,direito
3.75,4.22,4.44,1.38,4.5,s6321,direito
3.75,4.22,4.44,1.38,4.5,s4983,jovem
3.75,4.22,4.44,1.38,4.5,s8365,idoso
3.75,4.22,4.44,1.38,4.5,s8514,negro
3.75,4.22,4.44,1.38,4.5,s4650,simples
3.75,4.22,4.44,1.38,4.5,s7576,simples
2.88,3.44,2.56,2.13,4.1,s8514,negro
2.88,3.44,2.56,2.13,4.1,s5643,possível
3.88,3.33,3.44,2.5,3.8,s8514,negro
3.88,3.33,3.44,2.5,3.8,s4490,sério
2.13,3.56,2.89,2.25,3.5,s4753,diverso
2.13,3.56,2.89,2.25,3.5,s4650,simples
2.13,3.56,2.89,2.25,3.5,s7576,simples
4.63,4.33,4.0,1.75,4.1,s8514,negro
2.25,3.78,3.0,2.38,4.0,s8514,negro
2.25,3.78,3.0,2.38,4.0,s9001,batido
2.5,4.33,4.33,2.25,3.9,s8727,aparente
2.5,4.33,4.33,2.25,3.9,s9469,aparente
2.5,4.33,4.33,2.25,3.9,s8104,grande
2.5,4.33,4.33,2.25,3.9,s8223,grande
3.5,2.78,3.33,3.38,4.1,s4983,jovem
2.75,3.0,4.11,2.63,4.0,s4753,diverso
2.75,3.0,4.11,2.63,4.0,s7576,humilde
4.25,4.0,3.67,3.13,3.6,s4753,diverso
4.25,4.0,3.67,3.13,3.6,s8514,negro
4.25,4.0,3.67,3.13,3.6,s8365,idoso
4.25,4.0,3.67,3.13,3.6,s4596,pobre
1.38,3.56,3.22,1.5,3.25,s8514,negro
1.38,3.56,3.22,1.5,3.25,s4155,baixo
1.38,3.56,3.22,1.5,3.25,s7627,baixo
1.38,3.56,3.22,1.5,3.25,s8753,baixo
1.38,3.56,3.22,1.5,3.25,s8195,limpo
1.38,3.56,3.22,1.5,3.25,s10340,limpo
4.38,4.0,3.22,1.5,4.5,s4753,diverso
2.63,3.44,2.67,2.25,3.6,s8514,negro
3.13,3.33,3.0,3.25,3.2,s4565,escuro
3.13,3.33,3.0,3.25,3.2,s8514,escuro
3.13,3.33,3.0,3.25,3.2,s4490,sério
3.0,3.67,4.78,3.38,3.8,s4983,jovem
3.0,3.67,4.78,3.38,3.8,s8365,idoso
3.0,4.11,3.33,2.0,4.2,s8514,negro
3.0,4.11,3.33,2.0,4.2,s8104,grande
3.0,4.11,3.33,2.0,4.2,s8223,grande
3.0,4.11,3.33,2.0,4.2,s8365,velho
3.0,4.11,3.33,2.0,4.2,s9572,velho
3.0,4.11,3.33,2.0,4.2,s5643,possível
3.0,4.11,3.33,2.0,4.2,s9572,antigo
4.5,3.22,4.33,4.63,3.6,s8514,negro
4.5,3.22,4.33,4.63,3.6,s4490,sério
3.75,4.0,4.56,2.38,4.4,s7576,humilde
2.13,3.0,2.56,3.75,3.7,s8514,negro
2.13,3.0,2.56,3.75,3.7,s4596,pobre
2.13,3.0,2.56,3.75,3.7,s9696,esticado
1.88,3.11,2.44,3.63,4.3,s4490,sério
1.88,3.11,2.44,3.63,4.3,s4549,bravo
1.88,3.11,2.44,3.63,4.3,s7204,bravo
1.88,3.11,2.44,3.63,4.3,s9157,bravo
1.88,3.11,2.44,3.63,4.3,s10484,bravo
3.63,3.44,3.11,2.63,3.5,s8514,negro
3.63,3.44,3.11,2.63,3.5,s8104,grande
3.63,3.44,3.11,2.63,3.5,s8223,grande
3.75,3.89,3.33,2.38,3.9,s4983,jovem
3.75,3.89,3.33,2.38,3.9,s8514,negro
3.25,3.33,2.78,3.13,3.8,s8514,negro
3.25,3.33,2.78,3.13,3.8,s9001,corrente
1.75,3.56,2.78,2.5,4.3,s8514,negro
3.75,3.44,2.78,3.25,3.9,s8104,grande
3.75,3.44,2.78,3.25,3.9,s8223,grande
3.75,3.44,2.78,3.25,3.9,s8365,idoso
3.38,4.89,4.78,2.13,4.6,s4483,direito
3.38,4.89,4.78,2.13,4.6,s4486,direito
3.38,4.89,4.78,2.13,4.6,s4490,direito
3.38,4.89,4.78,2.13,4.6,s6321,direito
3.38,4.89,4.78,2.13,4.6,s7626,alto
3.38,4.89,4.78,2.13,4.6,s10484,alto
3.38,4.89,4.78,2.13,4.6,s4458,colorido
2.88,3.44,4.0,4.63,3.1,s7576,humilde
2.88,3.44,4.0,4.63,3.1,s4527,triste
2.88,3.44,4.0,4.63,3.1,s8494,triste
2.88,3.44,4.0,4.63,3.1,s8104,grande
2.88,3.44,4.0,4.63,3.1,s8223,grande
4.88,4.33,3.78,1.75,4.0,s8514,negro
4.88,4.33,3.78,1.75,4.0,s4753,diverso
3.88,4.33,4.78,2.25,3.3,s8514,negro
3.75,3.67,2.56,3.13,3.8,s7691,árido
3.75,3.67,2.56,3.13,3.8,s4983,jovem
3.75,3.67,2.56,3.13,3.8,s8365,velho
3.75,3.67,2.56,3.13,3.8,s9572,velho
3.75,3.67,2.56,3.13,3.8,s8514,negro
3.75,3.67,2.56,3.13,3.8,s6598,multicolorido
3.75,3.67,2.56,3.13,3.8,s8753,pequeno
3.75,3.67,2.56,3.13,3.8,s10606,pequeno
3.63,3.22,3.22,2.38,3.4,s8514,negro
2.63,3.33,3.0,3.75,3.2,s4549,bravo
2.63,3.33,3.0,3.75,3.2,s7204,bravo
2.63,3.33,3.0,3.75,3.2,s9157,bravo
2.63,3.33,3.0,3.75,3.2,s10484,bravo
4.25,4.22,3.67,2.63,4.5,s8514,negro
4.25,4.22,3.67,2.63,4.5,s4596,pobre
4.25,4.22,3.67,2.63,4.5,s7576,humilde
4.25,4.22,3.67,2.63,4.5,s8104,grande
4.25,4.22,3.67,2.63,4.5,s8223,grande
4.38,3.78,3.56,3.0,4.0,s8514,negro
4.38,3.78,3.56,3.0,4.0,s8104,grande
4.38,3.78,3.56,3.0,4.0,s8223,grande
2.25,3.78,2.67,3.0,3.4,s8514,negro
2.25,3.78,2.67,3.0,3.4,s4483,direito
2.25,3.78,2.67,3.0,3.4,s4486,direito
2.25,3.78,2.67,3.0,3.4,s4490,direito
2.25,3.78,2.67,3.0,3.4,s6321,direito
2.25,3.78,2.67,3.0,3.4,s4559,branco
2.25,3.78,2.67,3.0,3.4,s7626,alto
2.25,3.78,2.67,3.0,3.4,s10484,alto
3.38,4.44,3.44,3.0,3.6,s8514,negro
3.38,4.44,3.44,3.0,3.6,s4527,triste
3.38,4.44,3.44,3.0,3.6,s8494,triste
3.38,4.44,3.44,3.0,3.6,s8365,velho
3.38,4.44,3.44,3.0,3.6,s9572,velho
3.25,3.89,2.67,3.13,3.6,s8514,negro
4.13,3.33,3.0,3.88,3.9,s4983,jovem
4.13,3.33,3.0,3.88,3.9,s8365,idoso
4.13,3.33,3.0,3.88,3.9,s4596,pobre
4.13,3.33,3.0,3.88,3.9,s4603,próximo
3.75,4.11,3.33,3.88,4.9,s8104,grande
3.75,4.11,3.33,3.88,4.9,s8223,grande
2.63,3.11,3.89,2.5,3.3,s4596,pobre
3.0,2.56,2.67,2.88,2.5,s8514,negro
3.0,2.56,2.67,2.88,2.5,s4527,escasso
3.0,2.56,2.67,2.88,2.5,s10326,escasso
3.63,3.78,2.89,4.13,3.3,s4527,triste
3.63,3.78,2.89,4.13,3.3,s8494,triste
4.63,3.44,3.11,4.25,4.4,s8514,negro
4.63,3.44,3.11,4.25,4.4,s8104,grande
4.63,3.44,3.11,4.25,4.4,s8223,grande
3.88,4.33,4.0,3.5,3.9,s4596,pobre
3.88,4.33,4.0,3.5,3.9,s8514,negro
3.88,4.33,4.0,3.5,3.9,s7626,alto
3.88,4.33,4.0,3.5,3.9,s10484,alto
3.75,3.44,3.11,4.13,3.7,s8514,negro
1.38,3.67,2.78,2.88,2.9,s9696,esticado
1.38,3.67,2.78,2.88,2.9,s4155,baixo
1.38,3.67,2.78,2.88,2.9,s7627,baixo
1.38,3.67,2.78,2.88,2.9,s8753,baixo
3.25,3.67,2.89,2.5,3.4,s8104,grande
3.25,3.67,2.89,2.5,3.4,s8223,grande
3.25,3.67,2.89,2.5,3.4,s8514,negro
3.25,3.67,2.89,2.5,3.4,s9544,abatido
3.25,3.67,2.89,2.5,3.4,s10560,abatido
3.88,3.44,3.89,3.5,3.7,s4983,jovem
3.88,3.44,3.89,3.5,3.7,s8365,idoso
3.63,3.56,2.44,4.0,4.1,s8514,negro
3.63,3.56,2.44,4.0,4.1,s10617,só
3.63,3.56,2.44,4.0,4.1,s8365,idoso
3.63,3.56,2.44,4.0,4.1,s4650,simples
3.63,3.56,2.44,4.0,4.1,s7576,simples
2.63,3.56,4.22,3.38,3.8,s8514,negro
2.63,3.56,4.22,3.38,3.8,s4650,simples
2.63,3.56,4.22,3.38,3.8,s7576,simples
3.63,4.22,3.56,2.38,4.0,s8514,negro
3.63,4.22,3.56,2.38,4.0,s8514,negro
3.63,4.22,3.56,2.38,4.0,s4753,diverso
3.63,4.22,3.56,2.38,4.0,s8365,idoso
3.63,4.22,3.56,2.38,4.0,s9152,distante
3.75,3.89,3.33,3.63,3.8,s8514,negro
3.75,3.89,3.33,3.63,3.8,s4527,triste
3.75,3.89,3.33,3.63,3.8,s8494,triste
3.88,3.11,3.22,3.13,4.1,s8514,negro
3.88,3.11,3.22,3.13,4.1,s4650,simples
3.88,3.11,3.22,3.13,4.1,s7576,simples
3.88,3.11,3.22,3.13,4.1,s4527,triste
3.88,3.11,3.22,3.13,4.1,s8494,triste
3.88,3.11,3.22,3.13,4.1,s4596,pobre
3.88,3.11,3.22,3.13,4.1,s10112,corporal
3.88,3.11,3.22,3.13,4.1,s4447,exato
1.88,4.11,3.11,2.88,2.7,s8514,negro
1.88,4.11,3.11,2.88,2.7,s4458,colorido
1.88,4.11,3.11,2.88,2.7,s9051,quente
2.88,4.44,3.78,1.63,4.1,s8514,negro
2.88,4.44,3.78,1.63,4.1,s4596,pobre
3.63,3.56,3.56,3.63,5.0,s8514,negro
3.63,3.56,3.56,3.63,5.0,s4650,simples
3.63,3.56,3.56,3.63,5.0,s7576,simples
3.63,3.56,3.56,3.63,5.0,s9696,estirado
3.25,4.78,3.33,3.5,2.4,s8514,negro
3.25,4.78,3.33,3.5,2.4,s4983,jovem
3.25,4.78,3.33,3.5,2.4,s4983,jovem
3.25,4.78,3.33,3.5,2.4,s8365,idoso
3.25,4.78,3.33,3.5,2.4,s4596,pobre
3.88,3.89,3.33,2.5,4.5,s8514,negro
3.88,3.89,3.33,2.5,4.5,s4527,triste
3.88,3.89,3.33,2.5,4.5,s8494,triste
1.88,3.0,2.78,3.5,3.4,s8514,negro
1.88,3.0,2.78,3.5,3.4,s8514,negro
1.88,3.0,2.78,3.5,3.4,s4983,jovem
1.88,3.0,2.78,3.5,3.4,s4458,colorido
1.88,3.0,2.78,3.5,3.4,s4559,claro
1.88,3.0,2.78,3.5,3.4,s5610,claro
1.88,3.0,2.78,3.5,3.4,s8195,claro
1.88,3.0,2.78,3.5,3.4,s8461,claro
1.88,3.0,2.78,3.5,3.4,s8727,claro
1.88,3.0,2.78,3.5,3.4,s10308,claro
1.88,3.0,2.78,3.5,3.4,s4645,apreensivo
1.88,3.0,2.78,3.5,3.4,s5643,possível
1.88,3.0,2.78,3.5,3.4,s5643,possível
1.88,3.0,2.78,3.5,3.4,s7935,exterior
1.88,3.0,2.78,3.5,3.4,s8104,grande
1.88,3.0,2.78,3.5,3.4,s8104,grande
1.88,3.0,2.78,3.5,3.4,s8223,grande
1.88,3.0,2.78,3.5,3.4,s8223,grande
1.88,3.0,2.78,3.5,3.4,s4483,direito
1.88,3.0,2.78,3.5,3.4,s4486,direito
1.88,3.0,2.78,3.5,3.4,s4490,direito
1.88,3.0,2.78,3.5,3.4,s6321,direito
2.0,3.56,3.0,2.75,3.4,s9696,esticado
2.38,3.22,3.56,3.63,2.7,s4650,simples
2.38,3.22,3.56,3.63,2.7,s7576,simples
3.25,4.11,3.56,2.5,4.5,s8514,negro
3.25,4.11,3.56,2.5,4.5,s4155,baixo
3.25,4.11,3.56,2.5,4.5,s7627,baixo
3.25,4.11,3.56,2.5,4.5,s8753,baixo
4.0,4.11,3.44,3.38,3.4,s8514,negro
4.0,4.11,3.44,3.38,3.4,s4753,diverso
4.0,4.11,3.44,3.38,3.4,s4983,jovem
3.88,3.44,2.78,2.5,3.3,s8514,negro
2.63,3.89,2.89,3.38,3.6,s5643,possível
2.63,3.89,2.89,3.38,3.6,s5643,possível
2.63,3.89,2.89,3.38,3.6,s7576,humilde
2.63,3.89,2.89,3.38,3.6,s4148,rural
3.75,3.44,2.89,2.13,4.3,s4753,diverso
3.75,3.44,2.89,2.13,4.3,s8514,negro
3.75,3.44,2.89,2.13,4.3,s8365,idoso
3.75,3.44,2.89,2.13,4.3,s8104,grande
3.75,3.44,2.89,2.13,4.3,s8223,grande
3.75,3.56,2.33,3.88,4.1,s8514,negro
2.63,4.0,4.11,2.5,4.7,s8514,negro
2.63,4.0,4.11,2.5,4.7,s8514,negro
2.5,4.56,3.0,2.38,2.8,s4565,escuro
2.5,4.56,3.0,2.38,2.8,s8514,escuro
2.5,4.56,3.0,2.38,2.8,s4564,fechado
3.13,3.56,3.89,3.75,3.5,s4527,triste
3.13,3.56,3.89,3.75,3.5,s8494,triste
3.5,4.56,2.67,1.88,3.7,s4155,baixo
3.5,4.56,2.67,1.88,3.7,s7627,baixo
3.5,4.56,2.67,1.88,3.7,s8753,baixo
2.38,3.11,2.67,2.5,3.8,s8514,negro
2.38,3.11,2.67,2.5,3.8,s8104,grande
2.38,3.11,2.67,2.5,3.8,s8223,grande
4.88,3.89,4.33,3.25,4.4,s4596,pobre
4.88,3.89,4.33,3.25,4.4,s9696,esticado
3.5,2.67,4.0,1.88,4.0,s4753,diverso
3.5,2.67,4.0,1.88,4.0,s8514,negro
3.5,2.67,4.0,1.88,4.0,s4983,jovem
3.5,2.67,4.0,1.88,4.0,s8365,velho
3.5,2.67,4.0,1.88,4.0,s9572,velho
4.88,3.78,2.44,3.63,4.4,s8514,negro
4.88,3.78,2.44,3.63,4.4,s9152,distante
4.88,3.78,2.44,3.63,4.4,s9860,usado
3.63,3.78,3.67,3.0,4.5,s8514,negro
3.63,3.78,3.67,3.0,4.5,s4527,triste
3.63,3.78,3.67,3.0,4.5,s8494,triste
4.13,3.67,4.0,3.13,3.9,s8104,grande
4.13,3.67,4.0,3.13,3.9,s8223,grande
4.13,3.67,4.0,3.13,3.9,s8592,cruel
2.38,3.33,3.67,3.88,3.3,s8514,negro
2.38,3.33,3.67,3.88,3.3,s4983,jovem
2.38,3.33,3.67,3.88,3.3,s8365,idoso
2.5,3.33,2.89,2.75,4.6,s8514,negro
2.25,3.78,2.22,1.5,3.2,s8104,grande
2.25,3.78,2.22,1.5,3.2,s8223,grande
2.25,3.78,2.22,1.5,3.2,s4650,simples
2.25,3.78,2.22,1.5,3.2,s7576,simples
2.25,3.78,2.22,1.5,3.2,s8514,negro
2.25,3.78,2.22,1.5,3.2,s10085,rico
2.25,3.78,2.22,1.5,3.2,s10358,rico
3.13,3.89,3.44,3.75,3.6,s8514,negro
2.88,4.56,2.78,2.38,3.3,s4565,escuro
2.88,4.56,2.78,2.38,3.3,s8514,escuro
2.88,4.56,2.78,2.38,3.3,s4983,novo
2.88,4.56,2.78,2.38,3.3,s4514,ralo
3.13,3.67,2.11,4.0,3.7,s8514,negro
3.13,3.67,2.11,4.0,3.7,s8514,negro
3.13,3.67,2.11,4.0,3.7,s4527,triste
3.13,3.67,2.11,4.0,3.7,s8494,triste
4.25,4.0,2.78,2.38,3.7,s8514,negro
4.25,4.0,2.78,2.38,3.7,s8365,velho
4.25,4.0,2.78,2.38,3.7,s9572,velho
4.25,4.0,2.78,2.38,3.7,s7576,humilde
3.63,4.44,2.22,2.88,4.1,s8514,negro
3.63,4.44,2.22,2.88,4.1,s8514,negro
3.63,4.44,2.22,2.88,4.1,s4645,preocupado
3.63,4.44,2.22,2.88,4.1,s4753,diferente
3.63,4.44,2.22,2.88,4.1,s4527,triste
3.63,4.44,2.22,2.88,4.1,s8494,triste
2.88,3.78,3.78,4.0,3.3,s4753,diverso
2.88,3.78,3.78,4.0,3.3,s4753,diverso
2.88,3.78,3.78,4.0,3.3,s7626,alto
2.88,3.78,3.78,4.0,3.3,s10484,alto
3.0,3.44,4.89,4.0,2.9,s9864,bom
3.0,3.44,4.89,4.0,2.9,s5643,possível
3.0,3.44,4.89,4.0,2.9,s9001,comum
3.0,3.44,4.89,4.0,2.9,s9860,comum
