EXTRA,AGREE,CONSC,NEURO,OPEN,CONCEPT,STRING
3.88,3.22,3.11,1.63,3.7,s1678,enrolar
3.88,3.22,3.11,1.63,3.7,s1897,enrolar
3.88,3.22,3.11,1.63,3.7,s3953,enrolar
3.88,3.22,3.11,1.63,3.7,s1660,cobrir
3.88,3.22,3.11,1.63,3.7,s1660,cobrir
3.88,3.22,3.11,1.63,3.7,s3008,cobrir
3.88,3.22,3.11,1.63,3.7,s3008,cobrir
3.88,3.22,3.11,1.63,3.7,s3555,cobrir
3.88,3.22,3.11,1.63,3.7,s3555,cobrir
3.88,3.22,3.11,1.63,3.7,s2448,ter
3.88,3.22,3.11,1.63,3.7,s2448,ter
3.88,3.22,3.11,1.63,3.7,s2448,ter
3.88,3.22,3.11,1.63,3.7,s3118,ter
3.88,3.22,3.11,1.63,3.7,s3118,ter
3.88,3.22,3.11,1.63,3.7,s3118,ter
3.88,3.22,3.11,1.63,3.7,s2342,estar
3.88,3.22,3.11,1.63,3.7,s2342,estar
3.88,3.22,3.11,1.63,3.7,s2342,estar
3.88,3.22,3.11,1.63,3.7,s2702,estar
3.88,3.22,3.11,1.63,3.7,s2702,estar
3.88,3.22,3.11,1.63,3.7,s2702,estar
3.88,3.22,3.11,1.63,3.7,s3151,dar
3.88,3.22,3.11,1.63,3.7,s3151,dar
3.88,3.22,3.11,1.63,3.7,s3716,dar
3.88,3.22,3.11,1.63,3.7,s3716,dar
3.88,3.22,3.11,1.63,3.7,s4026,dar
3.88,3.22,3.11,1.63,3.7,s4026,dar
3.88,3.22,3.11,1.63,3.7,s3141,começar
3.88,3.22,3.11,1.63,3.7,s969,ver
3.88,3.22,3.11,1.63,3.7,s3434,ver
3.88,3.22,3.11,1.63,3.7,s3756,ver
2.38,3.11,3.22,3.13,2.2,s1678,enrolar
2.38,3.11,3.22,3.13,2.2,s1897,enrolar
2.38,3.11,3.22,3.13,2.2,s3953,enrolar
2.38,3.11,3.22,3.13,2.2,s2448,ter
2.38,3.11,3.22,3.13,2.2,s2448,ter
2.38,3.11,3.22,3.13,2.2,s2448,ter
2.38,3.11,3.22,3.13,2.2,s2448,ter
2.38,3.11,3.22,3.13,2.2,s3118,ter
2.38,3.11,3.22,3.13,2.2,s3118,ter
2.38,3.11,3.22,3.13,2.2,s3118,ter
2.38,3.11,3.22,3.13,2.2,s3118,ter
2.38,3.11,3.22,3.13,2.2,s3031,excluir
2.38,3.11,3.22,3.13,2.2,s3643,excluir
1.75,3.67,2.67,2.88,4.1,s2446,dormir
1.75,3.67,2.67,2.88,4.1,s1678,enrolar
1.75,3.67,2.67,2.88,4.1,s1897,enrolar
1.75,3.67,2.67,2.88,4.1,s3953,enrolar
1.75,3.67,2.67,2.88,4.1,s2342,estar
1.75,3.67,2.67,2.88,4.1,s2342,estar
1.75,3.67,2.67,2.88,4.1,s2702,estar
1.75,3.67,2.67,2.88,4.1,s2702,estar
1.75,3.67,2.67,2.88,4.1,s1660,cobrir
1.75,3.67,2.67,2.88,4.1,s3008,cobrir
1.75,3.67,2.67,2.88,4.1,s3555,cobrir
1.75,3.67,2.67,2.88,4.1,s2371,fechar
1.75,3.67,2.67,2.88,4.1,s3601,fechar
1.75,3.67,2.67,2.88,4.1,s3735,fechar
1.75,3.67,2.67,2.88,4.1,s168,observar
1.75,3.67,2.67,2.88,4.1,s3369,observar
1.75,3.67,2.67,2.88,4.1,s2342,ser
1.75,3.67,2.67,2.88,4.1,s2342,ser
1.75,3.67,2.67,2.88,4.1,s2501,ser
1.75,3.67,2.67,2.88,4.1,s2501,ser
1.75,3.67,2.67,2.88,4.1,s3022,ser
1.75,3.67,2.67,2.88,4.1,s3022,ser
1.75,3.22,3.56,3.88,4.1,s2342,estar
1.75,3.22,3.56,3.88,4.1,s2342,estar
1.75,3.22,3.56,3.88,4.1,s2702,estar
1.75,3.22,3.56,3.88,4.1,s2702,estar
1.75,3.22,3.56,3.88,4.1,s1897,envolver
1.75,3.22,3.56,3.88,4.1,s3445,envolver
1.75,3.22,3.56,3.88,4.1,s3953,envolver
1.75,3.22,3.56,3.88,4.1,s2342,ser
1.75,3.22,3.56,3.88,4.1,s2501,ser
1.75,3.22,3.56,3.88,4.1,s3022,ser
1.75,3.22,3.56,3.88,4.1,s2342,existir
1.75,3.22,3.56,3.88,4.1,s3504,colorir
1.75,3.22,3.56,3.88,4.1,s3819,colorir
1.75,3.22,3.56,3.88,4.1,s2448,ter
1.75,3.22,3.56,3.88,4.1,s2448,ter
1.75,3.22,3.56,3.88,4.1,s3118,ter
1.75,3.22,3.56,3.88,4.1,s3118,ter
3.13,4.0,1.89,3.75,3.0,s1678,enrolar
3.13,4.0,1.89,3.75,3.0,s1897,enrolar
3.13,4.0,1.89,3.75,3.0,s3953,enrolar
3.13,4.0,1.89,3.75,3.0,s2448,ter
3.13,4.0,1.89,3.75,3.0,s3118,ter
3.38,3.33,2.89,3.75,3.8,s1897,envolver
3.38,3.33,2.89,3.75,3.8,s3445,envolver
3.38,3.33,2.89,3.75,3.8,s3953,envolver
3.38,3.33,2.89,3.75,3.8,s3434,lembrar
3.38,3.33,2.89,3.75,3.8,s2448,possuir
3.38,3.33,2.89,3.75,3.8,s3118,possuir
3.38,3.33,2.89,3.75,3.8,s2342,ser
3.38,3.33,2.89,3.75,3.8,s2342,ser
3.38,3.33,2.89,3.75,3.8,s2342,ser
3.38,3.33,2.89,3.75,3.8,s2501,ser
3.38,3.33,2.89,3.75,3.8,s2501,ser
3.38,3.33,2.89,3.75,3.8,s2501,ser
3.38,3.33,2.89,3.75,3.8,s3022,ser
3.38,3.33,2.89,3.75,3.8,s3022,ser
3.38,3.33,2.89,3.75,3.8,s3022,ser
3.38,3.33,2.89,3.75,3.8,s968,saber
3.38,3.33,2.89,3.75,3.8,s969,saber
3.0,4.33,3.56,2.25,3.4,s2342,ser
3.0,4.33,3.56,2.25,3.4,s2342,ser
3.0,4.33,3.56,2.25,3.4,s2342,ser
3.0,4.33,3.56,2.25,3.4,s2501,ser
3.0,4.33,3.56,2.25,3.4,s2501,ser
3.0,4.33,3.56,2.25,3.4,s2501,ser
3.0,4.33,3.56,2.25,3.4,s3022,ser
3.0,4.33,3.56,2.25,3.4,s3022,ser
3.0,4.33,3.56,2.25,3.4,s3022,ser
3.0,4.33,3.56,2.25,3.4,s3897,identificar
3.0,4.33,3.56,2.25,3.4,s2342,estar
3.0,4.33,3.56,2.25,3.4,s2702,estar
3.0,4.33,3.56,2.25,3.4,s2342,haver
4.75,4.22,2.56,2.75,4.6,s2446,dormir
4.75,4.22,2.56,2.75,4.6,s1897,envolver
4.75,4.22,2.56,2.75,4.6,s3445,envolver
4.75,4.22,2.56,2.75,4.6,s3953,envolver
4.75,4.22,2.56,2.75,4.6,s2342,ser
4.75,4.22,2.56,2.75,4.6,s2501,ser
4.75,4.22,2.56,2.75,4.6,s3022,ser
3.0,3.44,3.33,2.38,4.4,s1897,envolver
3.0,3.44,3.33,2.38,4.4,s3445,envolver
3.0,3.44,3.33,2.38,4.4,s3953,envolver
3.0,3.44,3.33,2.38,4.4,s1015,depositar
3.0,3.44,3.33,2.38,4.4,s3933,depositar
3.0,3.44,3.33,2.38,4.4,s3878,inchar
3.0,3.44,3.33,2.38,4.4,s2342,estar
3.0,3.44,3.33,2.38,4.4,s2702,estar
3.0,3.44,3.33,2.38,4.4,s2342,haver
3.0,3.44,3.33,2.38,4.4,s3646,cair
3.0,3.44,3.33,2.38,4.4,s969,ver
3.0,3.44,3.33,2.38,4.4,s3434,ver
3.0,3.44,3.33,2.38,4.4,s3756,ver
3.0,3.44,3.33,2.38,4.4,s727,partir
2.25,3.67,2.22,3.13,3.2,s1678,enrolar
2.25,3.67,2.22,3.13,3.2,s1897,enrolar
2.25,3.67,2.22,3.13,3.2,s3953,enrolar
2.25,3.67,2.22,3.13,3.2,s1660,cobrir
2.25,3.67,2.22,3.13,3.2,s1660,cobrir
2.25,3.67,2.22,3.13,3.2,s3008,cobrir
2.25,3.67,2.22,3.13,3.2,s3008,cobrir
2.25,3.67,2.22,3.13,3.2,s3555,cobrir
2.25,3.67,2.22,3.13,3.2,s3555,cobrir
2.25,3.67,2.22,3.13,3.2,s2342,estar
2.25,3.67,2.22,3.13,3.2,s2702,estar
2.25,3.67,2.22,3.13,3.2,s2446,dormir
2.25,3.67,2.22,3.13,3.2,s2448,ter
2.25,3.67,2.22,3.13,3.2,s2448,ter
2.25,3.67,2.22,3.13,3.2,s2448,ter
2.25,3.67,2.22,3.13,3.2,s3118,ter
2.25,3.67,2.22,3.13,3.2,s3118,ter
2.25,3.67,2.22,3.13,3.2,s3118,ter
2.25,3.67,2.22,3.13,3.2,s2860,usar
2.25,3.67,2.22,3.13,3.2,s2342,ser
2.25,3.67,2.22,3.13,3.2,s2501,ser
2.25,3.67,2.22,3.13,3.2,s3022,ser
4.13,3.22,3.11,3.5,3.4,s2342,ser
4.13,3.22,3.11,3.5,3.4,s2501,ser
4.13,3.22,3.11,3.5,3.4,s3022,ser
4.13,3.22,3.11,3.5,3.4,s2446,dormir
4.13,3.22,3.11,3.5,3.4,s2342,estar
4.13,3.22,3.11,3.5,3.4,s2702,estar
4.13,3.22,3.11,3.5,3.4,s2429,alimentar
4.13,3.22,3.11,3.5,3.4,s1897,envolver
4.13,3.22,3.11,3.5,3.4,s3445,envolver
4.13,3.22,3.11,3.5,3.4,s3953,envolver
4.25,3.67,4.67,2.5,3.5,s1678,enrolar
4.25,3.67,4.67,2.5,3.5,s1897,enrolar
4.25,3.67,4.67,2.5,3.5,s3953,enrolar
4.25,3.67,4.67,2.5,3.5,s3504,colorir
4.25,3.67,4.67,2.5,3.5,s3819,colorir
4.25,3.67,4.67,2.5,3.5,s2342,estar
4.25,3.67,4.67,2.5,3.5,s2702,estar
4.25,3.67,4.67,2.5,3.5,s3625,vigiar
4.25,3.67,4.67,2.5,3.5,s416,tirar
4.25,3.67,4.67,2.5,3.5,s1208,tirar
4.25,3.67,4.67,2.5,3.5,s1617,tirar
4.25,3.67,4.67,2.5,3.5,s2227,tirar
4.25,3.67,4.67,2.5,3.5,s3031,tirar
4.25,3.67,4.67,2.5,3.5,s3643,tirar
4.63,3.56,3.44,3.38,3.6,s1678,enrolar
4.63,3.56,3.44,3.38,3.6,s1897,enrolar
4.63,3.56,3.44,3.38,3.6,s3953,enrolar
4.63,3.56,3.44,3.38,3.6,s1579,encontrar
4.63,3.56,3.44,3.38,3.6,s2342,estar
4.63,3.56,3.44,3.38,3.6,s2702,estar
4.63,3.56,3.44,3.38,3.6,s1660,cobrir
4.63,3.56,3.44,3.38,3.6,s3008,cobrir
4.63,3.56,3.44,3.38,3.6,s3555,cobrir
4.13,3.78,3.78,1.88,3.4,s3022,sugerir
4.13,3.78,3.78,1.88,3.4,s2342,ser
4.13,3.78,3.78,1.88,3.4,s2342,ser
4.13,3.78,3.78,1.88,3.4,s2501,ser
4.13,3.78,3.78,1.88,3.4,s2501,ser
4.13,3.78,3.78,1.88,3.4,s3022,ser
4.13,3.78,3.78,1.88,3.4,s3022,ser
4.13,3.78,3.78,1.88,3.4,s2448,ter
4.13,3.78,3.78,1.88,3.4,s3118,ter
4.13,3.78,3.78,1.88,3.4,s2342,estar
4.13,3.78,3.78,1.88,3.4,s2702,estar
4.13,3.78,3.78,1.88,3.4,s2446,dormir
4.13,3.78,3.78,1.88,3.4,s1678,enrolar
4.13,3.78,3.78,1.88,3.4,s1897,enrolar
4.13,3.78,3.78,1.88,3.4,s3953,enrolar
4.0,3.56,3.33,4.75,3.2,s1897,envolver
4.0,3.56,3.33,4.75,3.2,s3445,envolver
4.0,3.56,3.33,4.75,3.2,s3953,envolver
4.0,3.56,3.33,4.75,3.2,s2342,ser
4.0,3.56,3.33,4.75,3.2,s2342,ser
4.0,3.56,3.33,4.75,3.2,s2342,ser
4.0,3.56,3.33,4.75,3.2,s2342,ser
4.0,3.56,3.33,4.75,3.2,s2342,ser
4.0,3.56,3.33,4.75,3.2,s2501,ser
4.0,3.56,3.33,4.75,3.2,s2501,ser
4.0,3.56,3.33,4.75,3.2,s2501,ser
4.0,3.56,3.33,4.75,3.2,s2501,ser
4.0,3.56,3.33,4.75,3.2,s2501,ser
4.0,3.56,3.33,4.75,3.2,s3022,ser
4.0,3.56,3.33,4.75,3.2,s3022,ser
4.0,3.56,3.33,4.75,3.2,s3022,ser
4.0,3.56,3.33,4.75,3.2,s3022,ser
4.0,3.56,3.33,4.75,3.2,s3022,ser
4.0,3.56,3.33,4.75,3.2,s2342,estar
4.0,3.56,3.33,4.75,3.2,s2342,estar
4.0,3.56,3.33,4.75,3.2,s2342,estar
4.0,3.56,3.33,4.75,3.2,s2702,estar
4.0,3.56,3.33,4.75,3.2,s2702,estar
4.0,3.56,3.33,4.75,3.2,s2702,estar
4.0,3.56,3.33,4.75,3.2,s969,ver
4.0,3.56,3.33,4.75,3.2,s969,ver
4.0,3.56,3.33,4.75,3.2,s3434,ver
4.0,3.56,3.33,4.75,3.2,s3434,ver
4.0,3.56,3.33,4.75,3.2,s3756,ver
4.0,3.56,3.33,4.75,3.2,s3756,ver
4.0,3.56,3.33,4.75,3.2,s3756,distinguir
4.0,3.56,3.33,4.75,3.2,s3897,distinguir
4.0,3.56,3.33,4.75,3.2,s4013,distinguir
1.75,3.0,3.89,4.75,3.0,s2448,ter
1.75,3.0,3.89,4.75,3.0,s3118,ter
1.75,3.0,3.89,4.75,3.0,s2342,estar
1.75,3.0,3.89,4.75,3.0,s2342,estar
1.75,3.0,3.89,4.75,3.0,s2342,estar
1.75,3.0,3.89,4.75,3.0,s2342,estar
1.75,3.0,3.89,4.75,3.0,s2702,estar
1.75,3.0,3.89,4.75,3.0,s2702,estar
1.75,3.0,3.89,4.75,3.0,s2702,estar
1.75,3.0,3.89,4.75,3.0,s2702,estar
1.75,3.0,3.89,4.75,3.0,s1660,cobrir
1.75,3.0,3.89,4.75,3.0,s3008,cobrir
1.75,3.0,3.89,4.75,3.0,s3555,cobrir
1.75,3.0,3.89,4.75,3.0,s2371,fechar
1.75,3.0,3.89,4.75,3.0,s3601,fechar
1.75,3.0,3.89,4.75,3.0,s3735,fechar
1.75,3.0,3.89,4.75,3.0,s475,aparecer
1.75,3.0,3.89,4.75,3.0,s2143,aparecer
3.0,3.67,4.22,3.25,3.7,s2446,dormir
3.0,3.67,4.22,3.25,3.7,s2342,estar
3.0,3.67,4.22,3.25,3.7,s2702,estar
3.0,3.67,4.22,3.25,3.7,s1660,cobrir
3.0,3.67,4.22,3.25,3.7,s3008,cobrir
3.0,3.67,4.22,3.25,3.7,s3555,cobrir
3.5,3.78,2.67,3.63,4.3,s1897,envolver
3.5,3.78,2.67,3.63,4.3,s3445,envolver
3.5,3.78,2.67,3.63,4.3,s3953,envolver
3.5,3.78,2.67,3.63,4.3,s2931,forrar
3.5,3.78,2.67,3.63,4.3,s3817,forrar
3.5,3.78,2.67,3.63,4.3,s2342,estar
3.5,3.78,2.67,3.63,4.3,s2702,estar
3.5,3.78,2.67,3.63,4.3,s3878,inchar
2.88,2.11,4.56,5.0,4.8,s3878,inchar
2.88,2.11,4.56,5.0,4.8,s1660,cobrir
2.88,2.11,4.56,5.0,4.8,s3008,cobrir
2.88,2.11,4.56,5.0,4.8,s3555,cobrir
2.88,2.11,4.56,5.0,4.8,s597,deixar
2.88,2.11,4.56,5.0,4.8,s3151,deixar
2.88,2.11,4.56,5.0,4.8,s3201,deixar
2.88,2.11,4.56,5.0,4.8,s969,ver
2.88,2.11,4.56,5.0,4.8,s3434,ver
2.88,2.11,4.56,5.0,4.8,s3756,ver
2.88,2.11,4.56,5.0,4.8,s2998,melhorar
2.88,2.11,4.56,5.0,4.8,s4010,melhorar
2.88,2.11,4.56,5.0,4.8,s2869,fazer
2.88,2.11,4.56,5.0,4.8,s2873,fazer
3.38,3.56,2.78,4.13,4.0,s1897,envolver
3.38,3.56,2.78,4.13,4.0,s3445,envolver
3.38,3.56,2.78,4.13,4.0,s3953,envolver
3.38,3.56,2.78,4.13,4.0,s2342,estar
3.38,3.56,2.78,4.13,4.0,s2702,estar
3.38,3.56,2.78,4.13,4.0,s2448,ter
3.38,3.56,2.78,4.13,4.0,s3118,ter
3.38,3.56,2.78,4.13,4.0,s2342,ser
3.38,3.56,2.78,4.13,4.0,s2501,ser
3.38,3.56,2.78,4.13,4.0,s3022,ser
3.38,3.56,2.78,4.13,4.0,s416,tirar
3.38,3.56,2.78,4.13,4.0,s1208,tirar
3.38,3.56,2.78,4.13,4.0,s1617,tirar
3.38,3.56,2.78,4.13,4.0,s2227,tirar
3.38,3.56,2.78,4.13,4.0,s3031,tirar
3.38,3.56,2.78,4.13,4.0,s3643,tirar
4.13,4.11,3.33,2.75,3.8,s2342,estar
4.13,4.11,3.33,2.75,3.8,s2702,estar
4.13,4.11,3.33,2.75,3.8,s1678,enrolar
4.13,4.11,3.33,2.75,3.8,s1897,enrolar
4.13,4.11,3.33,2.75,3.8,s3953,enrolar
4.13,4.11,3.33,2.75,3.8,s1213,apoiar
4.13,4.11,3.33,2.75,3.8,s2446,dormir
3.88,4.89,2.89,1.75,3.7,s2446,dormir
3.88,4.89,2.89,1.75,3.7,s2342,estar
3.88,4.89,2.89,1.75,3.7,s2342,estar
3.88,4.89,2.89,1.75,3.7,s2702,estar
3.88,4.89,2.89,1.75,3.7,s2702,estar
3.88,4.89,2.89,1.75,3.7,s1678,enrolar
3.88,4.89,2.89,1.75,3.7,s1897,enrolar
3.88,4.89,2.89,1.75,3.7,s3953,enrolar
3.88,4.89,2.89,1.75,3.7,s1660,cobrir
3.88,4.89,2.89,1.75,3.7,s3008,cobrir
3.88,4.89,2.89,1.75,3.7,s3555,cobrir
3.88,4.89,2.89,1.75,3.7,s2448,ter
3.88,4.89,2.89,1.75,3.7,s3118,ter
3.88,4.89,2.89,1.75,3.7,s2076,destacar
3.88,4.89,2.89,1.75,3.7,s4013,destacar
3.88,4.89,2.89,1.75,3.7,s2342,ser
3.88,4.89,2.89,1.75,3.7,s2501,ser
3.88,4.89,2.89,1.75,3.7,s3022,ser
2.88,3.44,3.0,2.13,3.7,s2342,estar
2.88,3.44,3.0,2.13,3.7,s2342,estar
2.88,3.44,3.0,2.13,3.7,s2702,estar
2.88,3.44,3.0,2.13,3.7,s2702,estar
2.88,3.44,3.0,2.13,3.7,s1897,envolver
2.88,3.44,3.0,2.13,3.7,s3445,envolver
2.88,3.44,3.0,2.13,3.7,s3953,envolver
2.88,3.44,3.0,2.13,3.7,s3504,ornamentar
2.88,3.44,3.0,2.13,3.7,s341,segurar
2.88,3.44,3.0,2.13,3.7,s3005,segurar
2.88,3.44,3.0,2.13,3.7,s4043,segurar
2.88,3.44,3.0,2.13,3.7,s2446,dormir
4.0,3.89,3.78,2.25,3.9,s1678,enrolar
4.0,3.89,3.78,2.25,3.9,s1897,enrolar
4.0,3.89,3.78,2.25,3.9,s3953,enrolar
4.0,3.89,3.78,2.25,3.9,s1660,cobrir
4.0,3.89,3.78,2.25,3.9,s1660,cobrir
4.0,3.89,3.78,2.25,3.9,s3008,cobrir
4.0,3.89,3.78,2.25,3.9,s3008,cobrir
4.0,3.89,3.78,2.25,3.9,s3555,cobrir
4.0,3.89,3.78,2.25,3.9,s3555,cobrir
4.0,3.89,3.78,2.25,3.9,s3318,ocupar
4.0,3.89,3.78,2.25,3.9,s2448,ter
4.0,3.89,3.78,2.25,3.9,s3118,ter
4.0,3.89,3.78,2.25,3.9,s3878,inchar
4.0,3.89,3.78,2.25,3.9,s2342,estar
4.0,3.89,3.78,2.25,3.9,s2702,estar
3.25,3.11,4.0,2.88,4.1,s1678,enrolar
3.25,3.11,4.0,2.88,4.1,s1897,enrolar
3.25,3.11,4.0,2.88,4.1,s3953,enrolar
3.25,3.11,4.0,2.88,4.1,s2448,ter
3.25,3.11,4.0,2.88,4.1,s3118,ter
3.25,3.11,4.0,2.88,4.1,s2342,ser
3.25,3.11,4.0,2.88,4.1,s2501,ser
3.25,3.11,4.0,2.88,4.1,s3022,ser
3.25,3.11,4.0,2.88,4.1,s2177,passar
3.25,3.11,4.0,2.88,4.1,s3717,passar
4.13,3.44,2.67,1.88,3.6,s1897,envolver
4.13,3.44,2.67,1.88,3.6,s3445,envolver
4.13,3.44,2.67,1.88,3.6,s3953,envolver
4.13,3.44,2.67,1.88,3.6,s2342,ser
4.13,3.44,2.67,1.88,3.6,s2501,ser
4.13,3.44,2.67,1.88,3.6,s3022,ser
4.13,3.44,2.67,1.88,3.6,s416,tirar
4.13,3.44,2.67,1.88,3.6,s1208,tirar
4.13,3.44,2.67,1.88,3.6,s1617,tirar
4.13,3.44,2.67,1.88,3.6,s2227,tirar
4.13,3.44,2.67,1.88,3.6,s3031,tirar
4.13,3.44,2.67,1.88,3.6,s3643,tirar
4.13,3.44,2.67,1.88,3.6,s2448,ter
4.13,3.44,2.67,1.88,3.6,s3118,ter
4.13,3.44,2.67,1.88,3.6,s3716,dizer
4.13,3.44,2.67,1.88,3.6,s3943,dizer
4.13,3.44,2.67,1.88,3.6,s4001,dizer
4.13,3.44,2.67,1.88,3.6,s2342,estar
4.13,3.44,2.67,1.88,3.6,s2702,estar
4.0,4.44,3.44,1.5,4.0,s2342,estar
4.0,4.44,3.44,1.5,4.0,s2342,estar
4.0,4.44,3.44,1.5,4.0,s2702,estar
4.0,4.44,3.44,1.5,4.0,s2702,estar
4.0,4.44,3.44,1.5,4.0,s3878,inchar
4.0,4.44,3.44,1.5,4.0,s1678,enrolar
4.0,4.44,3.44,1.5,4.0,s1897,enrolar
4.0,4.44,3.44,1.5,4.0,s3953,enrolar
4.0,4.44,3.44,1.5,4.0,s3896,notar
4.0,4.78,3.56,1.38,3.6,s2342,estar
4.0,4.78,3.56,1.38,3.6,s2342,estar
4.0,4.78,3.56,1.38,3.6,s2702,estar
4.0,4.78,3.56,1.38,3.6,s2702,estar
4.0,4.78,3.56,1.38,3.6,s1678,enrolar
4.0,4.78,3.56,1.38,3.6,s1897,enrolar
4.0,4.78,3.56,1.38,3.6,s3953,enrolar
4.0,4.78,3.56,1.38,3.6,s1660,cobrir
4.0,4.78,3.56,1.38,3.6,s1660,cobrir
4.0,4.78,3.56,1.38,3.6,s3008,cobrir
4.0,4.78,3.56,1.38,3.6,s3008,cobrir
4.0,4.78,3.56,1.38,3.6,s3555,cobrir
4.0,4.78,3.56,1.38,3.6,s3555,cobrir
4.0,4.78,3.56,1.38,3.6,s3141,abrir
4.0,4.78,3.56,1.38,3.6,s3279,abrir
4.75,4.56,4.33,3.88,3.9,s2448,ter
4.75,4.56,4.33,3.88,3.9,s2448,ter
4.75,4.56,4.33,3.88,3.9,s3118,ter
4.75,4.56,4.33,3.88,3.9,s3118,ter
4.75,4.56,4.33,3.88,3.9,s3647,molhar
4.75,4.56,4.33,3.88,3.9,s3033,grudar
4.75,4.56,4.33,3.88,3.9,s1579,encontrar
4.75,4.56,4.33,3.88,3.9,s1660,cobrir
4.75,4.56,4.33,3.88,3.9,s3008,cobrir
4.75,4.56,4.33,3.88,3.9,s3555,cobrir
2.25,3.22,3.67,3.25,3.5,s2446,dormir
2.25,3.22,3.67,3.25,3.5,s1660,cobrir
2.25,3.22,3.67,3.25,3.5,s3008,cobrir
2.25,3.22,3.67,3.25,3.5,s3555,cobrir
2.25,3.22,3.67,3.25,3.5,s2342,estar
2.25,3.22,3.67,3.25,3.5,s2342,estar
2.25,3.22,3.67,3.25,3.5,s2702,estar
2.25,3.22,3.67,3.25,3.5,s2702,estar
2.25,3.22,3.67,3.25,3.5,s2143,levantar
2.25,3.22,3.67,3.25,3.5,s3022,levantar
2.25,3.22,3.67,3.25,3.5,s3168,levantar
2.25,3.22,3.67,3.25,3.5,s3301,levantar
2.25,3.22,3.67,3.25,3.5,s3877,levantar
2.25,3.22,3.67,3.25,3.5,s116,tomar
2.25,3.22,3.67,3.25,3.5,s2677,tomar
2.25,3.22,3.67,3.25,3.5,s3005,tomar
2.25,3.22,3.67,3.25,3.5,s3006,tomar
2.25,3.22,3.67,3.25,3.5,s3075,tomar
2.25,3.22,3.67,3.25,3.5,s3318,tomar
2.25,3.22,3.67,3.25,3.5,s3601,tomar
2.25,3.22,3.67,3.25,3.5,s3735,tomar
3.63,3.56,2.33,4.13,3.6,s2342,ser
3.63,3.56,2.33,4.13,3.6,s2501,ser
3.63,3.56,2.33,4.13,3.6,s3022,ser
3.63,3.56,2.33,4.13,3.6,s2342,estar
3.63,3.56,2.33,4.13,3.6,s2342,estar
3.63,3.56,2.33,4.13,3.6,s2342,estar
3.63,3.56,2.33,4.13,3.6,s2342,estar
3.63,3.56,2.33,4.13,3.6,s2342,estar
3.63,3.56,2.33,4.13,3.6,s2702,estar
3.63,3.56,2.33,4.13,3.6,s2702,estar
3.63,3.56,2.33,4.13,3.6,s2702,estar
3.63,3.56,2.33,4.13,3.6,s2702,estar
3.63,3.56,2.33,4.13,3.6,s2702,estar
3.63,3.56,2.33,4.13,3.6,s3878,inchar
3.63,3.56,2.33,4.13,3.6,s3878,inchar
3.63,3.56,2.33,4.13,3.6,s2448,ter
3.63,3.56,2.33,4.13,3.6,s3118,ter
3.63,3.56,2.33,4.13,3.6,s1678,enrolar
3.63,3.56,2.33,4.13,3.6,s1897,enrolar
3.63,3.56,2.33,4.13,3.6,s3953,enrolar
3.25,3.33,4.44,2.5,3.5,s3878,inchar
3.25,3.33,4.44,2.5,3.5,s2342,estar
3.25,3.33,4.44,2.5,3.5,s2702,estar
3.25,3.33,4.44,2.5,3.5,s1660,cobrir
3.25,3.33,4.44,2.5,3.5,s1660,cobrir
3.25,3.33,4.44,2.5,3.5,s3008,cobrir
3.25,3.33,4.44,2.5,3.5,s3008,cobrir
3.25,3.33,4.44,2.5,3.5,s3555,cobrir
3.25,3.33,4.44,2.5,3.5,s3555,cobrir
2.25,3.44,2.22,4.25,3.5,s3716,mostrar
2.25,3.44,2.22,4.25,3.5,s3717,mostrar
2.25,3.44,2.22,4.25,3.5,s2342,estar
2.25,3.44,2.22,4.25,3.5,s2702,estar
2.25,3.44,2.22,4.25,3.5,s2446,dormir
2.25,3.44,2.22,4.25,3.5,s1678,enrolar
2.25,3.44,2.22,4.25,3.5,s1897,enrolar
2.25,3.44,2.22,4.25,3.5,s3953,enrolar
2.25,3.44,2.22,4.25,3.5,s1660,cobrir
2.25,3.44,2.22,4.25,3.5,s3008,cobrir
2.25,3.44,2.22,4.25,3.5,s3555,cobrir
2.25,3.44,2.22,4.25,3.5,s3896,notar
3.88,3.78,4.33,3.0,4.4,s1897,envolver
3.88,3.78,4.33,3.0,4.4,s3445,envolver
3.88,3.78,4.33,3.0,4.4,s3953,envolver
3.88,3.78,4.33,3.0,4.4,s2342,estar
3.88,3.78,4.33,3.0,4.4,s2702,estar
3.88,3.78,4.33,3.0,4.4,s3878,inchar
3.88,3.78,4.33,3.0,4.4,s3716,indicar
3.88,3.78,4.33,3.0,4.4,s2342,ser
3.88,3.78,4.33,3.0,4.4,s2342,ser
3.88,3.78,4.33,3.0,4.4,s2501,ser
3.88,3.78,4.33,3.0,4.4,s2501,ser
3.88,3.78,4.33,3.0,4.4,s3022,ser
3.88,3.78,4.33,3.0,4.4,s3022,ser
3.88,3.78,4.33,3.0,4.4,s416,tirar
3.88,3.78,4.33,3.0,4.4,s1208,tirar
3.88,3.78,4.33,3.0,4.4,s1617,tirar
3.88,3.78,4.33,3.0,4.4,s2227,tirar
3.88,3.78,4.33,3.0,4.4,s3031,tirar
3.88,3.78,4.33,3.0,4.4,s3643,tirar
3.88,3.78,4.33,3.0,4.4,s1579,encontrar
3.88,3.78,4.33,3.0,4.4,s3504,colorir
3.88,3.78,4.33,3.0,4.4,s3819,colorir
2.0,2.67,1.78,3.5,4.2,s2342,estar
2.0,2.67,1.78,3.5,4.2,s2342,estar
2.0,2.67,1.78,3.5,4.2,s2702,estar
2.0,2.67,1.78,3.5,4.2,s2702,estar
2.0,2.67,1.78,3.5,4.2,s2446,dormir
2.0,2.67,1.78,3.5,4.2,s1660,cobrir
2.0,2.67,1.78,3.5,4.2,s3008,cobrir
2.0,2.67,1.78,3.5,4.2,s3555,cobrir
2.0,2.67,1.78,3.5,4.2,s2371,fechar
2.0,2.67,1.78,3.5,4.2,s3601,fechar
2.0,2.67,1.78,3.5,4.2,s3735,fechar
2.0,2.67,1.78,3.5,4.2,s2342,ser
2.0,2.67,1.78,3.5,4.2,s2342,ser
2.0,2.67,1.78,3.5,4.2,s2501,ser
2.0,2.67,1.78,3.5,4.2,s2501,ser
2.0,2.67,1.78,3.5,4.2,s3022,ser
2.0,2.67,1.78,3.5,4.2,s3022,ser
2.0,2.67,1.78,3.5,4.2,s2342,haver
2.0,2.67,1.78,3.5,4.2,s969,ver
2.0,2.67,1.78,3.5,4.2,s3434,ver
2.0,2.67,1.78,3.5,4.2,s3756,ver
2.25,3.78,3.56,3.63,3.7,s1897,envolver
2.25,3.78,3.56,3.63,3.7,s3445,envolver
2.25,3.78,3.56,3.63,3.7,s3953,envolver
2.25,3.78,3.56,3.63,3.7,s1660,cobrir
2.25,3.78,3.56,3.63,3.7,s3008,cobrir
2.25,3.78,3.56,3.63,3.7,s3555,cobrir
2.25,3.78,3.56,3.63,3.7,s2448,possuir
2.25,3.78,3.56,3.63,3.7,s3118,possuir
2.25,3.78,3.56,3.63,3.7,s2342,estar
2.25,3.78,3.56,3.63,3.7,s2702,estar
2.25,3.78,3.56,3.63,3.7,s2342,haver
3.25,3.0,3.0,3.25,3.9,s2342,estar
3.25,3.0,3.0,3.25,3.9,s2702,estar
3.25,3.0,3.0,3.25,3.9,s1678,enrolar
3.25,3.0,3.0,3.25,3.9,s1897,enrolar
3.25,3.0,3.0,3.25,3.9,s3953,enrolar
3.25,3.0,3.0,3.25,3.9,s1660,cobrir
3.25,3.0,3.0,3.25,3.9,s1660,cobrir
3.25,3.0,3.0,3.25,3.9,s3008,cobrir
3.25,3.0,3.0,3.25,3.9,s3008,cobrir
3.25,3.0,3.0,3.25,3.9,s3555,cobrir
3.25,3.0,3.0,3.25,3.9,s3555,cobrir
1.75,3.89,3.0,2.38,3.7,s2342,estar
1.75,3.89,3.0,2.38,3.7,s2702,estar
1.75,3.89,3.0,2.38,3.7,s1678,enrolar
1.75,3.89,3.0,2.38,3.7,s1897,enrolar
1.75,3.89,3.0,2.38,3.7,s3953,enrolar
1.75,3.89,3.0,2.38,3.7,s2446,dormir
1.75,3.89,3.0,2.38,3.7,s2448,possuir
1.75,3.89,3.0,2.38,3.7,s3118,possuir
1.75,3.89,3.0,2.38,3.7,s2342,ser
1.75,3.89,3.0,2.38,3.7,s2501,ser
1.75,3.89,3.0,2.38,3.7,s3022,ser
1.75,3.89,3.0,2.38,3.7,s969,ver
1.75,3.89,3.0,2.38,3.7,s969,ver
1.75,3.89,3.0,2.38,3.7,s3434,ver
1.75,3.89,3.0,2.38,3.7,s3434,ver
1.75,3.89,3.0,2.38,3.7,s3756,ver
1.75,3.89,3.0,2.38,3.7,s3756,ver
1.75,3.89,3.0,2.38,3.7,s341,segurar
1.75,3.89,3.0,2.38,3.7,s3005,segurar
1.75,3.89,3.0,2.38,3.7,s4043,segurar
1.75,3.89,3.0,2.38,3.7,s1777,vestir
1.75,3.89,3.0,2.38,3.7,s3504,vestir
1.75,3.89,3.0,2.38,3.7,s3819,vestir
2.0,3.11,2.22,1.88,2.7,s2446,dormir
2.0,3.11,2.22,1.88,2.7,s1678,enrolar
2.0,3.11,2.22,1.88,2.7,s1678,enrolar
2.0,3.11,2.22,1.88,2.7,s1897,enrolar
2.0,3.11,2.22,1.88,2.7,s1897,enrolar
2.0,3.11,2.22,1.88,2.7,s3953,enrolar
2.0,3.11,2.22,1.88,2.7,s3953,enrolar
2.0,3.11,2.22,1.88,2.7,s2342,ser
2.0,3.11,2.22,1.88,2.7,s2342,ser
2.0,3.11,2.22,1.88,2.7,s2342,ser
2.0,3.11,2.22,1.88,2.7,s2342,ser
2.0,3.11,2.22,1.88,2.7,s2342,ser
2.0,3.11,2.22,1.88,2.7,s2501,ser
2.0,3.11,2.22,1.88,2.7,s2501,ser
2.0,3.11,2.22,1.88,2.7,s2501,ser
2.0,3.11,2.22,1.88,2.7,s2501,ser
2.0,3.11,2.22,1.88,2.7,s2501,ser
2.0,3.11,2.22,1.88,2.7,s3022,ser
2.0,3.11,2.22,1.88,2.7,s3022,ser
2.0,3.11,2.22,1.88,2.7,s3022,ser
2.0,3.11,2.22,1.88,2.7,s3022,ser
2.0,3.11,2.22,1.88,2.7,s3022,ser
2.0,3.11,2.22,1.88,2.7,s1884,compor
2.0,3.11,2.22,1.88,2.7,s3734,compor
2.0,3.11,2.22,1.88,2.7,s2342,estar
2.0,3.11,2.22,1.88,2.7,s2342,estar
2.0,3.11,2.22,1.88,2.7,s2342,estar
2.0,3.11,2.22,1.88,2.7,s2342,estar
2.0,3.11,2.22,1.88,2.7,s2702,estar
2.0,3.11,2.22,1.88,2.7,s2702,estar
2.0,3.11,2.22,1.88,2.7,s2702,estar
2.0,3.11,2.22,1.88,2.7,s2702,estar
2.0,3.11,2.22,1.88,2.7,s2448,ter
2.0,3.11,2.22,1.88,2.7,s2448,ter
2.0,3.11,2.22,1.88,2.7,s2448,ter
2.0,3.11,2.22,1.88,2.7,s3118,ter
2.0,3.11,2.22,1.88,2.7,s3118,ter
2.0,3.11,2.22,1.88,2.7,s3118,ter
3.25,4.11,3.44,3.38,4.3,s3349,maltratar
3.25,4.11,3.44,3.38,4.3,s2448,ter
3.25,4.11,3.44,3.38,4.3,s2448,ter
3.25,4.11,3.44,3.38,4.3,s2448,ter
3.25,4.11,3.44,3.38,4.3,s3118,ter
3.25,4.11,3.44,3.38,4.3,s3118,ter
3.25,4.11,3.44,3.38,4.3,s3118,ter
3.25,4.11,3.44,3.38,4.3,s4121,perguntar
3.25,4.11,3.44,3.38,4.3,s2868,ajudar
3.25,4.11,3.44,3.38,4.3,s2342,ser
3.25,4.11,3.44,3.38,4.3,s2342,ser
3.25,4.11,3.44,3.38,4.3,s2342,ser
3.25,4.11,3.44,3.38,4.3,s2501,ser
3.25,4.11,3.44,3.38,4.3,s2501,ser
3.25,4.11,3.44,3.38,4.3,s2501,ser
3.25,4.11,3.44,3.38,4.3,s3022,ser
3.25,4.11,3.44,3.38,4.3,s3022,ser
3.25,4.11,3.44,3.38,4.3,s3022,ser
3.25,4.11,3.44,3.38,4.3,s475,aparecer
3.25,4.11,3.44,3.38,4.3,s2143,aparecer
3.5,3.44,3.56,4.13,3.2,s1897,envolver
3.5,3.44,3.56,4.13,3.2,s3445,envolver
3.5,3.44,3.56,4.13,3.2,s3953,envolver
3.5,3.44,3.56,4.13,3.2,s2860,usar
3.5,3.44,3.56,4.13,3.2,s2342,ser
3.5,3.44,3.56,4.13,3.2,s2501,ser
3.5,3.44,3.56,4.13,3.2,s3022,ser
3.5,3.44,3.56,4.13,3.2,s2342,estar
3.5,3.44,3.56,4.13,3.2,s2702,estar
3.5,3.44,3.56,4.13,3.2,s2143,levantar
3.5,3.44,3.56,4.13,3.2,s3022,levantar
3.5,3.44,3.56,4.13,3.2,s3168,levantar
3.5,3.44,3.56,4.13,3.2,s3301,levantar
3.5,3.44,3.56,4.13,3.2,s3877,levantar
3.5,3.44,3.56,4.13,3.2,s2371,fechar
3.5,3.44,3.56,4.13,3.2,s3601,fechar
3.5,3.44,3.56,4.13,3.2,s3735,fechar
3.5,3.44,3.56,4.13,3.2,s168,observar
3.5,3.44,3.56,4.13,3.2,s3369,observar
3.5,3.44,3.56,4.13,3.2,s2342,haver
3.5,3.44,3.56,4.13,3.2,s2342,haver
4.63,3.56,2.67,3.5,2.8,s2342,ser
4.63,3.56,2.67,3.5,2.8,s2501,ser
4.63,3.56,2.67,3.5,2.8,s3022,ser
4.63,3.56,2.67,3.5,2.8,s1678,enrolar
4.63,3.56,2.67,3.5,2.8,s1897,enrolar
4.63,3.56,2.67,3.5,2.8,s3953,enrolar
4.63,3.56,2.67,3.5,2.8,s2448,ter
4.63,3.56,2.67,3.5,2.8,s2448,ter
4.63,3.56,2.67,3.5,2.8,s3118,ter
4.63,3.56,2.67,3.5,2.8,s3118,ter
4.63,3.56,2.67,3.5,2.8,s475,aparecer
4.63,3.56,2.67,3.5,2.8,s2143,aparecer
4.63,3.56,2.67,3.5,2.8,s1777,vestir
4.63,3.56,2.67,3.5,2.8,s3504,vestir
4.63,3.56,2.67,3.5,2.8,s3819,vestir
4.63,3.56,2.67,3.5,2.8,s2342,estar
4.63,3.56,2.67,3.5,2.8,s2702,estar
2.88,3.44,3.78,3.13,4.6,s3716,mostrar
2.88,3.44,3.78,3.13,4.6,s3717,mostrar
2.88,3.44,3.78,3.13,4.6,s1897,envolver
2.88,3.44,3.78,3.13,4.6,s3445,envolver
2.88,3.44,3.78,3.13,4.6,s3953,envolver
2.88,3.44,3.78,3.13,4.6,s2342,ser
2.88,3.44,3.78,3.13,4.6,s2342,ser
2.88,3.44,3.78,3.13,4.6,s2342,ser
2.88,3.44,3.78,3.13,4.6,s2501,ser
2.88,3.44,3.78,3.13,4.6,s2501,ser
2.88,3.44,3.78,3.13,4.6,s2501,ser
2.88,3.44,3.78,3.13,4.6,s3022,ser
2.88,3.44,3.78,3.13,4.6,s3022,ser
2.88,3.44,3.78,3.13,4.6,s3022,ser
2.88,3.44,3.78,3.13,4.6,s2342,estar
2.88,3.44,3.78,3.13,4.6,s2702,estar
2.88,3.44,3.78,3.13,4.6,s1777,vestir
2.88,3.44,3.78,3.13,4.6,s3504,vestir
2.88,3.44,3.78,3.13,4.6,s3819,vestir
2.88,3.44,3.78,3.13,4.6,s2869,fazer
2.88,3.44,3.78,3.13,4.6,s2873,fazer
3.38,3.0,3.56,2.25,4.0,s1897,envolver
3.38,3.0,3.56,2.25,4.0,s3445,envolver
3.38,3.0,3.56,2.25,4.0,s3953,envolver
3.38,3.0,3.56,2.25,4.0,s1213,descansar
3.38,3.0,3.56,2.25,4.0,s2446,descansar
3.38,3.0,3.56,2.25,4.0,s3733,descansar
3.38,3.0,3.56,2.25,4.0,s4124,descansar
3.38,3.0,3.56,2.25,4.0,s3151,dar
3.38,3.0,3.56,2.25,4.0,s3716,dar
3.38,3.0,3.56,2.25,4.0,s4026,dar
3.38,3.0,3.56,2.25,4.0,s3897,identificar
3.38,3.0,3.56,2.25,4.0,s2342,ser
3.38,3.0,3.56,2.25,4.0,s2342,ser
3.38,3.0,3.56,2.25,4.0,s2501,ser
3.38,3.0,3.56,2.25,4.0,s2501,ser
3.38,3.0,3.56,2.25,4.0,s3022,ser
3.38,3.0,3.56,2.25,4.0,s3022,ser
3.38,3.0,3.56,2.25,4.0,s2371,fechar
3.38,3.0,3.56,2.25,4.0,s3601,fechar
3.38,3.0,3.56,2.25,4.0,s3735,fechar
3.38,3.0,3.56,2.25,4.0,s2342,estar
3.38,3.0,3.56,2.25,4.0,s2342,estar
3.38,3.0,3.56,2.25,4.0,s2702,estar
3.38,3.0,3.56,2.25,4.0,s2702,estar
3.38,3.0,3.56,2.25,4.0,s2446,dormir
3.38,3.0,3.56,2.25,4.0,s341,segurar
3.38,3.0,3.56,2.25,4.0,s341,segurar
3.38,3.0,3.56,2.25,4.0,s3005,segurar
3.38,3.0,3.56,2.25,4.0,s3005,segurar
3.38,3.0,3.56,2.25,4.0,s4043,segurar
3.38,3.0,3.56,2.25,4.0,s4043,segurar
3.38,3.0,3.56,2.25,4.0,s2448,ter
3.38,3.0,3.56,2.25,4.0,s3118,ter
2.63,4.11,3.56,3.0,3.5,s2342,estar
2.63,4.11,3.56,3.0,3.5,s2342,estar
2.63,4.11,3.56,3.0,3.5,s2342,estar
2.63,4.11,3.56,3.0,3.5,s2702,estar
2.63,4.11,3.56,3.0,3.5,s2702,estar
2.63,4.11,3.56,3.0,3.5,s2702,estar
2.63,4.11,3.56,3.0,3.5,s1897,envolver
2.63,4.11,3.56,3.0,3.5,s3445,envolver
2.63,4.11,3.56,3.0,3.5,s3953,envolver
2.63,4.11,3.56,3.0,3.5,s341,segurar
2.63,4.11,3.56,3.0,3.5,s3005,segurar
2.63,4.11,3.56,3.0,3.5,s4043,segurar
2.63,4.11,3.56,3.0,3.5,s1660,cobrir
2.63,4.11,3.56,3.0,3.5,s3008,cobrir
2.63,4.11,3.56,3.0,3.5,s3555,cobrir
2.63,4.11,3.56,3.0,3.5,s2076,destacar
2.63,4.11,3.56,3.0,3.5,s4013,destacar
2.63,4.11,3.56,3.0,3.5,s2342,ser
2.63,4.11,3.56,3.0,3.5,s2501,ser
2.63,4.11,3.56,3.0,3.5,s3022,ser
2.63,4.11,3.56,3.0,3.5,s3878,inchar
2.75,3.78,2.33,3.38,3.3,s2342,haver
2.75,3.78,2.33,3.38,3.3,s2342,haver
2.75,3.78,2.33,3.38,3.3,s1678,enrolar
2.75,3.78,2.33,3.38,3.3,s1897,enrolar
2.75,3.78,2.33,3.38,3.3,s3953,enrolar
2.75,3.78,2.33,3.38,3.3,s2342,estar
2.75,3.78,2.33,3.38,3.3,s2702,estar
2.75,3.78,2.33,3.38,3.3,s1660,cobrir
2.75,3.78,2.33,3.38,3.3,s3008,cobrir
2.75,3.78,2.33,3.38,3.3,s3555,cobrir
2.75,3.78,2.33,3.38,3.3,s798,calçar
2.75,3.78,2.33,3.38,3.3,s840,calçar
4.13,4.22,4.22,1.88,3.6,s2778,retratar
4.13,4.22,4.22,1.88,3.6,s1678,enrolar
4.13,4.22,4.22,1.88,3.6,s1897,enrolar
4.13,4.22,4.22,1.88,3.6,s3953,enrolar
4.13,4.22,4.22,1.88,3.6,s2342,ser
4.13,4.22,4.22,1.88,3.6,s2501,ser
4.13,4.22,4.22,1.88,3.6,s3022,ser
4.13,4.22,4.22,1.88,3.6,s2342,estar
4.13,4.22,4.22,1.88,3.6,s2702,estar
3.25,3.11,2.44,1.63,2.4,s1678,enrolar
3.25,3.11,2.44,1.63,2.4,s1897,enrolar
3.25,3.11,2.44,1.63,2.4,s3953,enrolar
3.25,3.11,2.44,1.63,2.4,s969,perceber
3.25,3.11,2.44,1.63,2.4,s3756,perceber
3.25,3.11,2.44,1.63,2.4,s2342,estar
3.25,3.11,2.44,1.63,2.4,s2702,estar
3.25,3.11,2.44,1.63,2.4,s3716,denotar
3.13,3.89,3.89,2.63,3.6,s2448,ter
3.13,3.89,3.89,2.63,3.6,s3118,ter
3.13,3.89,3.89,2.63,3.6,s2342,estar
3.13,3.89,3.89,2.63,3.6,s2342,estar
3.13,3.89,3.89,2.63,3.6,s2702,estar
3.13,3.89,3.89,2.63,3.6,s2702,estar
3.13,3.89,3.89,2.63,3.6,s1678,enrolar
3.13,3.89,3.89,2.63,3.6,s1897,enrolar
3.13,3.89,3.89,2.63,3.6,s3953,enrolar
4.25,4.11,1.56,3.75,3.7,s1897,envolver
4.25,4.11,1.56,3.75,3.7,s3445,envolver
4.25,4.11,1.56,3.75,3.7,s3953,envolver
4.25,4.11,1.56,3.75,3.7,s2371,fechar
4.25,4.11,1.56,3.75,3.7,s3601,fechar
4.25,4.11,1.56,3.75,3.7,s3735,fechar
4.25,4.11,1.56,3.75,3.7,s341,segurar
4.25,4.11,1.56,3.75,3.7,s3005,segurar
4.25,4.11,1.56,3.75,3.7,s4043,segurar
4.25,4.11,1.56,3.75,3.7,s475,aparecer
4.25,4.11,1.56,3.75,3.7,s2143,aparecer
2.63,3.22,4.0,2.13,3.7,s1678,enrolar
2.63,3.22,4.0,2.13,3.7,s1897,enrolar
2.63,3.22,4.0,2.13,3.7,s3953,enrolar
2.63,3.22,4.0,2.13,3.7,s2342,estar
2.63,3.22,4.0,2.13,3.7,s2702,estar
2.63,3.22,4.0,2.13,3.7,s2448,ter
2.63,3.22,4.0,2.13,3.7,s2448,ter
2.63,3.22,4.0,2.13,3.7,s3118,ter
2.63,3.22,4.0,2.13,3.7,s3118,ter
2.63,3.22,4.0,2.13,3.7,s1660,cobrir
2.63,3.22,4.0,2.13,3.7,s1660,cobrir
2.63,3.22,4.0,2.13,3.7,s3008,cobrir
2.63,3.22,4.0,2.13,3.7,s3008,cobrir
2.63,3.22,4.0,2.13,3.7,s3555,cobrir
2.63,3.22,4.0,2.13,3.7,s3555,cobrir
3.25,3.33,3.0,2.63,3.9,s2446,dormir
3.25,3.33,3.0,2.63,3.9,s1897,envolver
3.25,3.33,3.0,2.63,3.9,s3445,envolver
3.25,3.33,3.0,2.63,3.9,s3953,envolver
3.25,3.33,3.0,2.63,3.9,s1660,cobrir
3.25,3.33,3.0,2.63,3.9,s3008,cobrir
3.25,3.33,3.0,2.63,3.9,s3555,cobrir
3.25,3.33,3.0,2.63,3.9,s2342,estar
3.25,3.33,3.0,2.63,3.9,s2702,estar
3.25,3.33,3.0,2.63,3.9,s2143,erguer
3.25,3.33,3.0,2.63,3.9,s2869,erguer
3.25,3.33,3.0,2.63,3.9,s3301,erguer
3.25,3.33,3.0,2.63,3.9,s3877,erguer
3.25,3.33,3.0,2.63,3.9,s2342,ser
3.25,3.33,3.0,2.63,3.9,s2501,ser
3.25,3.33,3.0,2.63,3.9,s3022,ser
3.38,3.67,4.56,3.75,3.6,s2342,estar
3.38,3.67,4.56,3.75,3.6,s2342,estar
3.38,3.67,4.56,3.75,3.6,s2342,estar
3.38,3.67,4.56,3.75,3.6,s2342,estar
3.38,3.67,4.56,3.75,3.6,s2342,estar
3.38,3.67,4.56,3.75,3.6,s2342,estar
3.38,3.67,4.56,3.75,3.6,s2702,estar
3.38,3.67,4.56,3.75,3.6,s2702,estar
3.38,3.67,4.56,3.75,3.6,s2702,estar
3.38,3.67,4.56,3.75,3.6,s2702,estar
3.38,3.67,4.56,3.75,3.6,s2702,estar
3.38,3.67,4.56,3.75,3.6,s2702,estar
3.38,3.67,4.56,3.75,3.6,s680,dobrar
3.38,3.67,4.56,3.75,3.6,s1678,dobrar
3.38,3.67,4.56,3.75,3.6,s2352,dobrar
3.38,3.67,4.56,3.75,3.6,s3868,dobrar
3.38,3.67,4.56,3.75,3.6,s3992,dobrar
3.38,3.67,4.56,3.75,3.6,s727,ir
3.38,3.67,4.56,3.75,3.6,s1892,ir
3.38,3.67,4.56,3.75,3.6,s2099,ir
3.38,3.67,4.56,3.75,3.6,s2371,fechar
3.38,3.67,4.56,3.75,3.6,s3601,fechar
3.38,3.67,4.56,3.75,3.6,s3735,fechar
3.38,3.67,4.56,3.75,3.6,s3572,formar
3.38,3.67,4.56,3.75,3.6,s3862,formar
3.38,3.67,4.56,3.75,3.6,s1897,envolver
3.38,3.67,4.56,3.75,3.6,s3445,envolver
3.38,3.67,4.56,3.75,3.6,s3953,envolver
3.38,3.67,4.56,3.75,3.6,s2860,usar
3.38,3.67,4.56,3.75,3.6,s2342,ser
3.38,3.67,4.56,3.75,3.6,s2501,ser
3.38,3.67,4.56,3.75,3.6,s3022,ser
3.38,3.67,4.56,3.75,3.6,s2342,haver
2.63,3.33,3.56,2.75,3.8,s2446,dormir
2.63,3.33,3.56,2.75,3.8,s1678,enrolar
2.63,3.33,3.56,2.75,3.8,s1897,enrolar
2.63,3.33,3.56,2.75,3.8,s3953,enrolar
2.63,3.33,3.56,2.75,3.8,s2342,ser
2.63,3.33,3.56,2.75,3.8,s2501,ser
2.63,3.33,3.56,2.75,3.8,s3022,ser
2.63,3.33,3.56,2.75,3.8,s2342,estar
2.63,3.33,3.56,2.75,3.8,s2702,estar
2.63,3.33,3.56,2.75,3.8,s2448,ter
2.63,3.33,3.56,2.75,3.8,s3118,ter
2.63,3.33,3.56,2.75,3.8,s2342,existir
2.25,4.44,4.0,2.88,4.7,s2342,haver
2.25,4.44,4.0,2.88,4.7,s1897,envolver
2.25,4.44,4.0,2.88,4.7,s3445,envolver
2.25,4.44,4.0,2.88,4.7,s3953,envolver
2.25,4.44,4.0,2.88,4.7,s1660,cobrir
2.25,4.44,4.0,2.88,4.7,s1660,cobrir
2.25,4.44,4.0,2.88,4.7,s3008,cobrir
2.25,4.44,4.0,2.88,4.7,s3008,cobrir
2.25,4.44,4.0,2.88,4.7,s3555,cobrir
2.25,4.44,4.0,2.88,4.7,s3555,cobrir
2.25,4.44,4.0,2.88,4.7,s2342,estar
2.25,4.44,4.0,2.88,4.7,s2702,estar
2.25,4.44,4.0,2.88,4.7,s2860,usar
2.25,4.44,4.0,2.88,4.7,s2448,ter
2.25,4.44,4.0,2.88,4.7,s2448,ter
2.25,4.44,4.0,2.88,4.7,s3118,ter
2.25,4.44,4.0,2.88,4.7,s3118,ter
2.25,4.44,4.0,2.88,4.7,s2342,ser
2.25,4.44,4.0,2.88,4.7,s2342,ser
2.25,4.44,4.0,2.88,4.7,s2501,ser
2.25,4.44,4.0,2.88,4.7,s2501,ser
2.25,4.44,4.0,2.88,4.7,s3022,ser
2.25,4.44,4.0,2.88,4.7,s3022,ser
2.25,4.44,4.0,2.88,4.7,s3275,achatar
2.25,4.44,4.0,2.88,4.7,s3391,achatar
2.25,4.44,4.0,2.88,4.7,s3842,achatar
2.13,4.44,3.89,2.13,4.0,s475,aparecer
2.13,4.44,3.89,2.13,4.0,s2143,aparecer
2.13,4.44,3.89,2.13,4.0,s1660,cobrir
2.13,4.44,3.89,2.13,4.0,s3008,cobrir
2.13,4.44,3.89,2.13,4.0,s3555,cobrir
2.13,4.44,3.89,2.13,4.0,s2448,ter
2.13,4.44,3.89,2.13,4.0,s2448,ter
2.13,4.44,3.89,2.13,4.0,s3118,ter
2.13,4.44,3.89,2.13,4.0,s3118,ter
2.13,4.44,3.89,2.13,4.0,s2177,passar
2.13,4.44,3.89,2.13,4.0,s3717,passar
2.13,4.44,3.89,2.13,4.0,s2342,existir
2.13,4.44,3.89,2.13,4.0,s3716,indicar
2.13,4.44,3.89,2.13,4.0,s2342,ser
2.13,4.44,3.89,2.13,4.0,s2501,ser
2.13,4.44,3.89,2.13,4.0,s3022,ser
1.63,4.33,4.0,2.5,4.1,s1678,enrolar
1.63,4.33,4.0,2.5,4.1,s1897,enrolar
1.63,4.33,4.0,2.5,4.1,s3953,enrolar
1.63,4.33,4.0,2.5,4.1,s1660,cobrir
1.63,4.33,4.0,2.5,4.1,s3008,cobrir
1.63,4.33,4.0,2.5,4.1,s3555,cobrir
1.63,4.33,4.0,2.5,4.1,s3878,inchar
3.75,4.22,4.44,1.38,4.5,s3716,mostrar
3.75,4.22,4.44,1.38,4.5,s3717,mostrar
3.75,4.22,4.44,1.38,4.5,s2342,estar
3.75,4.22,4.44,1.38,4.5,s2342,estar
3.75,4.22,4.44,1.38,4.5,s2702,estar
3.75,4.22,4.44,1.38,4.5,s2702,estar
3.75,4.22,4.44,1.38,4.5,s1897,envolver
3.75,4.22,4.44,1.38,4.5,s3445,envolver
3.75,4.22,4.44,1.38,4.5,s3953,envolver
3.75,4.22,4.44,1.38,4.5,s2342,ser
3.75,4.22,4.44,1.38,4.5,s2342,ser
3.75,4.22,4.44,1.38,4.5,s2501,ser
3.75,4.22,4.44,1.38,4.5,s2501,ser
3.75,4.22,4.44,1.38,4.5,s3022,ser
3.75,4.22,4.44,1.38,4.5,s3022,ser
3.75,4.22,4.44,1.38,4.5,s2448,possuir
3.75,4.22,4.44,1.38,4.5,s2448,possuir
3.75,4.22,4.44,1.38,4.5,s3118,possuir
3.75,4.22,4.44,1.38,4.5,s3118,possuir
3.75,4.22,4.44,1.38,4.5,s2371,fechar
3.75,4.22,4.44,1.38,4.5,s3601,fechar
3.75,4.22,4.44,1.38,4.5,s3735,fechar
3.75,4.22,4.44,1.38,4.5,s168,observar
3.75,4.22,4.44,1.38,4.5,s3369,observar
3.75,4.22,4.44,1.38,4.5,s3318,preencher
3.75,4.22,4.44,1.38,4.5,s3959,preencher
2.88,3.44,2.56,2.13,4.1,s2446,dormir
2.88,3.44,2.56,2.13,4.1,s1678,enrolar
2.88,3.44,2.56,2.13,4.1,s1897,enrolar
2.88,3.44,2.56,2.13,4.1,s3953,enrolar
2.88,3.44,2.56,2.13,4.1,s2342,estar
2.88,3.44,2.56,2.13,4.1,s2702,estar
3.88,3.33,3.44,2.5,3.8,s1777,vestir
3.88,3.33,3.44,2.5,3.8,s3504,vestir
3.88,3.33,3.44,2.5,3.8,s3819,vestir
3.88,3.33,3.44,2.5,3.8,s1678,enrolar
3.88,3.33,3.44,2.5,3.8,s1897,enrolar
3.88,3.33,3.44,2.5,3.8,s3953,enrolar
3.88,3.33,3.44,2.5,3.8,s2342,estar
3.88,3.33,3.44,2.5,3.8,s2342,estar
3.88,3.33,3.44,2.5,3.8,s2342,estar
3.88,3.33,3.44,2.5,3.8,s2702,estar
3.88,3.33,3.44,2.5,3.8,s2702,estar
3.88,3.33,3.44,2.5,3.8,s2702,estar
3.88,3.33,3.44,2.5,3.8,s2446,dormir
3.88,3.33,3.44,2.5,3.8,s2448,ter
3.88,3.33,3.44,2.5,3.8,s3118,ter
3.88,3.33,3.44,2.5,3.8,s680,dobrar
3.88,3.33,3.44,2.5,3.8,s1678,dobrar
3.88,3.33,3.44,2.5,3.8,s2352,dobrar
3.88,3.33,3.44,2.5,3.8,s3868,dobrar
3.88,3.33,3.44,2.5,3.8,s3992,dobrar
2.13,3.56,2.89,2.25,3.5,s1678,enrolar
2.13,3.56,2.89,2.25,3.5,s1897,enrolar
2.13,3.56,2.89,2.25,3.5,s3953,enrolar
2.13,3.56,2.89,2.25,3.5,s86,chegar
2.13,3.56,2.89,2.25,3.5,s475,chegar
2.13,3.56,2.89,2.25,3.5,s2180,chegar
2.13,3.56,2.89,2.25,3.5,s3102,chegar
2.13,3.56,2.89,2.25,3.5,s3716,mostrar
2.13,3.56,2.89,2.25,3.5,s3717,mostrar
2.13,3.56,2.89,2.25,3.5,s2342,ser
2.13,3.56,2.89,2.25,3.5,s2501,ser
2.13,3.56,2.89,2.25,3.5,s3022,ser
2.13,3.56,2.89,2.25,3.5,s3625,cuidar
2.13,3.56,2.89,2.25,3.5,s2448,possuir
2.13,3.56,2.89,2.25,3.5,s3118,possuir
2.13,3.56,2.89,2.25,3.5,s2177,passar
2.13,3.56,2.89,2.25,3.5,s3717,passar
4.63,4.33,4.0,1.75,4.1,s3716,mostrar
4.63,4.33,4.0,1.75,4.1,s3717,mostrar
4.63,4.33,4.0,1.75,4.1,s2342,estar
4.63,4.33,4.0,1.75,4.1,s2702,estar
4.63,4.33,4.0,1.75,4.1,s1678,enrolar
4.63,4.33,4.0,1.75,4.1,s1897,enrolar
4.63,4.33,4.0,1.75,4.1,s3953,enrolar
4.63,4.33,4.0,1.75,4.1,s2342,haver
4.63,4.33,4.0,1.75,4.1,s2342,haver
2.25,3.78,3.0,2.38,4.0,s2342,ser
2.25,3.78,3.0,2.38,4.0,s2342,ser
2.25,3.78,3.0,2.38,4.0,s2501,ser
2.25,3.78,3.0,2.38,4.0,s2501,ser
2.25,3.78,3.0,2.38,4.0,s3022,ser
2.25,3.78,3.0,2.38,4.0,s3022,ser
2.25,3.78,3.0,2.38,4.0,s1678,enrolar
2.25,3.78,3.0,2.38,4.0,s1897,enrolar
2.25,3.78,3.0,2.38,4.0,s3953,enrolar
2.25,3.78,3.0,2.38,4.0,s2448,ter
2.25,3.78,3.0,2.38,4.0,s3118,ter
2.25,3.78,3.0,2.38,4.0,s4026,espalhar
2.5,4.33,4.33,2.25,3.9,s1897,envolver
2.5,4.33,4.33,2.25,3.9,s3445,envolver
2.5,4.33,4.33,2.25,3.9,s3953,envolver
2.5,4.33,4.33,2.25,3.9,s3819,pintar
3.5,2.78,3.33,3.38,4.1,s1678,embrulhar
3.5,2.78,3.33,3.38,4.1,s1874,embrulhar
3.5,2.78,3.33,3.38,4.1,s1897,embrulhar
3.5,2.78,3.33,3.38,4.1,s2448,ter
3.5,2.78,3.33,3.38,4.1,s3118,ter
3.5,2.78,3.33,3.38,4.1,s1579,encontrar
3.5,2.78,3.33,3.38,4.1,s2342,ser
3.5,2.78,3.33,3.38,4.1,s2501,ser
3.5,2.78,3.33,3.38,4.1,s3022,ser
2.88,3.89,3.78,1.5,4.0,s2342,estar
2.88,3.89,3.78,1.5,4.0,s2342,estar
2.88,3.89,3.78,1.5,4.0,s2702,estar
2.88,3.89,3.78,1.5,4.0,s2702,estar
2.88,3.89,3.78,1.5,4.0,s2446,dormir
2.88,3.89,3.78,1.5,4.0,s1678,enrolar
2.88,3.89,3.78,1.5,4.0,s1897,enrolar
2.88,3.89,3.78,1.5,4.0,s3953,enrolar
2.88,3.89,3.78,1.5,4.0,s2342,ser
2.88,3.89,3.78,1.5,4.0,s2501,ser
2.88,3.89,3.78,1.5,4.0,s3022,ser
2.88,3.89,3.78,1.5,4.0,s2448,ter
2.88,3.89,3.78,1.5,4.0,s2448,ter
2.88,3.89,3.78,1.5,4.0,s3118,ter
2.88,3.89,3.78,1.5,4.0,s3118,ter
2.75,3.0,4.11,2.63,4.0,s2342,estar
2.75,3.0,4.11,2.63,4.0,s2342,estar
2.75,3.0,4.11,2.63,4.0,s2702,estar
2.75,3.0,4.11,2.63,4.0,s2702,estar
2.75,3.0,4.11,2.63,4.0,s1660,cobrir
2.75,3.0,4.11,2.63,4.0,s3008,cobrir
2.75,3.0,4.11,2.63,4.0,s3555,cobrir
2.75,3.0,4.11,2.63,4.0,s2342,ser
2.75,3.0,4.11,2.63,4.0,s2501,ser
2.75,3.0,4.11,2.63,4.0,s3022,ser
4.25,4.0,3.67,3.13,3.6,s1897,envolver
4.25,4.0,3.67,3.13,3.6,s3445,envolver
4.25,4.0,3.67,3.13,3.6,s3953,envolver
4.25,4.0,3.67,3.13,3.6,s2448,ter
4.25,4.0,3.67,3.13,3.6,s3118,ter
4.25,4.0,3.67,3.13,3.6,s2342,estar
4.25,4.0,3.67,3.13,3.6,s2702,estar
4.25,4.0,3.67,3.13,3.6,s2342,haver
1.38,3.56,3.22,1.5,3.25,s1897,envolver
1.38,3.56,3.22,1.5,3.25,s3445,envolver
1.38,3.56,3.22,1.5,3.25,s3953,envolver
1.38,3.56,3.22,1.5,3.25,s2342,haver
1.38,3.56,3.22,1.5,3.25,s2448,possuir
1.38,3.56,3.22,1.5,3.25,s3118,possuir
2.13,4.0,1.78,3.25,4.3,s3716,demonstrar
2.13,4.0,1.78,3.25,4.3,s2342,ser
2.13,4.0,1.78,3.25,4.3,s2342,ser
2.13,4.0,1.78,3.25,4.3,s2501,ser
2.13,4.0,1.78,3.25,4.3,s2501,ser
2.13,4.0,1.78,3.25,4.3,s3022,ser
2.13,4.0,1.78,3.25,4.3,s3022,ser
2.13,4.0,1.78,3.25,4.3,s969,ver
2.13,4.0,1.78,3.25,4.3,s3434,ver
2.13,4.0,1.78,3.25,4.3,s3756,ver
2.13,4.0,1.78,3.25,4.3,s2342,estar
2.13,4.0,1.78,3.25,4.3,s2342,estar
2.13,4.0,1.78,3.25,4.3,s2702,estar
2.13,4.0,1.78,3.25,4.3,s2702,estar
2.13,4.0,1.78,3.25,4.3,s341,segurar
2.13,4.0,1.78,3.25,4.3,s3005,segurar
2.13,4.0,1.78,3.25,4.3,s4043,segurar
2.13,4.0,1.78,3.25,4.3,s154,tratar
2.13,4.0,1.78,3.25,4.3,s2429,tratar
2.13,4.0,1.78,3.25,4.3,s3006,tratar
2.13,4.0,1.78,3.25,4.3,s3250,tratar
2.13,4.0,1.78,3.25,4.3,s2448,ter
2.13,4.0,1.78,3.25,4.3,s3118,ter
2.13,4.0,1.78,3.25,4.3,s1660,cobrir
2.13,4.0,1.78,3.25,4.3,s3008,cobrir
2.13,4.0,1.78,3.25,4.3,s3555,cobrir
4.38,4.0,3.22,1.5,4.5,s2342,ser
4.38,4.0,3.22,1.5,4.5,s2501,ser
4.38,4.0,3.22,1.5,4.5,s3022,ser
4.38,4.0,3.22,1.5,4.5,s1678,enrolar
4.38,4.0,3.22,1.5,4.5,s1897,enrolar
4.38,4.0,3.22,1.5,4.5,s3953,enrolar
4.38,4.0,3.22,1.5,4.5,s2448,possuir
4.38,4.0,3.22,1.5,4.5,s3118,possuir
4.38,4.0,3.22,1.5,4.5,s2342,estar
4.38,4.0,3.22,1.5,4.5,s2702,estar
4.38,4.0,3.22,1.5,4.5,s2215,colocar
4.38,4.0,3.22,1.5,4.5,s3933,colocar
2.63,3.44,2.67,2.25,3.6,s1660,cobrir
2.63,3.44,2.67,2.25,3.6,s1660,cobrir
2.63,3.44,2.67,2.25,3.6,s3008,cobrir
2.63,3.44,2.67,2.25,3.6,s3008,cobrir
2.63,3.44,2.67,2.25,3.6,s3555,cobrir
2.63,3.44,2.67,2.25,3.6,s3555,cobrir
2.63,3.44,2.67,2.25,3.6,s2446,dormir
2.63,3.44,2.67,2.25,3.6,s969,ver
2.63,3.44,2.67,2.25,3.6,s3434,ver
2.63,3.44,2.67,2.25,3.6,s3756,ver
3.13,3.33,3.0,3.25,3.2,s2342,existir
3.13,3.33,3.0,3.25,3.2,s2342,estar
3.13,3.33,3.0,3.25,3.2,s2342,estar
3.13,3.33,3.0,3.25,3.2,s2702,estar
3.13,3.33,3.0,3.25,3.2,s2702,estar
3.13,3.33,3.0,3.25,3.2,s1678,enrolar
3.13,3.33,3.0,3.25,3.2,s1897,enrolar
3.13,3.33,3.0,3.25,3.2,s3953,enrolar
3.0,3.67,4.78,3.38,3.8,s2342,haver
3.0,3.67,4.78,3.38,3.8,s2342,haver
3.0,3.67,4.78,3.38,3.8,s2342,haver
3.0,3.67,4.78,3.38,3.8,s3878,inchar
3.0,4.11,3.33,2.0,4.2,s2342,ser
3.0,4.11,3.33,2.0,4.2,s2342,ser
3.0,4.11,3.33,2.0,4.2,s2501,ser
3.0,4.11,3.33,2.0,4.2,s2501,ser
3.0,4.11,3.33,2.0,4.2,s3022,ser
3.0,4.11,3.33,2.0,4.2,s3022,ser
3.0,4.11,3.33,2.0,4.2,s341,segurar
3.0,4.11,3.33,2.0,4.2,s3005,segurar
3.0,4.11,3.33,2.0,4.2,s4043,segurar
3.0,4.11,3.33,2.0,4.2,s1897,envolver
3.0,4.11,3.33,2.0,4.2,s3445,envolver
3.0,4.11,3.33,2.0,4.2,s3953,envolver
3.0,4.11,3.33,2.0,4.2,s3504,decorar
3.0,4.11,3.33,2.0,4.2,s2448,ter
3.0,4.11,3.33,2.0,4.2,s3118,ter
4.5,3.22,4.33,4.63,3.6,s2342,haver
4.5,3.22,4.33,4.63,3.6,s2342,haver
4.5,3.22,4.33,4.63,3.6,s2448,ter
4.5,3.22,4.33,4.63,3.6,s2448,ter
4.5,3.22,4.33,4.63,3.6,s3118,ter
4.5,3.22,4.33,4.63,3.6,s3118,ter
4.5,3.22,4.33,4.63,3.6,s2342,estar
4.5,3.22,4.33,4.63,3.6,s2342,estar
4.5,3.22,4.33,4.63,3.6,s2342,estar
4.5,3.22,4.33,4.63,3.6,s2342,estar
4.5,3.22,4.33,4.63,3.6,s2702,estar
4.5,3.22,4.33,4.63,3.6,s2702,estar
4.5,3.22,4.33,4.63,3.6,s2702,estar
4.5,3.22,4.33,4.63,3.6,s2702,estar
4.5,3.22,4.33,4.63,3.6,s1897,envolver
4.5,3.22,4.33,4.63,3.6,s3445,envolver
4.5,3.22,4.33,4.63,3.6,s3953,envolver
4.5,3.22,4.33,4.63,3.6,s2446,dormir
4.5,3.22,4.33,4.63,3.6,s3022,sugerir
4.5,3.22,4.33,4.63,3.6,s2342,ser
4.5,3.22,4.33,4.63,3.6,s2501,ser
4.5,3.22,4.33,4.63,3.6,s3022,ser
4.5,3.22,4.33,4.63,3.6,s952,sustentar
4.5,3.22,4.33,4.63,3.6,s1505,sustentar
4.5,3.22,4.33,4.63,3.6,s2429,sustentar
3.75,4.0,4.56,2.38,4.4,s2778,retratar
3.75,4.0,4.56,2.38,4.4,s1897,envolver
3.75,4.0,4.56,2.38,4.4,s3445,envolver
3.75,4.0,4.56,2.38,4.4,s3953,envolver
3.75,4.0,4.56,2.38,4.4,s2342,estar
3.75,4.0,4.56,2.38,4.4,s2702,estar
3.75,4.0,4.56,2.38,4.4,s3897,identificar
3.75,4.0,4.56,2.38,4.4,s2342,ser
3.75,4.0,4.56,2.38,4.4,s2501,ser
3.75,4.0,4.56,2.38,4.4,s3022,ser
2.13,3.0,2.56,3.75,3.7,s969,ver
2.13,3.0,2.56,3.75,3.7,s3434,ver
2.13,3.0,2.56,3.75,3.7,s3756,ver
2.13,3.0,2.56,3.75,3.7,s2342,estar
2.13,3.0,2.56,3.75,3.7,s2342,estar
2.13,3.0,2.56,3.75,3.7,s2702,estar
2.13,3.0,2.56,3.75,3.7,s2702,estar
2.13,3.0,2.56,3.75,3.7,s2446,dormir
2.13,3.0,2.56,3.75,3.7,s1897,envolver
2.13,3.0,2.56,3.75,3.7,s3445,envolver
2.13,3.0,2.56,3.75,3.7,s3953,envolver
2.13,3.0,2.56,3.75,3.7,s2860,usar
1.88,3.11,2.44,3.63,4.3,s2342,haver
1.88,3.11,2.44,3.63,4.3,s2342,estar
1.88,3.11,2.44,3.63,4.3,s2342,estar
1.88,3.11,2.44,3.63,4.3,s2342,estar
1.88,3.11,2.44,3.63,4.3,s2342,estar
1.88,3.11,2.44,3.63,4.3,s2702,estar
1.88,3.11,2.44,3.63,4.3,s2702,estar
1.88,3.11,2.44,3.63,4.3,s2702,estar
1.88,3.11,2.44,3.63,4.3,s2702,estar
1.88,3.11,2.44,3.63,4.3,s1897,envolver
1.88,3.11,2.44,3.63,4.3,s3445,envolver
1.88,3.11,2.44,3.63,4.3,s3953,envolver
1.88,3.11,2.44,3.63,4.3,s3151,dar
1.88,3.11,2.44,3.63,4.3,s3716,dar
1.88,3.11,2.44,3.63,4.3,s4026,dar
1.88,3.11,2.44,3.63,4.3,s2446,dormir
3.63,3.44,3.11,2.63,3.5,s3819,pintar
3.63,3.44,3.11,2.63,3.5,s1678,embrulhar
3.63,3.44,3.11,2.63,3.5,s1874,embrulhar
3.63,3.44,3.11,2.63,3.5,s1897,embrulhar
3.63,3.44,3.11,2.63,3.5,s2702,relevar
3.63,3.44,3.11,2.63,3.5,s2177,passar
3.63,3.44,3.11,2.63,3.5,s3717,passar
3.63,3.44,3.11,2.63,3.5,s2448,ter
3.63,3.44,3.11,2.63,3.5,s3118,ter
3.63,3.44,3.11,2.63,3.5,s4075,fornecer
3.75,3.89,3.33,2.38,3.9,s2342,haver
3.75,3.89,3.33,2.38,3.9,s1678,enrolar
3.75,3.89,3.33,2.38,3.9,s1897,enrolar
3.75,3.89,3.33,2.38,3.9,s3953,enrolar
3.75,3.89,3.33,2.38,3.9,s2342,estar
3.75,3.89,3.33,2.38,3.9,s2702,estar
3.75,3.89,3.33,2.38,3.9,s1213,apoiar
3.75,3.89,3.33,2.38,3.9,s1660,cobrir
3.75,3.89,3.33,2.38,3.9,s3008,cobrir
3.75,3.89,3.33,2.38,3.9,s3555,cobrir
3.25,3.33,2.78,3.13,3.8,s2342,haver
3.25,3.33,2.78,3.13,3.8,s2342,estar
3.25,3.33,2.78,3.13,3.8,s2342,estar
3.25,3.33,2.78,3.13,3.8,s2702,estar
3.25,3.33,2.78,3.13,3.8,s2702,estar
3.25,3.33,2.78,3.13,3.8,s1897,envolver
3.25,3.33,2.78,3.13,3.8,s3445,envolver
3.25,3.33,2.78,3.13,3.8,s3953,envolver
3.25,3.33,2.78,3.13,3.8,s3733,repousar
3.25,3.33,2.78,3.13,3.8,s4124,repousar
1.75,3.56,2.78,2.5,4.3,s2342,estar
1.75,3.56,2.78,2.5,4.3,s2342,estar
1.75,3.56,2.78,2.5,4.3,s2702,estar
1.75,3.56,2.78,2.5,4.3,s2702,estar
1.75,3.56,2.78,2.5,4.3,s1897,envolver
1.75,3.56,2.78,2.5,4.3,s3445,envolver
1.75,3.56,2.78,2.5,4.3,s3953,envolver
1.75,3.56,2.78,2.5,4.3,s2448,possuir
1.75,3.56,2.78,2.5,4.3,s3118,possuir
3.75,3.44,2.78,3.25,3.9,s2448,ter
3.75,3.44,2.78,3.25,3.9,s2448,ter
3.75,3.44,2.78,3.25,3.9,s3118,ter
3.75,3.44,2.78,3.25,3.9,s3118,ter
3.75,3.44,2.78,3.25,3.9,s1897,envolver
3.75,3.44,2.78,3.25,3.9,s3445,envolver
3.75,3.44,2.78,3.25,3.9,s3953,envolver
3.75,3.44,2.78,3.25,3.9,s1660,cobrir
3.75,3.44,2.78,3.25,3.9,s3008,cobrir
3.75,3.44,2.78,3.25,3.9,s3555,cobrir
3.75,3.44,2.78,3.25,3.9,s2342,estar
3.75,3.44,2.78,3.25,3.9,s2702,estar
3.75,3.44,2.78,3.25,3.9,s2342,haver
3.75,3.44,2.78,3.25,3.9,s2342,ser
3.75,3.44,2.78,3.25,3.9,s2501,ser
3.75,3.44,2.78,3.25,3.9,s3022,ser
3.75,3.44,2.78,3.25,3.9,s2448,viver
3.38,4.89,4.78,2.13,4.6,s3504,colorir
3.38,4.89,4.78,2.13,4.6,s3819,colorir
3.38,4.89,4.78,2.13,4.6,s1579,encontrar
3.38,4.89,4.78,2.13,4.6,s2448,possuir
3.38,4.89,4.78,2.13,4.6,s3118,possuir
3.38,4.89,4.78,2.13,4.6,s1678,enrolar
3.38,4.89,4.78,2.13,4.6,s1897,enrolar
3.38,4.89,4.78,2.13,4.6,s3953,enrolar
2.88,3.44,4.0,4.63,3.1,s1678,enrolar
2.88,3.44,4.0,4.63,3.1,s1897,enrolar
2.88,3.44,4.0,4.63,3.1,s3953,enrolar
2.88,3.44,4.0,4.63,3.1,s2448,ter
2.88,3.44,4.0,4.63,3.1,s3118,ter
2.88,3.44,4.0,4.63,3.1,s2342,estar
2.88,3.44,4.0,4.63,3.1,s2342,estar
2.88,3.44,4.0,4.63,3.1,s2702,estar
2.88,3.44,4.0,4.63,3.1,s2702,estar
2.88,3.44,4.0,4.63,3.1,s3878,inchar
4.88,4.33,3.78,1.75,4.0,s2342,estar
4.88,4.33,3.78,1.75,4.0,s2342,estar
4.88,4.33,3.78,1.75,4.0,s2702,estar
4.88,4.33,3.78,1.75,4.0,s2702,estar
4.88,4.33,3.78,1.75,4.0,s1660,cobrir
4.88,4.33,3.78,1.75,4.0,s1660,cobrir
4.88,4.33,3.78,1.75,4.0,s3008,cobrir
4.88,4.33,3.78,1.75,4.0,s3008,cobrir
4.88,4.33,3.78,1.75,4.0,s3555,cobrir
4.88,4.33,3.78,1.75,4.0,s3555,cobrir
4.88,4.33,3.78,1.75,4.0,s2448,ter
4.88,4.33,3.78,1.75,4.0,s3118,ter
4.88,4.33,3.78,1.75,4.0,s3275,achatar
4.88,4.33,3.78,1.75,4.0,s3391,achatar
4.88,4.33,3.78,1.75,4.0,s3842,achatar
3.88,4.33,4.78,2.25,3.3,s1678,embrulhar
3.88,4.33,4.78,2.25,3.3,s1874,embrulhar
3.88,4.33,4.78,2.25,3.3,s1897,embrulhar
3.88,4.33,4.78,2.25,3.3,s1660,cobrir
3.88,4.33,4.78,2.25,3.3,s3008,cobrir
3.88,4.33,4.78,2.25,3.3,s3555,cobrir
3.88,4.33,4.78,2.25,3.3,s2342,ser
3.88,4.33,4.78,2.25,3.3,s2501,ser
3.88,4.33,4.78,2.25,3.3,s3022,ser
3.75,3.67,2.56,3.13,3.8,s3504,colorir
3.75,3.67,2.56,3.13,3.8,s3819,colorir
3.75,3.67,2.56,3.13,3.8,s2342,ser
3.75,3.67,2.56,3.13,3.8,s2342,ser
3.75,3.67,2.56,3.13,3.8,s2501,ser
3.75,3.67,2.56,3.13,3.8,s2501,ser
3.75,3.67,2.56,3.13,3.8,s3022,ser
3.75,3.67,2.56,3.13,3.8,s3022,ser
3.75,3.67,2.56,3.13,3.8,s1897,envolver
3.75,3.67,2.56,3.13,3.8,s3445,envolver
3.75,3.67,2.56,3.13,3.8,s3953,envolver
3.75,3.67,2.56,3.13,3.8,s1660,cobrir
3.75,3.67,2.56,3.13,3.8,s3008,cobrir
3.75,3.67,2.56,3.13,3.8,s3555,cobrir
3.75,3.67,2.56,3.13,3.8,s475,vir
3.75,3.67,2.56,3.13,3.8,s590,vir
3.75,3.67,2.56,3.13,3.8,s952,sustentar
3.75,3.67,2.56,3.13,3.8,s1505,sustentar
3.75,3.67,2.56,3.13,3.8,s2429,sustentar
3.63,3.22,3.22,2.38,3.4,s2446,dormir
3.63,3.22,3.22,2.38,3.4,s1678,enrolar
3.63,3.22,3.22,2.38,3.4,s1897,enrolar
3.63,3.22,3.22,2.38,3.4,s3953,enrolar
3.63,3.22,3.22,2.38,3.4,s2342,estar
3.63,3.22,3.22,2.38,3.4,s2702,estar
2.63,3.33,3.0,3.75,3.2,s1678,enrolar
2.63,3.33,3.0,3.75,3.2,s1897,enrolar
2.63,3.33,3.0,3.75,3.2,s3953,enrolar
2.63,3.33,3.0,3.75,3.2,s2448,ter
2.63,3.33,3.0,3.75,3.2,s2448,ter
2.63,3.33,3.0,3.75,3.2,s3118,ter
2.63,3.33,3.0,3.75,3.2,s3118,ter
2.63,3.33,3.0,3.75,3.2,s2342,estar
2.63,3.33,3.0,3.75,3.2,s2342,estar
2.63,3.33,3.0,3.75,3.2,s2702,estar
2.63,3.33,3.0,3.75,3.2,s2702,estar
2.63,3.33,3.0,3.75,3.2,s2371,fechar
2.63,3.33,3.0,3.75,3.2,s3601,fechar
2.63,3.33,3.0,3.75,3.2,s3735,fechar
4.25,4.22,3.67,2.63,4.5,s2342,ser
4.25,4.22,3.67,2.63,4.5,s2342,ser
4.25,4.22,3.67,2.63,4.5,s2501,ser
4.25,4.22,3.67,2.63,4.5,s2501,ser
4.25,4.22,3.67,2.63,4.5,s3022,ser
4.25,4.22,3.67,2.63,4.5,s3022,ser
4.25,4.22,3.67,2.63,4.5,s2342,estar
4.25,4.22,3.67,2.63,4.5,s2342,estar
4.25,4.22,3.67,2.63,4.5,s2342,estar
4.25,4.22,3.67,2.63,4.5,s2702,estar
4.25,4.22,3.67,2.63,4.5,s2702,estar
4.25,4.22,3.67,2.63,4.5,s2702,estar
4.25,4.22,3.67,2.63,4.5,s2446,dormir
4.25,4.22,3.67,2.63,4.5,s2446,dormir
4.25,4.22,3.67,2.63,4.5,s2448,ter
4.25,4.22,3.67,2.63,4.5,s3118,ter
4.25,4.22,3.67,2.63,4.5,s3716,mostrar
4.25,4.22,3.67,2.63,4.5,s3717,mostrar
4.25,4.22,3.67,2.63,4.5,s154,tratar
4.25,4.22,3.67,2.63,4.5,s154,tratar
4.25,4.22,3.67,2.63,4.5,s2429,tratar
4.25,4.22,3.67,2.63,4.5,s2429,tratar
4.25,4.22,3.67,2.63,4.5,s3006,tratar
4.25,4.22,3.67,2.63,4.5,s3006,tratar
4.25,4.22,3.67,2.63,4.5,s3250,tratar
4.25,4.22,3.67,2.63,4.5,s3250,tratar
4.25,4.22,3.67,2.63,4.5,s968,saber
4.25,4.22,3.67,2.63,4.5,s969,saber
4.25,4.22,3.67,2.63,4.5,s3562,manchar
4.25,4.22,3.67,2.63,4.5,s3878,inchar
4.25,4.22,3.67,2.63,4.5,s1235,desconhecer
4.38,3.78,3.56,3.0,4.0,s1660,cobrir
4.38,3.78,3.56,3.0,4.0,s3008,cobrir
4.38,3.78,3.56,3.0,4.0,s3555,cobrir
4.38,3.78,3.56,3.0,4.0,s3275,achatar
4.38,3.78,3.56,3.0,4.0,s3391,achatar
4.38,3.78,3.56,3.0,4.0,s3842,achatar
4.38,3.78,3.56,3.0,4.0,s2342,estar
4.38,3.78,3.56,3.0,4.0,s2702,estar
4.38,3.11,3.67,2.75,3.7,s3716,indicar
4.38,3.11,3.67,2.75,3.7,s2342,ser
4.38,3.11,3.67,2.75,3.7,s2342,ser
4.38,3.11,3.67,2.75,3.7,s2501,ser
4.38,3.11,3.67,2.75,3.7,s2501,ser
4.38,3.11,3.67,2.75,3.7,s3022,ser
4.38,3.11,3.67,2.75,3.7,s3022,ser
4.38,3.11,3.67,2.75,3.7,s727,ir
4.38,3.11,3.67,2.75,3.7,s1892,ir
4.38,3.11,3.67,2.75,3.7,s2099,ir
4.38,3.11,3.67,2.75,3.7,s416,tirar
4.38,3.11,3.67,2.75,3.7,s1208,tirar
4.38,3.11,3.67,2.75,3.7,s1617,tirar
4.38,3.11,3.67,2.75,3.7,s2227,tirar
4.38,3.11,3.67,2.75,3.7,s3031,tirar
4.38,3.11,3.67,2.75,3.7,s3643,tirar
4.38,3.11,3.67,2.75,3.7,s3151,dar
4.38,3.11,3.67,2.75,3.7,s3716,dar
4.38,3.11,3.67,2.75,3.7,s4026,dar
4.38,3.11,3.67,2.75,3.7,s968,saber
4.38,3.11,3.67,2.75,3.7,s969,saber
4.38,3.11,3.67,2.75,3.7,s2448,ter
4.38,3.11,3.67,2.75,3.7,s3118,ter
4.38,3.11,3.67,2.75,3.7,s2342,estar
4.38,3.11,3.67,2.75,3.7,s2342,estar
4.38,3.11,3.67,2.75,3.7,s2702,estar
4.38,3.11,3.67,2.75,3.7,s2702,estar
4.38,3.11,3.67,2.75,3.7,s1678,enrolar
4.38,3.11,3.67,2.75,3.7,s1897,enrolar
4.38,3.11,3.67,2.75,3.7,s3953,enrolar
2.25,3.78,2.67,3.0,3.4,s969,ver
2.25,3.78,2.67,3.0,3.4,s3434,ver
2.25,3.78,2.67,3.0,3.4,s3756,ver
2.25,3.78,2.67,3.0,3.4,s968,saber
2.25,3.78,2.67,3.0,3.4,s969,saber
2.25,3.78,2.67,3.0,3.4,s3897,identificar
2.25,3.78,2.67,3.0,3.4,s2342,ser
2.25,3.78,2.67,3.0,3.4,s2501,ser
2.25,3.78,2.67,3.0,3.4,s3022,ser
2.25,3.78,2.67,3.0,3.4,s2342,estar
2.25,3.78,2.67,3.0,3.4,s2342,estar
2.25,3.78,2.67,3.0,3.4,s2702,estar
2.25,3.78,2.67,3.0,3.4,s2702,estar
2.25,3.78,2.67,3.0,3.4,s1660,cobrir
2.25,3.78,2.67,3.0,3.4,s3008,cobrir
2.25,3.78,2.67,3.0,3.4,s3555,cobrir
2.25,3.78,2.67,3.0,3.4,s2448,ter
2.25,3.78,2.67,3.0,3.4,s2448,ter
2.25,3.78,2.67,3.0,3.4,s3118,ter
2.25,3.78,2.67,3.0,3.4,s3118,ter
2.25,3.78,2.67,3.0,3.4,s3369,escutar
2.25,3.78,2.67,3.0,3.4,s2342,existir
3.38,4.44,3.44,3.0,3.6,s1678,enrolar
3.38,4.44,3.44,3.0,3.6,s1897,enrolar
3.38,4.44,3.44,3.0,3.6,s3953,enrolar
3.38,4.44,3.44,3.0,3.6,s2342,estar
3.38,4.44,3.44,3.0,3.6,s2342,estar
3.38,4.44,3.44,3.0,3.6,s2702,estar
3.38,4.44,3.44,3.0,3.6,s2702,estar
3.38,4.44,3.44,3.0,3.6,s2446,dormir
3.38,4.44,3.44,3.0,3.6,s2448,ter
3.38,4.44,3.44,3.0,3.6,s3118,ter
3.38,4.44,3.44,3.0,3.6,s1660,cobrir
3.38,4.44,3.44,3.0,3.6,s3008,cobrir
3.38,4.44,3.44,3.0,3.6,s3555,cobrir
3.25,3.89,2.67,3.13,3.6,s1678,enrolar
3.25,3.89,2.67,3.13,3.6,s1897,enrolar
3.25,3.89,2.67,3.13,3.6,s3953,enrolar
3.25,3.89,2.67,3.13,3.6,s2446,dormir
3.25,3.89,2.67,3.13,3.6,s2342,estar
3.25,3.89,2.67,3.13,3.6,s2342,estar
3.25,3.89,2.67,3.13,3.6,s2702,estar
3.25,3.89,2.67,3.13,3.6,s2702,estar
3.25,3.89,2.67,3.13,3.6,s3819,pintar
3.25,3.89,2.67,3.13,3.6,s3717,evidenciar
3.25,3.89,2.67,3.13,3.6,s2342,ser
3.25,3.89,2.67,3.13,3.6,s2501,ser
3.25,3.89,2.67,3.13,3.6,s3022,ser
3.25,3.89,2.67,3.13,3.6,s2371,fechar
3.25,3.89,2.67,3.13,3.6,s3601,fechar
3.25,3.89,2.67,3.13,3.6,s3735,fechar
4.13,3.33,3.0,3.88,3.9,s1678,embrulhar
4.13,3.33,3.0,3.88,3.9,s1874,embrulhar
4.13,3.33,3.0,3.88,3.9,s1897,embrulhar
4.13,3.33,3.0,3.88,3.9,s2448,ter
4.13,3.33,3.0,3.88,3.9,s2448,ter
4.13,3.33,3.0,3.88,3.9,s3118,ter
4.13,3.33,3.0,3.88,3.9,s3118,ter
3.75,4.11,3.33,3.88,4.9,s1678,embrulhar
3.75,4.11,3.33,3.88,4.9,s1874,embrulhar
3.75,4.11,3.33,3.88,4.9,s1897,embrulhar
3.75,4.11,3.33,3.88,4.9,s2448,ter
3.75,4.11,3.33,3.88,4.9,s3118,ter
3.75,4.11,3.33,3.88,4.9,s2342,estar
3.75,4.11,3.33,3.88,4.9,s2342,estar
3.75,4.11,3.33,3.88,4.9,s2342,estar
3.75,4.11,3.33,3.88,4.9,s2702,estar
3.75,4.11,3.33,3.88,4.9,s2702,estar
3.75,4.11,3.33,3.88,4.9,s2702,estar
3.75,4.11,3.33,3.88,4.9,s3878,inchar
1.13,3.33,2.89,4.25,2.8,s1579,encontrar
1.13,3.33,2.89,4.25,2.8,s1678,enrolar
1.13,3.33,2.89,4.25,2.8,s1897,enrolar
1.13,3.33,2.89,4.25,2.8,s3953,enrolar
1.13,3.33,2.89,4.25,2.8,s2342,existir
2.63,3.11,3.89,2.5,3.3,s1660,cobrir
2.63,3.11,3.89,2.5,3.3,s3008,cobrir
2.63,3.11,3.89,2.5,3.3,s3555,cobrir
2.63,3.11,3.89,2.5,3.3,s2931,forrar
2.63,3.11,3.89,2.5,3.3,s3817,forrar
2.63,3.11,3.89,2.5,3.3,s1579,encontrar
2.63,3.11,3.89,2.5,3.3,s969,ver
2.63,3.11,3.89,2.5,3.3,s3434,ver
2.63,3.11,3.89,2.5,3.3,s3756,ver
2.63,3.11,3.89,2.5,3.3,s2342,ser
2.63,3.11,3.89,2.5,3.3,s2501,ser
2.63,3.11,3.89,2.5,3.3,s3022,ser
3.0,2.56,2.67,2.88,2.5,s3716,mostrar
3.0,2.56,2.67,2.88,2.5,s3717,mostrar
3.0,2.56,2.67,2.88,2.5,s1660,cobrir
3.0,2.56,2.67,2.88,2.5,s3008,cobrir
3.0,2.56,2.67,2.88,2.5,s3555,cobrir
3.0,2.56,2.67,2.88,2.5,s2342,estar
3.0,2.56,2.67,2.88,2.5,s2342,estar
3.0,2.56,2.67,2.88,2.5,s2702,estar
3.0,2.56,2.67,2.88,2.5,s2702,estar
3.0,2.56,2.67,2.88,2.5,s2342,ser
3.0,2.56,2.67,2.88,2.5,s2342,ser
3.0,2.56,2.67,2.88,2.5,s2501,ser
3.0,2.56,2.67,2.88,2.5,s2501,ser
3.0,2.56,2.67,2.88,2.5,s3022,ser
3.0,2.56,2.67,2.88,2.5,s3022,ser
3.0,2.56,2.67,2.88,2.5,s341,segurar
3.0,2.56,2.67,2.88,2.5,s3005,segurar
3.0,2.56,2.67,2.88,2.5,s4043,segurar
3.63,3.78,2.89,4.13,3.3,s2446,dormir
3.63,3.78,2.89,4.13,3.3,s2448,possuir
3.63,3.78,2.89,4.13,3.3,s3118,possuir
3.63,3.78,2.89,4.13,3.3,s2342,ser
3.63,3.78,2.89,4.13,3.3,s2501,ser
3.63,3.78,2.89,4.13,3.3,s3022,ser
3.63,3.78,2.89,4.13,3.3,s2342,estar
3.63,3.78,2.89,4.13,3.3,s2702,estar
3.63,3.78,2.89,4.13,3.3,s1660,cobrir
3.63,3.78,2.89,4.13,3.3,s3008,cobrir
3.63,3.78,2.89,4.13,3.3,s3555,cobrir
3.63,3.78,2.89,4.13,3.3,s1579,encontrar
4.63,3.44,3.11,4.25,4.4,s2448,ter
4.63,3.44,3.11,4.25,4.4,s3118,ter
4.63,3.44,3.11,4.25,4.4,s2371,fechar
4.63,3.44,3.11,4.25,4.4,s3601,fechar
4.63,3.44,3.11,4.25,4.4,s3735,fechar
4.63,3.44,3.11,4.25,4.4,s2342,estar
4.63,3.44,3.11,4.25,4.4,s2702,estar
4.63,3.44,3.11,4.25,4.4,s2446,dormir
4.63,3.44,3.11,4.25,4.4,s1660,cobrir
4.63,3.44,3.11,4.25,4.4,s3008,cobrir
4.63,3.44,3.11,4.25,4.4,s3555,cobrir
3.88,4.33,4.0,3.5,3.9,s2342,estar
3.88,4.33,4.0,3.5,3.9,s2342,estar
3.88,4.33,4.0,3.5,3.9,s2702,estar
3.88,4.33,4.0,3.5,3.9,s2702,estar
3.88,4.33,4.0,3.5,3.9,s1678,enrolar
3.88,4.33,4.0,3.5,3.9,s1897,enrolar
3.88,4.33,4.0,3.5,3.9,s3953,enrolar
3.75,3.44,3.11,4.13,3.7,s2448,ter
3.75,3.44,3.11,4.13,3.7,s2448,ter
3.75,3.44,3.11,4.13,3.7,s2448,ter
3.75,3.44,3.11,4.13,3.7,s3118,ter
3.75,3.44,3.11,4.13,3.7,s3118,ter
3.75,3.44,3.11,4.13,3.7,s3118,ter
3.75,3.44,3.11,4.13,3.7,s2342,ser
3.75,3.44,3.11,4.13,3.7,s2501,ser
3.75,3.44,3.11,4.13,3.7,s3022,ser
3.75,3.44,3.11,4.13,3.7,s2342,estar
3.75,3.44,3.11,4.13,3.7,s2702,estar
3.75,3.44,3.11,4.13,3.7,s1660,cobrir
3.75,3.44,3.11,4.13,3.7,s1660,cobrir
3.75,3.44,3.11,4.13,3.7,s3008,cobrir
3.75,3.44,3.11,4.13,3.7,s3008,cobrir
3.75,3.44,3.11,4.13,3.7,s3555,cobrir
3.75,3.44,3.11,4.13,3.7,s3555,cobrir
1.38,3.67,2.78,2.88,2.9,s2342,estar
1.38,3.67,2.78,2.88,2.9,s2702,estar
1.38,3.67,2.78,2.88,2.9,s1678,enrolar
1.38,3.67,2.78,2.88,2.9,s1897,enrolar
1.38,3.67,2.78,2.88,2.9,s3953,enrolar
3.25,3.67,2.89,2.5,3.4,s2342,haver
3.25,3.67,2.89,2.5,3.4,s2342,estar
3.25,3.67,2.89,2.5,3.4,s2702,estar
3.25,3.67,2.89,2.5,3.4,s475,aparecer
3.25,3.67,2.89,2.5,3.4,s2143,aparecer
3.25,3.67,2.89,2.5,3.4,s1678,enrolar
3.25,3.67,2.89,2.5,3.4,s1897,enrolar
3.25,3.67,2.89,2.5,3.4,s3953,enrolar
3.25,3.67,2.89,2.5,3.4,s2448,ter
3.25,3.67,2.89,2.5,3.4,s3118,ter
3.88,3.44,3.89,3.5,3.7,s969,ver
3.88,3.44,3.89,3.5,3.7,s3434,ver
3.88,3.44,3.89,3.5,3.7,s3756,ver
3.88,3.44,3.89,3.5,3.7,s168,observar
3.88,3.44,3.89,3.5,3.7,s3369,observar
3.88,3.44,3.89,3.5,3.7,s2342,estar
3.88,3.44,3.89,3.5,3.7,s2702,estar
3.88,3.44,3.89,3.5,3.7,s1897,envolver
3.88,3.44,3.89,3.5,3.7,s3445,envolver
3.88,3.44,3.89,3.5,3.7,s3953,envolver
3.88,3.44,3.89,3.5,3.7,s2448,ter
3.88,3.44,3.89,3.5,3.7,s3118,ter
3.63,3.56,2.44,4.0,4.1,s2342,ser
3.63,3.56,2.44,4.0,4.1,s2342,ser
3.63,3.56,2.44,4.0,4.1,s2501,ser
3.63,3.56,2.44,4.0,4.1,s2501,ser
3.63,3.56,2.44,4.0,4.1,s3022,ser
3.63,3.56,2.44,4.0,4.1,s3022,ser
3.63,3.56,2.44,4.0,4.1,s2342,estar
3.63,3.56,2.44,4.0,4.1,s2342,estar
3.63,3.56,2.44,4.0,4.1,s2342,estar
3.63,3.56,2.44,4.0,4.1,s2342,estar
3.63,3.56,2.44,4.0,4.1,s2702,estar
3.63,3.56,2.44,4.0,4.1,s2702,estar
3.63,3.56,2.44,4.0,4.1,s2702,estar
3.63,3.56,2.44,4.0,4.1,s2702,estar
3.63,3.56,2.44,4.0,4.1,s3878,inchar
3.63,3.56,2.44,4.0,4.1,s3878,inchar
3.63,3.56,2.44,4.0,4.1,s3896,notar
3.63,3.56,2.44,4.0,4.1,s1897,envolver
3.63,3.56,2.44,4.0,4.1,s3445,envolver
3.63,3.56,2.44,4.0,4.1,s3953,envolver
3.63,3.56,2.44,4.0,4.1,s2448,ter
3.63,3.56,2.44,4.0,4.1,s3118,ter
2.63,3.56,4.22,3.38,3.8,s2342,estar
2.63,3.56,4.22,3.38,3.8,s2342,estar
2.63,3.56,4.22,3.38,3.8,s2342,estar
2.63,3.56,4.22,3.38,3.8,s2702,estar
2.63,3.56,4.22,3.38,3.8,s2702,estar
2.63,3.56,4.22,3.38,3.8,s2702,estar
2.63,3.56,4.22,3.38,3.8,s1897,envolver
2.63,3.56,4.22,3.38,3.8,s3445,envolver
2.63,3.56,4.22,3.38,3.8,s3953,envolver
2.63,3.56,4.22,3.38,3.8,s1660,cobrir
2.63,3.56,4.22,3.38,3.8,s1660,cobrir
2.63,3.56,4.22,3.38,3.8,s3008,cobrir
2.63,3.56,4.22,3.38,3.8,s3008,cobrir
2.63,3.56,4.22,3.38,3.8,s3555,cobrir
2.63,3.56,4.22,3.38,3.8,s3555,cobrir
2.63,3.56,4.22,3.38,3.8,s3767,entornar
2.63,3.56,4.22,3.38,3.8,s2342,haver
2.63,3.56,4.22,3.38,3.8,s2342,ser
2.63,3.56,4.22,3.38,3.8,s2501,ser
2.63,3.56,4.22,3.38,3.8,s3022,ser
3.63,4.22,3.56,2.38,4.0,s2342,haver
3.63,4.22,3.56,2.38,4.0,s2342,haver
3.63,4.22,3.56,2.38,4.0,s1660,cobrir
3.63,4.22,3.56,2.38,4.0,s3008,cobrir
3.63,4.22,3.56,2.38,4.0,s3555,cobrir
3.63,4.22,3.56,2.38,4.0,s2342,estar
3.63,4.22,3.56,2.38,4.0,s2342,estar
3.63,4.22,3.56,2.38,4.0,s2342,estar
3.63,4.22,3.56,2.38,4.0,s2342,estar
3.63,4.22,3.56,2.38,4.0,s2342,estar
3.63,4.22,3.56,2.38,4.0,s2702,estar
3.63,4.22,3.56,2.38,4.0,s2702,estar
3.63,4.22,3.56,2.38,4.0,s2702,estar
3.63,4.22,3.56,2.38,4.0,s2702,estar
3.63,4.22,3.56,2.38,4.0,s2702,estar
3.63,4.22,3.56,2.38,4.0,s3391,machucar
3.63,4.22,3.56,2.38,4.0,s3428,machucar
3.63,4.22,3.56,2.38,4.0,s3878,inchar
3.63,4.22,3.56,2.38,4.0,s2371,fechar
3.63,4.22,3.56,2.38,4.0,s3601,fechar
3.63,4.22,3.56,2.38,4.0,s3735,fechar
3.75,3.89,3.33,3.63,3.8,s168,observar
3.75,3.89,3.33,3.63,3.8,s3369,observar
3.75,3.89,3.33,3.63,3.8,s1897,envolver
3.75,3.89,3.33,3.63,3.8,s3445,envolver
3.75,3.89,3.33,3.63,3.8,s3953,envolver
3.75,3.89,3.33,3.63,3.8,s2869,fazer
3.75,3.89,3.33,3.63,3.8,s2873,fazer
3.75,3.89,3.33,3.63,3.8,s2342,estar
3.75,3.89,3.33,3.63,3.8,s2342,estar
3.75,3.89,3.33,3.63,3.8,s2702,estar
3.75,3.89,3.33,3.63,3.8,s2702,estar
3.75,3.89,3.33,3.63,3.8,s2446,dormir
3.75,3.89,3.33,3.63,3.8,s3878,inchar
3.88,3.11,3.22,3.13,4.1,s475,aparecer
3.88,3.11,3.22,3.13,4.1,s2143,aparecer
3.88,3.11,3.22,3.13,4.1,s3275,achatar
3.88,3.11,3.22,3.13,4.1,s3391,achatar
3.88,3.11,3.22,3.13,4.1,s3842,achatar
3.88,3.11,3.22,3.13,4.1,s2342,ser
3.88,3.11,3.22,3.13,4.1,s2501,ser
3.88,3.11,3.22,3.13,4.1,s3022,ser
3.88,3.11,3.22,3.13,4.1,s2342,estar
3.88,3.11,3.22,3.13,4.1,s2342,estar
3.88,3.11,3.22,3.13,4.1,s2702,estar
3.88,3.11,3.22,3.13,4.1,s2702,estar
3.88,3.11,3.22,3.13,4.1,s1678,enrolar
3.88,3.11,3.22,3.13,4.1,s1897,enrolar
3.88,3.11,3.22,3.13,4.1,s3953,enrolar
1.88,4.11,3.11,2.88,2.7,s2446,dormir
1.88,4.11,3.11,2.88,2.7,s1678,enrolar
1.88,4.11,3.11,2.88,2.7,s1897,enrolar
1.88,4.11,3.11,2.88,2.7,s3953,enrolar
2.88,4.44,3.78,1.63,4.1,s2446,dormir
2.88,4.44,3.78,1.63,4.1,s1897,envolver
2.88,4.44,3.78,1.63,4.1,s3445,envolver
2.88,4.44,3.78,1.63,4.1,s3953,envolver
2.88,4.44,3.78,1.63,4.1,s2342,estar
2.88,4.44,3.78,1.63,4.1,s2702,estar
2.88,4.44,3.78,1.63,4.1,s1777,vestir
2.88,4.44,3.78,1.63,4.1,s3504,vestir
2.88,4.44,3.78,1.63,4.1,s3819,vestir
2.88,4.44,3.78,1.63,4.1,s3504,colorir
2.88,4.44,3.78,1.63,4.1,s3819,colorir
3.63,3.56,3.56,3.63,5.0,s2448,ter
3.63,3.56,3.56,3.63,5.0,s2448,ter
3.63,3.56,3.56,3.63,5.0,s3118,ter
3.63,3.56,3.56,3.63,5.0,s3118,ter
3.63,3.56,3.56,3.63,5.0,s2446,dormir
3.63,3.56,3.56,3.63,5.0,s1678,embrulhar
3.63,3.56,3.56,3.63,5.0,s1874,embrulhar
3.63,3.56,3.56,3.63,5.0,s1897,embrulhar
3.63,3.56,3.56,3.63,5.0,s2342,ser
3.63,3.56,3.56,3.63,5.0,s2501,ser
3.63,3.56,3.56,3.63,5.0,s3022,ser
3.63,3.56,3.56,3.63,5.0,s2177,passar
3.63,3.56,3.56,3.63,5.0,s3717,passar
3.63,3.56,3.56,3.63,5.0,s3151,dar
3.63,3.56,3.56,3.63,5.0,s3716,dar
3.63,3.56,3.56,3.63,5.0,s4026,dar
3.25,4.78,3.33,3.5,2.4,s2448,ter
3.25,4.78,3.33,3.5,2.4,s2448,ter
3.25,4.78,3.33,3.5,2.4,s2448,ter
3.25,4.78,3.33,3.5,2.4,s3118,ter
3.25,4.78,3.33,3.5,2.4,s3118,ter
3.25,4.78,3.33,3.5,2.4,s3118,ter
3.25,4.78,3.33,3.5,2.4,s1897,envolver
3.25,4.78,3.33,3.5,2.4,s3445,envolver
3.25,4.78,3.33,3.5,2.4,s3953,envolver
3.25,4.78,3.33,3.5,2.4,s2342,estar
3.25,4.78,3.33,3.5,2.4,s2342,estar
3.25,4.78,3.33,3.5,2.4,s2342,estar
3.25,4.78,3.33,3.5,2.4,s2342,estar
3.25,4.78,3.33,3.5,2.4,s2702,estar
3.25,4.78,3.33,3.5,2.4,s2702,estar
3.25,4.78,3.33,3.5,2.4,s2702,estar
3.25,4.78,3.33,3.5,2.4,s2702,estar
3.25,4.78,3.33,3.5,2.4,s341,segurar
3.25,4.78,3.33,3.5,2.4,s3005,segurar
3.25,4.78,3.33,3.5,2.4,s4043,segurar
3.88,3.89,3.33,2.5,4.5,s3716,mostrar
3.88,3.89,3.33,2.5,4.5,s3717,mostrar
3.88,3.89,3.33,2.5,4.5,s1678,embrulhar
3.88,3.89,3.33,2.5,4.5,s1874,embrulhar
3.88,3.89,3.33,2.5,4.5,s1897,embrulhar
3.88,3.89,3.33,2.5,4.5,s2342,estar
3.88,3.89,3.33,2.5,4.5,s2342,estar
3.88,3.89,3.33,2.5,4.5,s2342,estar
3.88,3.89,3.33,2.5,4.5,s2342,estar
3.88,3.89,3.33,2.5,4.5,s2702,estar
3.88,3.89,3.33,2.5,4.5,s2702,estar
3.88,3.89,3.33,2.5,4.5,s2702,estar
3.88,3.89,3.33,2.5,4.5,s2702,estar
3.88,3.89,3.33,2.5,4.5,s3878,inchar
1.88,3.0,2.78,3.5,3.4,s3716,mostrar
1.88,3.0,2.78,3.5,3.4,s3717,mostrar
1.88,3.0,2.78,3.5,3.4,s2342,estar
1.88,3.0,2.78,3.5,3.4,s2342,estar
1.88,3.0,2.78,3.5,3.4,s2342,estar
1.88,3.0,2.78,3.5,3.4,s2342,estar
1.88,3.0,2.78,3.5,3.4,s2342,estar
1.88,3.0,2.78,3.5,3.4,s2702,estar
1.88,3.0,2.78,3.5,3.4,s2702,estar
1.88,3.0,2.78,3.5,3.4,s2702,estar
1.88,3.0,2.78,3.5,3.4,s2702,estar
1.88,3.0,2.78,3.5,3.4,s2702,estar
1.88,3.0,2.78,3.5,3.4,s2446,dormir
1.88,3.0,2.78,3.5,3.4,s1678,enrolar
1.88,3.0,2.78,3.5,3.4,s1897,enrolar
1.88,3.0,2.78,3.5,3.4,s3953,enrolar
1.88,3.0,2.78,3.5,3.4,s3202,costurar
1.88,3.0,2.78,3.5,3.4,s597,deixar
1.88,3.0,2.78,3.5,3.4,s3151,deixar
1.88,3.0,2.78,3.5,3.4,s3201,deixar
1.88,3.0,2.78,3.5,3.4,s2342,ser
1.88,3.0,2.78,3.5,3.4,s2342,ser
1.88,3.0,2.78,3.5,3.4,s2342,ser
1.88,3.0,2.78,3.5,3.4,s2342,ser
1.88,3.0,2.78,3.5,3.4,s2342,ser
1.88,3.0,2.78,3.5,3.4,s2501,ser
1.88,3.0,2.78,3.5,3.4,s2501,ser
1.88,3.0,2.78,3.5,3.4,s2501,ser
1.88,3.0,2.78,3.5,3.4,s2501,ser
1.88,3.0,2.78,3.5,3.4,s2501,ser
1.88,3.0,2.78,3.5,3.4,s3022,ser
1.88,3.0,2.78,3.5,3.4,s3022,ser
1.88,3.0,2.78,3.5,3.4,s3022,ser
1.88,3.0,2.78,3.5,3.4,s3022,ser
1.88,3.0,2.78,3.5,3.4,s3022,ser
1.88,3.0,2.78,3.5,3.4,s2860,usar
1.88,3.0,2.78,3.5,3.4,s2342,haver
1.88,3.0,2.78,3.5,3.4,s969,ver
1.88,3.0,2.78,3.5,3.4,s3434,ver
1.88,3.0,2.78,3.5,3.4,s3756,ver
1.88,3.0,2.78,3.5,3.4,s1531,carregar
1.88,3.0,2.78,3.5,3.4,s2177,carregar
1.88,3.0,2.78,3.5,3.4,s3555,carregar
1.88,3.0,2.78,3.5,3.4,s3842,carregar
2.0,3.56,3.0,2.75,3.4,s2342,estar
2.0,3.56,3.0,2.75,3.4,s2342,estar
2.0,3.56,3.0,2.75,3.4,s2342,estar
2.0,3.56,3.0,2.75,3.4,s2702,estar
2.0,3.56,3.0,2.75,3.4,s2702,estar
2.0,3.56,3.0,2.75,3.4,s2702,estar
2.0,3.56,3.0,2.75,3.4,s1678,enrolar
2.0,3.56,3.0,2.75,3.4,s1897,enrolar
2.0,3.56,3.0,2.75,3.4,s3953,enrolar
2.0,3.56,3.0,2.75,3.4,s2448,ter
2.0,3.56,3.0,2.75,3.4,s3118,ter
2.0,3.56,3.0,2.75,3.4,s341,segurar
2.0,3.56,3.0,2.75,3.4,s3005,segurar
2.0,3.56,3.0,2.75,3.4,s4043,segurar
2.0,3.56,3.0,2.75,3.4,s2143,levantar
2.0,3.56,3.0,2.75,3.4,s3022,levantar
2.0,3.56,3.0,2.75,3.4,s3168,levantar
2.0,3.56,3.0,2.75,3.4,s3301,levantar
2.0,3.56,3.0,2.75,3.4,s3877,levantar
2.0,3.56,3.0,2.75,3.4,s1213,apoiar
2.38,3.22,3.56,3.63,2.7,s1678,enrolar
2.38,3.22,3.56,3.63,2.7,s1897,enrolar
2.38,3.22,3.56,3.63,2.7,s3953,enrolar
2.38,3.22,3.56,3.63,2.7,s1660,cobrir
2.38,3.22,3.56,3.63,2.7,s3008,cobrir
2.38,3.22,3.56,3.63,2.7,s3555,cobrir
2.38,3.22,3.56,3.63,2.7,s2342,ser
2.38,3.22,3.56,3.63,2.7,s2501,ser
2.38,3.22,3.56,3.63,2.7,s3022,ser
2.38,3.22,3.56,3.63,2.7,s2342,estar
2.38,3.22,3.56,3.63,2.7,s2702,estar
3.25,4.11,3.56,2.5,4.5,s2342,estar
3.25,4.11,3.56,2.5,4.5,s2342,estar
3.25,4.11,3.56,2.5,4.5,s2702,estar
3.25,4.11,3.56,2.5,4.5,s2702,estar
3.25,4.11,3.56,2.5,4.5,s341,segurar
3.25,4.11,3.56,2.5,4.5,s3005,segurar
3.25,4.11,3.56,2.5,4.5,s4043,segurar
3.25,4.11,3.56,2.5,4.5,s1678,enrolar
3.25,4.11,3.56,2.5,4.5,s1897,enrolar
3.25,4.11,3.56,2.5,4.5,s3953,enrolar
4.0,4.11,3.44,3.38,3.4,s2342,haver
4.0,4.11,3.44,3.38,3.4,s2342,estar
4.0,4.11,3.44,3.38,3.4,s2342,estar
4.0,4.11,3.44,3.38,3.4,s2702,estar
4.0,4.11,3.44,3.38,3.4,s2702,estar
4.0,4.11,3.44,3.38,3.4,s1678,enrolar
4.0,4.11,3.44,3.38,3.4,s1897,enrolar
4.0,4.11,3.44,3.38,3.4,s3953,enrolar
3.88,3.44,2.78,2.5,3.3,s3716,mostrar
3.88,3.44,2.78,2.5,3.3,s3717,mostrar
3.88,3.44,2.78,2.5,3.3,s1678,enrolar
3.88,3.44,2.78,2.5,3.3,s1897,enrolar
3.88,3.44,2.78,2.5,3.3,s3953,enrolar
3.88,3.44,2.78,2.5,3.3,s2342,estar
3.88,3.44,2.78,2.5,3.3,s2342,estar
3.88,3.44,2.78,2.5,3.3,s2702,estar
3.88,3.44,2.78,2.5,3.3,s2702,estar
3.88,3.44,2.78,2.5,3.3,s1777,vestir
3.88,3.44,2.78,2.5,3.3,s3504,vestir
3.88,3.44,2.78,2.5,3.3,s3819,vestir
3.88,3.44,2.78,2.5,3.3,s2342,ser
3.88,3.44,2.78,2.5,3.3,s2501,ser
3.88,3.44,2.78,2.5,3.3,s3022,ser
3.88,3.44,2.78,2.5,3.3,s2448,ter
3.88,3.44,2.78,2.5,3.3,s3118,ter
2.63,3.89,2.89,3.38,3.6,s2342,haver
2.63,3.89,2.89,3.38,3.6,s1660,cobrir
2.63,3.89,2.89,3.38,3.6,s1660,cobrir
2.63,3.89,2.89,3.38,3.6,s3008,cobrir
2.63,3.89,2.89,3.38,3.6,s3008,cobrir
2.63,3.89,2.89,3.38,3.6,s3555,cobrir
2.63,3.89,2.89,3.38,3.6,s3555,cobrir
2.63,3.89,2.89,3.38,3.6,s2342,ser
2.63,3.89,2.89,3.38,3.6,s2501,ser
2.63,3.89,2.89,3.38,3.6,s3022,ser
2.63,3.89,2.89,3.38,3.6,s969,ver
2.63,3.89,2.89,3.38,3.6,s3434,ver
2.63,3.89,2.89,3.38,3.6,s3756,ver
2.63,3.89,2.89,3.38,3.6,s3504,decorar
2.63,3.89,2.89,3.38,3.6,s2342,estar
2.63,3.89,2.89,3.38,3.6,s2702,estar
2.63,3.89,2.89,3.38,3.6,s2448,possuir
2.63,3.89,2.89,3.38,3.6,s3118,possuir
3.75,3.44,2.89,2.13,4.3,s2342,ser
3.75,3.44,2.89,2.13,4.3,s2342,ser
3.75,3.44,2.89,2.13,4.3,s2501,ser
3.75,3.44,2.89,2.13,4.3,s2501,ser
3.75,3.44,2.89,2.13,4.3,s3022,ser
3.75,3.44,2.89,2.13,4.3,s3022,ser
3.75,3.44,2.89,2.13,4.3,s2448,possuir
3.75,3.44,2.89,2.13,4.3,s3118,possuir
3.75,3.44,2.89,2.13,4.3,s2342,estar
3.75,3.44,2.89,2.13,4.3,s2342,estar
3.75,3.44,2.89,2.13,4.3,s2342,estar
3.75,3.44,2.89,2.13,4.3,s2342,estar
3.75,3.44,2.89,2.13,4.3,s2342,estar
3.75,3.44,2.89,2.13,4.3,s2702,estar
3.75,3.44,2.89,2.13,4.3,s2702,estar
3.75,3.44,2.89,2.13,4.3,s2702,estar
3.75,3.44,2.89,2.13,4.3,s2702,estar
3.75,3.44,2.89,2.13,4.3,s2702,estar
3.75,3.44,2.89,2.13,4.3,s1678,enrolar
3.75,3.44,2.89,2.13,4.3,s1897,enrolar
3.75,3.44,2.89,2.13,4.3,s3953,enrolar
3.75,3.44,2.89,2.13,4.3,s1660,cobrir
3.75,3.44,2.89,2.13,4.3,s1660,cobrir
3.75,3.44,2.89,2.13,4.3,s3008,cobrir
3.75,3.44,2.89,2.13,4.3,s3008,cobrir
3.75,3.44,2.89,2.13,4.3,s3555,cobrir
3.75,3.44,2.89,2.13,4.3,s3555,cobrir
3.75,3.44,2.89,2.13,4.3,s1777,vestir
3.75,3.44,2.89,2.13,4.3,s3504,vestir
3.75,3.44,2.89,2.13,4.3,s3819,vestir
3.75,3.56,2.33,3.88,4.1,s2342,haver
3.75,3.56,2.33,3.88,4.1,s1897,envolver
3.75,3.56,2.33,3.88,4.1,s3445,envolver
3.75,3.56,2.33,3.88,4.1,s3953,envolver
3.75,3.56,2.33,3.88,4.1,s2342,estar
3.75,3.56,2.33,3.88,4.1,s2702,estar
2.63,4.0,4.11,2.5,4.7,s2448,ter
2.63,4.0,4.11,2.5,4.7,s3118,ter
2.63,4.0,4.11,2.5,4.7,s1678,enrolar
2.63,4.0,4.11,2.5,4.7,s1897,enrolar
2.63,4.0,4.11,2.5,4.7,s3953,enrolar
2.63,4.0,4.11,2.5,4.7,s1579,encontrar
2.5,4.56,3.0,2.38,2.8,s2342,ser
2.5,4.56,3.0,2.38,2.8,s2501,ser
2.5,4.56,3.0,2.38,2.8,s3022,ser
2.5,4.56,3.0,2.38,2.8,s2448,ter
2.5,4.56,3.0,2.38,2.8,s3118,ter
2.5,4.56,3.0,2.38,2.8,s2342,estar
2.5,4.56,3.0,2.38,2.8,s2342,estar
2.5,4.56,3.0,2.38,2.8,s2342,estar
2.5,4.56,3.0,2.38,2.8,s2702,estar
2.5,4.56,3.0,2.38,2.8,s2702,estar
2.5,4.56,3.0,2.38,2.8,s2702,estar
2.5,4.56,3.0,2.38,2.8,s1897,envolver
2.5,4.56,3.0,2.38,2.8,s3445,envolver
2.5,4.56,3.0,2.38,2.8,s3953,envolver
2.5,4.56,3.0,2.38,2.8,s3878,inchar
3.13,3.56,3.89,3.75,3.5,s475,aparecer
3.13,3.56,3.89,3.75,3.5,s2143,aparecer
3.13,3.56,3.89,3.75,3.5,s2342,estar
3.13,3.56,3.89,3.75,3.5,s2342,estar
3.13,3.56,3.89,3.75,3.5,s2342,estar
3.13,3.56,3.89,3.75,3.5,s2702,estar
3.13,3.56,3.89,3.75,3.5,s2702,estar
3.13,3.56,3.89,3.75,3.5,s2702,estar
3.13,3.56,3.89,3.75,3.5,s2446,dormir
3.13,3.56,3.89,3.75,3.5,s1660,cobrir
3.13,3.56,3.89,3.75,3.5,s3008,cobrir
3.13,3.56,3.89,3.75,3.5,s3555,cobrir
3.13,3.56,3.89,3.75,3.5,s2371,fechar
3.13,3.56,3.89,3.75,3.5,s3601,fechar
3.13,3.56,3.89,3.75,3.5,s3735,fechar
3.13,3.56,3.89,3.75,3.5,s2342,haver
3.5,4.56,2.67,1.88,3.7,s2448,ter
3.5,4.56,2.67,1.88,3.7,s2448,ter
3.5,4.56,2.67,1.88,3.7,s2448,ter
3.5,4.56,2.67,1.88,3.7,s3118,ter
3.5,4.56,2.67,1.88,3.7,s3118,ter
3.5,4.56,2.67,1.88,3.7,s3118,ter
3.5,4.56,2.67,1.88,3.7,s3878,inchar
2.38,3.11,2.67,2.5,3.8,s2869,fazer
2.38,3.11,2.67,2.5,3.8,s2873,fazer
2.38,3.11,2.67,2.5,3.8,s2342,estar
2.38,3.11,2.67,2.5,3.8,s2342,estar
2.38,3.11,2.67,2.5,3.8,s2342,estar
2.38,3.11,2.67,2.5,3.8,s2702,estar
2.38,3.11,2.67,2.5,3.8,s2702,estar
2.38,3.11,2.67,2.5,3.8,s2702,estar
2.38,3.11,2.67,2.5,3.8,s3878,inchar
2.38,3.11,2.67,2.5,3.8,s1678,enrolar
2.38,3.11,2.67,2.5,3.8,s1897,enrolar
2.38,3.11,2.67,2.5,3.8,s3953,enrolar
2.38,3.11,2.67,2.5,3.8,s1660,cobrir
2.38,3.11,2.67,2.5,3.8,s3008,cobrir
2.38,3.11,2.67,2.5,3.8,s3555,cobrir
2.38,3.11,2.67,2.5,3.8,s2371,fechar
2.38,3.11,2.67,2.5,3.8,s3601,fechar
2.38,3.11,2.67,2.5,3.8,s3735,fechar
4.88,3.89,4.33,3.25,4.4,s3878,inchar
4.88,3.89,4.33,3.25,4.4,s3878,inchar
4.88,3.89,4.33,3.25,4.4,s2342,estar
4.88,3.89,4.33,3.25,4.4,s2342,estar
4.88,3.89,4.33,3.25,4.4,s2342,estar
4.88,3.89,4.33,3.25,4.4,s2702,estar
4.88,3.89,4.33,3.25,4.4,s2702,estar
4.88,3.89,4.33,3.25,4.4,s2702,estar
4.88,3.89,4.33,3.25,4.4,s1678,enrolar
4.88,3.89,4.33,3.25,4.4,s1897,enrolar
4.88,3.89,4.33,3.25,4.4,s3953,enrolar
3.5,2.67,4.0,1.88,4.0,s2342,estar
3.5,2.67,4.0,1.88,4.0,s2342,estar
3.5,2.67,4.0,1.88,4.0,s2342,estar
3.5,2.67,4.0,1.88,4.0,s2342,estar
3.5,2.67,4.0,1.88,4.0,s2702,estar
3.5,2.67,4.0,1.88,4.0,s2702,estar
3.5,2.67,4.0,1.88,4.0,s2702,estar
3.5,2.67,4.0,1.88,4.0,s2702,estar
3.5,2.67,4.0,1.88,4.0,s1678,enrolar
3.5,2.67,4.0,1.88,4.0,s1897,enrolar
3.5,2.67,4.0,1.88,4.0,s3953,enrolar
3.5,2.67,4.0,1.88,4.0,s2342,haver
4.88,3.78,2.44,3.63,4.4,s2448,ter
4.88,3.78,2.44,3.63,4.4,s3118,ter
4.88,3.78,2.44,3.63,4.4,s1897,envolver
4.88,3.78,2.44,3.63,4.4,s3445,envolver
4.88,3.78,2.44,3.63,4.4,s3953,envolver
4.88,3.78,2.44,3.63,4.4,s2342,haver
4.88,3.78,2.44,3.63,4.4,s2342,ser
4.88,3.78,2.44,3.63,4.4,s2501,ser
4.88,3.78,2.44,3.63,4.4,s3022,ser
3.63,3.78,3.67,3.0,4.5,s2446,dormir
3.63,3.78,3.67,3.0,4.5,s2342,estar
3.63,3.78,3.67,3.0,4.5,s2342,estar
3.63,3.78,3.67,3.0,4.5,s2342,estar
3.63,3.78,3.67,3.0,4.5,s2702,estar
3.63,3.78,3.67,3.0,4.5,s2702,estar
3.63,3.78,3.67,3.0,4.5,s2702,estar
3.63,3.78,3.67,3.0,4.5,s1678,embrulhar
3.63,3.78,3.67,3.0,4.5,s1874,embrulhar
3.63,3.78,3.67,3.0,4.5,s1897,embrulhar
3.63,3.78,3.67,3.0,4.5,s2342,ser
3.63,3.78,3.67,3.0,4.5,s2342,ser
3.63,3.78,3.67,3.0,4.5,s2501,ser
3.63,3.78,3.67,3.0,4.5,s2501,ser
3.63,3.78,3.67,3.0,4.5,s3022,ser
3.63,3.78,3.67,3.0,4.5,s3022,ser
3.63,3.78,3.67,3.0,4.5,s2448,ter
3.63,3.78,3.67,3.0,4.5,s3118,ter
4.13,3.67,4.0,3.13,3.9,s2342,estar
4.13,3.67,4.0,3.13,3.9,s2342,estar
4.13,3.67,4.0,3.13,3.9,s2342,estar
4.13,3.67,4.0,3.13,3.9,s2702,estar
4.13,3.67,4.0,3.13,3.9,s2702,estar
4.13,3.67,4.0,3.13,3.9,s2702,estar
4.13,3.67,4.0,3.13,3.9,s3006,agasalhar
4.13,3.67,4.0,3.13,3.9,s3007,agasalhar
4.13,3.67,4.0,3.13,3.9,s3008,agasalhar
4.13,3.67,4.0,3.13,3.9,s2448,ter
4.13,3.67,4.0,3.13,3.9,s2448,ter
4.13,3.67,4.0,3.13,3.9,s3118,ter
4.13,3.67,4.0,3.13,3.9,s3118,ter
4.13,3.67,4.0,3.13,3.9,s2429,alimentar
4.13,3.67,4.0,3.13,3.9,s4121,perguntar
4.13,3.67,4.0,3.13,3.9,s968,saber
4.13,3.67,4.0,3.13,3.9,s969,saber
4.13,3.67,4.0,3.13,3.9,s2342,ser
4.13,3.67,4.0,3.13,3.9,s2501,ser
4.13,3.67,4.0,3.13,3.9,s3022,ser
2.38,3.33,3.67,3.88,3.3,s3716,mostrar
2.38,3.33,3.67,3.88,3.3,s3717,mostrar
2.38,3.33,3.67,3.88,3.3,s2342,estar
2.38,3.33,3.67,3.88,3.3,s2342,estar
2.38,3.33,3.67,3.88,3.3,s2342,estar
2.38,3.33,3.67,3.88,3.3,s2702,estar
2.38,3.33,3.67,3.88,3.3,s2702,estar
2.38,3.33,3.67,3.88,3.3,s2702,estar
2.38,3.33,3.67,3.88,3.3,s1897,envolver
2.38,3.33,3.67,3.88,3.3,s3445,envolver
2.38,3.33,3.67,3.88,3.3,s3953,envolver
2.38,3.33,3.67,3.88,3.3,s2371,fechar
2.38,3.33,3.67,3.88,3.3,s3601,fechar
2.38,3.33,3.67,3.88,3.3,s3735,fechar
2.38,3.33,3.67,3.88,3.3,s2448,ter
2.38,3.33,3.67,3.88,3.3,s3118,ter
2.38,3.33,3.67,3.88,3.3,s3878,inchar
2.5,3.33,2.89,2.75,4.6,s3716,mostrar
2.5,3.33,2.89,2.75,4.6,s3717,mostrar
2.5,3.33,2.89,2.75,4.6,s2446,dormir
2.5,3.33,2.89,2.75,4.6,s2342,ser
2.5,3.33,2.89,2.75,4.6,s2501,ser
2.5,3.33,2.89,2.75,4.6,s3022,ser
2.5,3.33,2.89,2.75,4.6,s3504,colorir
2.5,3.33,2.89,2.75,4.6,s3819,colorir
2.5,3.33,2.89,2.75,4.6,s2342,estar
2.5,3.33,2.89,2.75,4.6,s2702,estar
2.25,3.78,2.22,1.5,3.2,s680,dobrar
2.25,3.78,2.22,1.5,3.2,s1678,dobrar
2.25,3.78,2.22,1.5,3.2,s2352,dobrar
2.25,3.78,2.22,1.5,3.2,s3868,dobrar
2.25,3.78,2.22,1.5,3.2,s3992,dobrar
2.25,3.78,2.22,1.5,3.2,s1660,cobrir
2.25,3.78,2.22,1.5,3.2,s3008,cobrir
2.25,3.78,2.22,1.5,3.2,s3555,cobrir
3.0,4.67,4.0,2.5,3.3,s3716,mostrar
3.0,4.67,4.0,2.5,3.3,s3716,mostrar
3.0,4.67,4.0,2.5,3.3,s3717,mostrar
3.0,4.67,4.0,2.5,3.3,s3717,mostrar
3.0,4.67,4.0,2.5,3.3,s1660,cobrir
3.0,4.67,4.0,2.5,3.3,s3008,cobrir
3.0,4.67,4.0,2.5,3.3,s3555,cobrir
3.0,4.67,4.0,2.5,3.3,s2448,ter
3.0,4.67,4.0,2.5,3.3,s3118,ter
3.0,4.67,4.0,2.5,3.3,s2448,possuir
3.0,4.67,4.0,2.5,3.3,s3118,possuir
3.13,3.89,3.44,3.75,3.6,s1678,embrulhar
3.13,3.89,3.44,3.75,3.6,s1874,embrulhar
3.13,3.89,3.44,3.75,3.6,s1897,embrulhar
3.13,3.89,3.44,3.75,3.6,s2342,estar
3.13,3.89,3.44,3.75,3.6,s2702,estar
3.13,3.89,3.44,3.75,3.6,s2448,ter
3.13,3.89,3.44,3.75,3.6,s3118,ter
3.13,3.89,3.44,3.75,3.6,s1897,envolver
3.13,3.89,3.44,3.75,3.6,s3445,envolver
3.13,3.89,3.44,3.75,3.6,s3953,envolver
2.88,4.56,2.78,2.38,3.3,s1678,enrolar
2.88,4.56,2.78,2.38,3.3,s1897,enrolar
2.88,4.56,2.78,2.38,3.3,s3953,enrolar
2.88,4.56,2.78,2.38,3.3,s1660,cobrir
2.88,4.56,2.78,2.38,3.3,s1660,cobrir
2.88,4.56,2.78,2.38,3.3,s3008,cobrir
2.88,4.56,2.78,2.38,3.3,s3008,cobrir
2.88,4.56,2.78,2.38,3.3,s3555,cobrir
2.88,4.56,2.78,2.38,3.3,s3555,cobrir
2.88,4.56,2.78,2.38,3.3,s2448,ter
2.88,4.56,2.78,2.38,3.3,s3118,ter
2.88,4.56,2.78,2.38,3.3,s3878,inchar
2.88,4.56,2.78,2.38,3.3,s2342,estar
2.88,4.56,2.78,2.38,3.3,s2702,estar
2.88,4.56,2.78,2.38,3.3,s2342,ser
2.88,4.56,2.78,2.38,3.3,s2501,ser
2.88,4.56,2.78,2.38,3.3,s3022,ser
2.88,4.56,2.78,2.38,3.3,s341,segurar
2.88,4.56,2.78,2.38,3.3,s3005,segurar
2.88,4.56,2.78,2.38,3.3,s4043,segurar
2.88,4.56,2.78,2.38,3.3,s2860,usar
2.88,4.56,2.78,2.38,3.3,s2931,forrar
2.88,4.56,2.78,2.38,3.3,s3817,forrar
3.13,3.67,2.11,4.0,3.7,s2342,estar
3.13,3.67,2.11,4.0,3.7,s2342,estar
3.13,3.67,2.11,4.0,3.7,s2342,estar
3.13,3.67,2.11,4.0,3.7,s2342,estar
3.13,3.67,2.11,4.0,3.7,s2702,estar
3.13,3.67,2.11,4.0,3.7,s2702,estar
3.13,3.67,2.11,4.0,3.7,s2702,estar
3.13,3.67,2.11,4.0,3.7,s2702,estar
3.13,3.67,2.11,4.0,3.7,s3878,inchar
3.13,3.67,2.11,4.0,3.7,s1678,enrolar
3.13,3.67,2.11,4.0,3.7,s1897,enrolar
3.13,3.67,2.11,4.0,3.7,s3953,enrolar
3.13,3.67,2.11,4.0,3.7,s2860,usar
3.13,3.67,2.11,4.0,3.7,s2342,haver
3.13,3.67,2.11,4.0,3.7,s2938,desgastar
1.88,4.22,2.89,2.25,3.5,s1660,cobrir
1.88,4.22,2.89,2.25,3.5,s1660,cobrir
1.88,4.22,2.89,2.25,3.5,s1660,cobrir
1.88,4.22,2.89,2.25,3.5,s1660,cobrir
1.88,4.22,2.89,2.25,3.5,s1660,cobrir
1.88,4.22,2.89,2.25,3.5,s1660,cobrir
1.88,4.22,2.89,2.25,3.5,s1660,cobrir
1.88,4.22,2.89,2.25,3.5,s3008,cobrir
1.88,4.22,2.89,2.25,3.5,s3008,cobrir
1.88,4.22,2.89,2.25,3.5,s3008,cobrir
1.88,4.22,2.89,2.25,3.5,s3008,cobrir
1.88,4.22,2.89,2.25,3.5,s3008,cobrir
1.88,4.22,2.89,2.25,3.5,s3008,cobrir
1.88,4.22,2.89,2.25,3.5,s3008,cobrir
1.88,4.22,2.89,2.25,3.5,s3555,cobrir
1.88,4.22,2.89,2.25,3.5,s3555,cobrir
1.88,4.22,2.89,2.25,3.5,s3555,cobrir
1.88,4.22,2.89,2.25,3.5,s3555,cobrir
1.88,4.22,2.89,2.25,3.5,s3555,cobrir
1.88,4.22,2.89,2.25,3.5,s3555,cobrir
1.88,4.22,2.89,2.25,3.5,s3555,cobrir
1.88,4.22,2.89,2.25,3.5,s2342,estar
1.88,4.22,2.89,2.25,3.5,s2342,estar
1.88,4.22,2.89,2.25,3.5,s2342,estar
1.88,4.22,2.89,2.25,3.5,s2342,estar
1.88,4.22,2.89,2.25,3.5,s2342,estar
1.88,4.22,2.89,2.25,3.5,s2342,estar
1.88,4.22,2.89,2.25,3.5,s2342,estar
1.88,4.22,2.89,2.25,3.5,s2342,estar
1.88,4.22,2.89,2.25,3.5,s2342,estar
1.88,4.22,2.89,2.25,3.5,s2342,estar
1.88,4.22,2.89,2.25,3.5,s2702,estar
1.88,4.22,2.89,2.25,3.5,s2702,estar
1.88,4.22,2.89,2.25,3.5,s2702,estar
1.88,4.22,2.89,2.25,3.5,s2702,estar
1.88,4.22,2.89,2.25,3.5,s2702,estar
1.88,4.22,2.89,2.25,3.5,s2702,estar
1.88,4.22,2.89,2.25,3.5,s2702,estar
1.88,4.22,2.89,2.25,3.5,s2702,estar
1.88,4.22,2.89,2.25,3.5,s2702,estar
1.88,4.22,2.89,2.25,3.5,s2702,estar
1.88,4.22,2.89,2.25,3.5,s3756,enxergar
1.88,4.22,2.89,2.25,3.5,s3756,enxergar
1.88,4.22,2.89,2.25,3.5,s2342,ser
1.88,4.22,2.89,2.25,3.5,s2342,ser
1.88,4.22,2.89,2.25,3.5,s2342,ser
1.88,4.22,2.89,2.25,3.5,s2342,ser
1.88,4.22,2.89,2.25,3.5,s2501,ser
1.88,4.22,2.89,2.25,3.5,s2501,ser
1.88,4.22,2.89,2.25,3.5,s2501,ser
1.88,4.22,2.89,2.25,3.5,s2501,ser
1.88,4.22,2.89,2.25,3.5,s3022,ser
1.88,4.22,2.89,2.25,3.5,s3022,ser
1.88,4.22,2.89,2.25,3.5,s3022,ser
1.88,4.22,2.89,2.25,3.5,s3022,ser
1.88,4.22,2.89,2.25,3.5,s2794,reparar
1.88,4.22,2.89,2.25,3.5,s2794,reparar
1.88,4.22,2.89,2.25,3.5,s1897,envolver
1.88,4.22,2.89,2.25,3.5,s3445,envolver
1.88,4.22,2.89,2.25,3.5,s3953,envolver
1.88,4.22,2.89,2.25,3.5,s2448,possuir
1.88,4.22,2.89,2.25,3.5,s2448,possuir
1.88,4.22,2.89,2.25,3.5,s3118,possuir
1.88,4.22,2.89,2.25,3.5,s3118,possuir
1.88,4.22,2.89,2.25,3.5,s2342,haver
1.88,4.22,2.89,2.25,3.5,s2342,haver
1.88,4.22,2.89,2.25,3.5,s2342,haver
1.88,4.22,2.89,2.25,3.5,s2342,haver
1.88,4.22,2.89,2.25,3.5,s1678,enrolar
1.88,4.22,2.89,2.25,3.5,s1678,enrolar
1.88,4.22,2.89,2.25,3.5,s1897,enrolar
1.88,4.22,2.89,2.25,3.5,s1897,enrolar
1.88,4.22,2.89,2.25,3.5,s3953,enrolar
1.88,4.22,2.89,2.25,3.5,s3953,enrolar
1.88,4.22,2.89,2.25,3.5,s2446,dormir
1.88,4.22,2.89,2.25,3.5,s969,ver
1.88,4.22,2.89,2.25,3.5,s969,ver
1.88,4.22,2.89,2.25,3.5,s969,ver
1.88,4.22,2.89,2.25,3.5,s3434,ver
1.88,4.22,2.89,2.25,3.5,s3434,ver
1.88,4.22,2.89,2.25,3.5,s3434,ver
1.88,4.22,2.89,2.25,3.5,s3756,ver
1.88,4.22,2.89,2.25,3.5,s3756,ver
1.88,4.22,2.89,2.25,3.5,s3756,ver
1.88,4.22,2.89,2.25,3.5,s341,segurar
1.88,4.22,2.89,2.25,3.5,s3005,segurar
1.88,4.22,2.89,2.25,3.5,s4043,segurar
1.88,4.22,2.89,2.25,3.5,s1777,vestir
1.88,4.22,2.89,2.25,3.5,s3504,vestir
1.88,4.22,2.89,2.25,3.5,s3819,vestir
1.88,4.22,2.89,2.25,3.5,s968,saber
1.88,4.22,2.89,2.25,3.5,s969,saber
1.88,4.22,2.89,2.25,3.5,s3897,identificar
1.88,4.22,2.89,2.25,3.5,s2448,ter
1.88,4.22,2.89,2.25,3.5,s2448,ter
1.88,4.22,2.89,2.25,3.5,s3118,ter
1.88,4.22,2.89,2.25,3.5,s3118,ter
1.88,4.22,2.89,2.25,3.5,s3369,escutar
1.88,4.22,2.89,2.25,3.5,s2342,existir
1.88,4.22,2.89,2.25,3.5,s3275,achatar
1.88,4.22,2.89,2.25,3.5,s3391,achatar
1.88,4.22,2.89,2.25,3.5,s3842,achatar
1.88,4.22,2.89,2.25,3.5,s3878,inchar
4.25,4.0,2.78,2.38,3.7,s1678,enrolar
4.25,4.0,2.78,2.38,3.7,s1897,enrolar
4.25,4.0,2.78,2.38,3.7,s3953,enrolar
4.25,4.0,2.78,2.38,3.7,s2448,possuir
4.25,4.0,2.78,2.38,3.7,s3118,possuir
4.25,4.0,2.78,2.38,3.7,s2342,estar
4.25,4.0,2.78,2.38,3.7,s2342,estar
4.25,4.0,2.78,2.38,3.7,s2702,estar
4.25,4.0,2.78,2.38,3.7,s2702,estar
3.63,4.44,2.22,2.88,4.1,s969,ver
3.63,4.44,2.22,2.88,4.1,s969,ver
3.63,4.44,2.22,2.88,4.1,s3434,ver
3.63,4.44,2.22,2.88,4.1,s3434,ver
3.63,4.44,2.22,2.88,4.1,s3756,ver
3.63,4.44,2.22,2.88,4.1,s3756,ver
3.63,4.44,2.22,2.88,4.1,s2342,estar
3.63,4.44,2.22,2.88,4.1,s2342,estar
3.63,4.44,2.22,2.88,4.1,s2342,estar
3.63,4.44,2.22,2.88,4.1,s2342,estar
3.63,4.44,2.22,2.88,4.1,s2702,estar
3.63,4.44,2.22,2.88,4.1,s2702,estar
3.63,4.44,2.22,2.88,4.1,s2702,estar
3.63,4.44,2.22,2.88,4.1,s2702,estar
3.63,4.44,2.22,2.88,4.1,s1678,enrolar
3.63,4.44,2.22,2.88,4.1,s1897,enrolar
3.63,4.44,2.22,2.88,4.1,s3953,enrolar
3.63,4.44,2.22,2.88,4.1,s3151,dar
3.63,4.44,2.22,2.88,4.1,s3716,dar
3.63,4.44,2.22,2.88,4.1,s4026,dar
3.63,4.44,2.22,2.88,4.1,s2448,ter
3.63,4.44,2.22,2.88,4.1,s3118,ter
3.63,4.44,2.22,2.88,4.1,s341,segurar
3.63,4.44,2.22,2.88,4.1,s341,segurar
3.63,4.44,2.22,2.88,4.1,s3005,segurar
3.63,4.44,2.22,2.88,4.1,s3005,segurar
3.63,4.44,2.22,2.88,4.1,s4043,segurar
3.63,4.44,2.22,2.88,4.1,s4043,segurar
3.63,4.44,2.22,2.88,4.1,s2342,ser
3.63,4.44,2.22,2.88,4.1,s2342,ser
3.63,4.44,2.22,2.88,4.1,s2501,ser
3.63,4.44,2.22,2.88,4.1,s2501,ser
3.63,4.44,2.22,2.88,4.1,s3022,ser
3.63,4.44,2.22,2.88,4.1,s3022,ser
3.63,4.44,2.22,2.88,4.1,s2448,possuir
3.63,4.44,2.22,2.88,4.1,s3118,possuir
3.63,4.44,2.22,2.88,4.1,s3716,dizer
3.63,4.44,2.22,2.88,4.1,s3943,dizer
3.63,4.44,2.22,2.88,4.1,s4001,dizer
3.63,4.44,2.22,2.88,4.1,s2446,dormir
2.88,3.78,3.78,4.0,3.3,s2448,possuir
2.88,3.78,3.78,4.0,3.3,s2448,possuir
2.88,3.78,3.78,4.0,3.3,s3118,possuir
2.88,3.78,3.78,4.0,3.3,s3118,possuir
2.88,3.78,3.78,4.0,3.3,s1660,cobrir
2.88,3.78,3.78,4.0,3.3,s3008,cobrir
2.88,3.78,3.78,4.0,3.3,s3555,cobrir
2.88,3.78,3.78,4.0,3.3,s3716,mostrar
2.88,3.78,3.78,4.0,3.3,s3717,mostrar
2.88,3.78,3.78,4.0,3.3,s3767,entornar
1.88,4.56,4.22,3.75,2.1,s2342,estar
1.88,4.56,4.22,3.75,2.1,s2342,estar
1.88,4.56,4.22,3.75,2.1,s2702,estar
1.88,4.56,4.22,3.75,2.1,s2702,estar
1.88,4.56,4.22,3.75,2.1,s1897,envolver
1.88,4.56,4.22,3.75,2.1,s3445,envolver
1.88,4.56,4.22,3.75,2.1,s3953,envolver
1.88,4.56,4.22,3.75,2.1,s1660,cobrir
1.88,4.56,4.22,3.75,2.1,s3008,cobrir
1.88,4.56,4.22,3.75,2.1,s3555,cobrir
1.88,4.56,4.22,3.75,2.1,s3780,limpar
1.88,4.56,4.22,3.75,2.1,s2342,ser
1.88,4.56,4.22,3.75,2.1,s2501,ser
1.88,4.56,4.22,3.75,2.1,s3022,ser
1.88,4.56,4.22,3.75,2.1,s3659,precisar
3.0,3.44,4.89,4.0,2.9,s3819,pintar
3.0,3.44,4.89,4.0,2.9,s2342,estar
3.0,3.44,4.89,4.0,2.9,s2342,estar
3.0,3.44,4.89,4.0,2.9,s2702,estar
3.0,3.44,4.89,4.0,2.9,s2702,estar
3.0,3.44,4.89,4.0,2.9,s1897,envolver
3.0,3.44,4.89,4.0,2.9,s3445,envolver
3.0,3.44,4.89,4.0,2.9,s3953,envolver
