EXTRA,AGREE,CONSC,NEURO,OPEN,CONCEPT,STRING
3.88,3.22,3.11,1.63,3.7,5h7,pessoa
3.88,3.22,3.11,1.63,3.7,5h7,pessoa
3.88,3.22,3.11,1.63,3.7,5h7,pessoa
3.88,3.22,3.11,1.63,3.7,5h7,pessoa
3.88,3.22,3.11,1.63,3.7,5h7,pessoa
3.88,3.22,3.11,1.63,3.7,5o501,local
3.88,3.22,3.11,1.63,3.7,5o501,local
3.88,3.22,3.11,1.63,3.7,5h6,fileira
3.88,3.22,3.11,1.63,3.7,5o507,cadeira
3.88,3.22,3.11,1.63,3.7,5o507,cadeira
3.88,3.22,3.11,1.63,3.7,5o500,foto
3.88,3.22,3.11,1.63,3.7,5h2,menino
3.88,3.22,3.11,1.63,3.7,5h3,menino
3.88,3.22,3.11,1.63,3.7,5a22,blusa
2.38,3.11,3.22,3.13,2.2,5o500,imagem
2.38,3.11,3.22,3.13,2.2,5o507,banco
2.38,3.11,3.22,3.13,2.2,5h1,senhora
2.38,3.11,3.22,3.13,2.2,5h1,mulher
2.38,3.11,3.22,3.13,2.2,5h4,mulher
2.38,3.11,3.22,3.13,2.2,5h7,criança
2.38,3.11,3.22,3.13,2.2,5o500,foto
2.38,3.11,3.22,3.13,2.2,5h7,pessoa
2.38,3.11,3.22,3.13,2.2,5o501,lugar
1.75,3.67,2.67,2.88,4.1,5h7,pessoa
1.75,3.67,2.67,2.88,4.1,5h7,pessoa
1.75,3.67,2.67,2.88,4.1,5h7,pessoa
1.75,3.67,2.67,2.88,4.1,5h7,pessoa
1.75,3.67,2.67,2.88,4.1,5a15,casaco
1.75,3.67,2.67,2.88,4.1,5a15,casaco
1.75,3.67,2.67,2.88,4.1,5a15,casaco
1.75,3.67,2.67,2.88,4.1,5a22,blusa
1.75,3.67,2.67,2.88,4.1,5a31,lenço
1.75,3.67,2.67,2.88,4.1,5h7,criança
1.75,3.67,2.67,2.88,4.1,5h7,criança
1.75,3.67,2.67,2.88,4.1,5h7,criança
1.75,3.67,2.67,2.88,4.1,5h7,criança
1.75,3.67,2.67,2.88,4.1,5h7,criança
1.75,3.67,2.67,2.88,4.1,5a19,calça
1.75,3.67,2.67,2.88,4.1,5h1,mulher
1.75,3.67,2.67,2.88,4.1,5h4,mulher
1.75,3.67,2.67,2.88,4.1,5a14,roupa
1.75,3.22,3.56,3.88,4.1,5h7,pessoa
1.75,3.22,3.56,3.88,4.1,5h7,pessoa
1.75,3.22,3.56,3.88,4.1,5h7,pessoa
1.75,3.22,3.56,3.88,4.1,5h7,pessoa
1.75,3.22,3.56,3.88,4.1,5o507,banco
1.75,3.22,3.56,3.88,4.1,5a14,roupa
1.75,3.22,3.56,3.88,4.1,5a14,roupa
1.75,3.22,3.56,3.88,4.1,5h1,senhora
1.75,3.22,3.56,3.88,4.1,5h1,senhora
1.75,3.22,3.56,3.88,4.1,5h1,senhora
1.75,3.22,3.56,3.88,4.1,5a31,lenço
1.75,3.22,3.56,3.88,4.1,5h2,garoto
1.75,3.22,3.56,3.88,4.1,5h2,garoto
1.75,3.22,3.56,3.88,4.1,5h2,garoto
1.75,3.22,3.56,3.88,4.1,5h3,garoto
1.75,3.22,3.56,3.88,4.1,5h3,garoto
1.75,3.22,3.56,3.88,4.1,5h3,garoto
1.75,3.22,3.56,3.88,4.1,5a19,calça
1.75,3.22,3.56,3.88,4.1,5a19,calça
1.75,3.22,3.56,3.88,4.1,5h1,mulher
1.75,3.22,3.56,3.88,4.1,5h1,mulher
1.75,3.22,3.56,3.88,4.1,5h4,mulher
1.75,3.22,3.56,3.88,4.1,5h4,mulher
1.75,3.22,3.56,3.88,4.1,5h7,criança
1.75,3.22,3.56,3.88,4.1,5a22,blusa
1.75,3.22,3.56,3.88,4.1,5a22,blusa
3.13,4.0,1.89,3.75,3.0,5h6,grupo
3.13,4.0,1.89,3.75,3.0,5h7,pessoa
3.13,4.0,1.89,3.75,3.0,5o509,coisa
3.13,4.0,1.89,3.75,3.0,5o509,coisa
3.13,4.0,1.89,3.75,3.0,5h6,fila
3.13,4.0,1.89,3.75,3.0,5h7,criança
3.13,4.0,1.89,3.75,3.0,5a14,roupa
3.13,4.0,1.89,3.75,3.0,5o501,ambiente
3.13,4.0,1.89,3.75,3.0,5o512,concreto
3.38,3.33,2.89,3.75,3.8,5h7,pessoa
3.38,3.33,2.89,3.75,3.8,5h7,pessoa
3.38,3.33,2.89,3.75,3.8,5o501,lugar
3.38,3.33,2.89,3.75,3.8,5o507,cadeira
3.38,3.33,2.89,3.75,3.8,5o507,banco
3.38,3.33,2.89,3.75,3.8,5h2,menino
3.38,3.33,2.89,3.75,3.8,5h3,menino
3.38,3.33,2.89,3.75,3.8,5o501,local
3.0,4.33,3.56,2.25,3.4,5h1,senhora
4.75,4.22,2.56,2.75,4.6,5h7,pessoa
4.75,4.22,2.56,2.75,4.6,5h7,pessoa
4.75,4.22,2.56,2.75,4.6,5o512,concreto
4.75,4.22,2.56,2.75,4.6,5h6,fila
4.75,4.22,2.56,2.75,4.6,5h6,fila
4.75,4.22,2.56,2.75,4.6,5h2,garoto
4.75,4.22,2.56,2.75,4.6,5h3,garoto
4.75,4.22,2.56,2.75,4.6,5a15,jaqueta
4.75,4.22,2.56,2.75,4.6,5h1,senhora
4.75,4.22,2.56,2.75,4.6,5o500,foto
3.0,3.44,3.33,2.38,4.4,5h1,senhora
3.0,3.44,3.33,2.38,4.4,5h1,senhora
3.0,3.44,3.33,2.38,4.4,5h7,criança
3.0,3.44,3.33,2.38,4.4,5h2,garoto
3.0,3.44,3.33,2.38,4.4,5h2,garoto
3.0,3.44,3.33,2.38,4.4,5h2,garoto
3.0,3.44,3.33,2.38,4.4,5h2,garoto
3.0,3.44,3.33,2.38,4.4,5h3,garoto
3.0,3.44,3.33,2.38,4.4,5h3,garoto
3.0,3.44,3.33,2.38,4.4,5h3,garoto
3.0,3.44,3.33,2.38,4.4,5h3,garoto
3.0,3.44,3.33,2.38,4.4,5a19,calça
3.0,3.44,3.33,2.38,4.4,5a19,jeans
3.0,3.44,3.33,2.38,4.4,5a19,jeans
3.0,3.44,3.33,2.38,4.4,5a15,casaco
3.0,3.44,3.33,2.38,4.4,5a21,tênis
3.0,3.44,3.33,2.38,4.4,5a21,tênis
3.0,3.44,3.33,2.38,4.4,5o507,banco
3.0,3.44,3.33,2.38,4.4,5a14,vestimenta
3.0,3.44,3.33,2.38,4.4,5a15,jaqueta
3.0,3.44,3.33,2.38,4.4,5h1,mulher
3.0,3.44,3.33,2.38,4.4,5h4,mulher
3.0,3.44,3.33,2.38,4.4,5o509,coisa
3.0,3.44,3.33,2.38,4.4,5h7,pessoa
3.0,3.44,3.33,2.38,4.4,5o500,imagem
2.25,3.67,2.22,3.13,3.2,5h7,pessoa
2.25,3.67,2.22,3.13,3.2,5o501,lugar
2.25,3.67,2.22,3.13,3.2,5a15,casaco
2.25,3.67,2.22,3.13,3.2,5a15,casaco
2.25,3.67,2.22,3.13,3.2,5a15,casaco
2.25,3.67,2.22,3.13,3.2,5h7,criança
2.25,3.67,2.22,3.13,3.2,5h1,mulher
2.25,3.67,2.22,3.13,3.2,5h4,mulher
2.25,3.67,2.22,3.13,3.2,5o500,foto
2.25,3.67,2.22,3.13,3.2,5o509,objeto
2.25,3.67,2.22,3.13,3.2,5h1,senhora
2.25,3.67,2.22,3.13,3.2,5h2,menino
2.25,3.67,2.22,3.13,3.2,5h3,menino
4.13,3.22,3.11,3.5,3.4,5o501,ambiente
4.13,3.22,3.11,3.5,3.4,5o501,ambiente
4.13,3.22,3.11,3.5,3.4,5h7,pessoa
4.13,3.22,3.11,3.5,3.4,5o501,lugar
4.25,3.67,4.67,2.5,3.5,5h6,família
4.25,3.67,4.67,2.5,3.5,5h7,criança
4.25,3.67,4.67,2.5,3.5,5h7,pessoa
4.25,3.67,4.67,2.5,3.5,5a2,idade
4.63,3.56,3.44,3.38,3.6,5o500,imagem
4.63,3.56,3.44,3.38,3.6,5h7,pessoa
4.63,3.56,3.44,3.38,3.6,5h7,pessoa
4.63,3.56,3.44,3.38,3.6,5h7,pessoa
4.63,3.56,3.44,3.38,3.6,5h7,pessoa
4.63,3.56,3.44,3.38,3.6,5h1,senhora
4.63,3.56,3.44,3.38,3.6,5a2,idade
4.63,3.56,3.44,3.38,3.6,5h2,menino
4.63,3.56,3.44,3.38,3.6,5h2,menino
4.63,3.56,3.44,3.38,3.6,5h3,menino
4.63,3.56,3.44,3.38,3.6,5h3,menino
4.63,3.56,3.44,3.38,3.6,5a19,calça
4.63,3.56,3.44,3.38,3.6,5a21,tênis
4.63,3.56,3.44,3.38,3.6,5a21,tênis
4.63,3.56,3.44,3.38,3.6,5h1,mulher
4.63,3.56,3.44,3.38,3.6,5h4,mulher
4.63,3.56,3.44,3.38,3.6,5h7,criança
4.63,3.56,3.44,3.38,3.6,5a15,jaqueta
4.63,3.56,3.44,3.38,3.6,5a19,jeans
4.63,3.56,3.44,3.38,3.6,5o501,local
4.13,3.78,3.78,1.88,3.4,5o500,imagem
4.13,3.78,3.78,1.88,3.4,5o500,imagem
4.13,3.78,3.78,1.88,3.4,5h6,grupo
4.13,3.78,3.78,1.88,3.4,5h7,pessoa
4.13,3.78,3.78,1.88,3.4,5h7,criança
4.0,3.56,3.33,4.75,3.2,5h7,pessoa
4.0,3.56,3.33,4.75,3.2,5h7,pessoa
4.0,3.56,3.33,4.75,3.2,5h7,pessoa
4.0,3.56,3.33,4.75,3.2,5o500,imagem
4.0,3.56,3.33,4.75,3.2,5h1,senhora
4.0,3.56,3.33,4.75,3.2,5h1,senhora
4.0,3.56,3.33,4.75,3.2,5a2,idade
4.0,3.56,3.33,4.75,3.2,5h2,menino
4.0,3.56,3.33,4.75,3.2,5h2,menino
4.0,3.56,3.33,4.75,3.2,5h3,menino
4.0,3.56,3.33,4.75,3.2,5h3,menino
4.0,3.56,3.33,4.75,3.2,5o507,banco
4.0,3.56,3.33,4.75,3.2,5h1,mulher
4.0,3.56,3.33,4.75,3.2,5h4,mulher
4.0,3.56,3.33,4.75,3.2,5h6,fila
4.0,3.56,3.33,4.75,3.2,5a14,roupa
4.0,3.56,3.33,4.75,3.2,5o501,local
1.75,3.0,3.89,4.75,3.0,5o500,foto
1.75,3.0,3.89,4.75,3.0,5h7,pessoa
1.75,3.0,3.89,4.75,3.0,5h7,pessoa
1.75,3.0,3.89,4.75,3.0,5o507,banco
1.75,3.0,3.89,4.75,3.0,5h1,senhora
1.75,3.0,3.89,4.75,3.0,5a15,casaco
1.75,3.0,3.89,4.75,3.0,5a31,lenço
1.75,3.0,3.89,4.75,3.0,5h2,rapaz
1.75,3.0,3.89,4.75,3.0,5h3,rapaz
1.75,3.0,3.89,4.75,3.0,5a22,blusa
1.75,3.0,3.89,4.75,3.0,5a22,blusa
1.75,3.0,3.89,4.75,3.0,5o509,objeto
1.75,3.0,3.89,4.75,3.0,5h4,moça
1.75,3.0,3.89,4.75,3.0,5h7,criança
1.75,3.0,3.89,4.75,3.0,5h7,criança
1.75,3.0,3.89,4.75,3.0,5h2,menino
1.75,3.0,3.89,4.75,3.0,5h3,menino
1.75,3.0,3.89,4.75,3.0,5a15,agasalho
1.75,3.0,3.89,4.75,3.0,5a19,calça
1.75,3.0,3.89,4.75,3.0,5a21,tênis
3.0,3.67,4.22,3.25,3.7,5h1,senhora
3.0,3.67,4.22,3.25,3.7,5a15,casaco
3.0,3.67,4.22,3.25,3.7,5a15,casaco
3.0,3.67,4.22,3.25,3.7,5a15,casaco
3.0,3.67,4.22,3.25,3.7,5a15,casaco
3.0,3.67,4.22,3.25,3.7,5a22,blusa
3.0,3.67,4.22,3.25,3.7,5a22,blusa
3.0,3.67,4.22,3.25,3.7,5a22,blusa
3.0,3.67,4.22,3.25,3.7,5a22,blusa
3.0,3.67,4.22,3.25,3.7,5a31,cachecol
3.0,3.67,4.22,3.25,3.7,5a22,moletom
3.0,3.67,4.22,3.25,3.7,5a22,moletom
3.0,3.67,4.22,3.25,3.7,5a21,tênis
3.0,3.67,4.22,3.25,3.7,5a21,tênis
3.0,3.67,4.22,3.25,3.7,5a21,tênis
3.0,3.67,4.22,3.25,3.7,5a21,tênis
3.0,3.67,4.22,3.25,3.7,5o509,objeto
3.0,3.67,4.22,3.25,3.7,5h2,menino
3.0,3.67,4.22,3.25,3.7,5h3,menino
3.0,3.67,4.22,3.25,3.7,5h7,filho
3.0,3.67,4.22,3.25,3.7,5h7,filho
3.0,3.67,4.22,3.25,3.7,5a19,calça
3.0,3.67,4.22,3.25,3.7,5h7,pessoa
3.5,3.78,2.67,3.63,4.3,5h1,senhora
3.5,3.78,2.67,3.63,4.3,5a15,casaco
3.5,3.78,2.67,3.63,4.3,5a15,casaco
3.5,3.78,2.67,3.63,4.3,5a31,cachecol
3.5,3.78,2.67,3.63,4.3,5h7,criança
3.5,3.78,2.67,3.63,4.3,5a19,calça
3.5,3.78,2.67,3.63,4.3,5a21,tênis
2.88,2.11,4.56,5.0,4.8,5h7,criança
2.88,2.11,4.56,5.0,4.8,5h1,mulher
2.88,2.11,4.56,5.0,4.8,5h4,mulher
2.88,2.11,4.56,5.0,4.8,5h5,bebê
3.38,3.56,2.78,4.13,4.0,5h7,criança
3.38,3.56,2.78,4.13,4.0,5h1,senhora
3.38,3.56,2.78,4.13,4.0,5h1,senhora
3.38,3.56,2.78,4.13,4.0,5h2,garoto
3.38,3.56,2.78,4.13,4.0,5h3,garoto
3.38,3.56,2.78,4.13,4.0,5o500,foto
4.13,4.11,3.33,2.75,3.8,5o500,imagem
4.13,4.11,3.33,2.75,3.8,5o500,imagem
4.13,4.11,3.33,2.75,3.8,5o507,banco
4.13,4.11,3.33,2.75,3.8,5o507,banco
4.13,4.11,3.33,2.75,3.8,5h1,senhora
4.13,4.11,3.33,2.75,3.8,5a2,idade
4.13,4.11,3.33,2.75,3.8,5h2,rapaz
4.13,4.11,3.33,2.75,3.8,5h3,rapaz
4.13,4.11,3.33,2.75,3.8,5a22,blusa
4.13,4.11,3.33,2.75,3.8,5a22,blusa
4.13,4.11,3.33,2.75,3.8,5a19,calça
4.13,4.11,3.33,2.75,3.8,5a19,calça
4.13,4.11,3.33,2.75,3.8,5a19,jeans
4.13,4.11,3.33,2.75,3.8,5a19,jeans
4.13,4.11,3.33,2.75,3.8,5a21,tênis
4.13,4.11,3.33,2.75,3.8,5a21,tênis
4.13,4.11,3.33,2.75,3.8,5h1,mulher
4.13,4.11,3.33,2.75,3.8,5h4,mulher
4.13,4.11,3.33,2.75,3.8,5h7,criança
4.13,4.11,3.33,2.75,3.8,5h2,menino
4.13,4.11,3.33,2.75,3.8,5h3,menino
4.13,4.11,3.33,2.75,3.8,5h7,pessoa
4.13,4.11,3.33,2.75,3.8,5o500,cena
3.88,4.89,2.89,1.75,3.7,5h6,grupo
3.88,4.89,2.89,1.75,3.7,5h7,pessoa
3.88,4.89,2.89,1.75,3.7,5h7,pessoa
3.88,4.89,2.89,1.75,3.7,5o500,imagem
3.88,4.89,2.89,1.75,3.7,5o500,imagem
3.88,4.89,2.89,1.75,3.7,5h1,senhora
3.88,4.89,2.89,1.75,3.7,5h1,senhora
3.88,4.89,2.89,1.75,3.7,5h7,criança
3.88,4.89,2.89,1.75,3.7,5h7,criança
3.88,4.89,2.89,1.75,3.7,5h7,criança
2.88,3.44,3.0,2.13,3.7,5h6,grupo
2.88,3.44,3.0,2.13,3.7,5h1,mulher
2.88,3.44,3.0,2.13,3.7,5h4,mulher
2.88,3.44,3.0,2.13,3.7,5h7,criança
2.88,3.44,3.0,2.13,3.7,5a14,roupa
2.88,3.44,3.0,2.13,3.7,5h7,pessoa
2.88,3.44,3.0,2.13,3.7,5h7,pessoa
2.88,3.44,3.0,2.13,3.7,5o500,foto
2.88,3.44,3.0,2.13,3.7,5o500,foto
2.88,3.44,3.0,2.13,3.7,5h1,senhora
4.0,3.89,3.78,2.25,3.9,5h7,pessoa
4.0,3.89,3.78,2.25,3.9,5h7,pessoa
4.0,3.89,3.78,2.25,3.9,5o501,local
4.0,3.89,3.78,2.25,3.9,5o501,local
4.0,3.89,3.78,2.25,3.9,5a22,blusa
4.0,3.89,3.78,2.25,3.9,5h7,criança
4.0,3.89,3.78,2.25,3.9,5h4,moça
3.25,3.11,4.0,2.88,4.1,5h1,senhora
3.25,3.11,4.0,2.88,4.1,5h1,senhora
3.25,3.11,4.0,2.88,4.1,5a15,casaco
3.25,3.11,4.0,2.88,4.1,5a31,lenço
3.25,3.11,4.0,2.88,4.1,5a26,cara
3.25,3.11,4.0,2.88,4.1,5a26,cara
3.25,3.11,4.0,2.88,4.1,5h7,criança
3.25,3.11,4.0,2.88,4.1,5h2,menino
3.25,3.11,4.0,2.88,4.1,5h3,menino
3.25,3.11,4.0,2.88,4.1,5a15,jaqueta
3.25,3.11,4.0,2.88,4.1,5a21,tênis
4.13,3.44,2.67,1.88,3.6,5h6,fila
4.13,3.44,2.67,1.88,3.6,5h7,criança
4.13,3.44,2.67,1.88,3.6,5h5,bebê
4.13,3.44,2.67,1.88,3.6,5h2,menino
4.13,3.44,2.67,1.88,3.6,5h3,menino
4.13,3.44,2.67,1.88,3.6,5h1,senhora
4.13,3.44,2.67,1.88,3.6,5a22,blusa
4.0,4.44,3.44,1.5,4.0,5o500,foto
4.0,4.44,3.44,1.5,4.0,5o500,foto
4.0,4.44,3.44,1.5,4.0,5h6,família
4.0,4.44,3.44,1.5,4.0,5h7,pessoa
4.0,4.44,3.44,1.5,4.0,5h7,pessoa
4.0,4.44,3.44,1.5,4.0,5o507,banco
4.0,4.44,3.44,1.5,4.0,5h1,senhora
4.0,4.44,3.44,1.5,4.0,5a31,lenço
4.0,4.44,3.44,1.5,4.0,5h2,menino
4.0,4.44,3.44,1.5,4.0,5h2,menino
4.0,4.44,3.44,1.5,4.0,5h3,menino
4.0,4.44,3.44,1.5,4.0,5h3,menino
4.0,4.44,3.44,1.5,4.0,5h4,moça
4.0,4.44,3.44,1.5,4.0,5a22,blusa
4.0,4.44,3.44,1.5,4.0,5a26,rosto
4.0,4.44,3.44,1.5,4.0,5a15,jaqueta
4.0,4.78,3.56,1.38,3.6,5o501,lugar
4.0,4.78,3.56,1.38,3.6,5h7,criança
4.0,4.78,3.56,1.38,3.6,5h7,criança
4.0,4.78,3.56,1.38,3.6,5h7,criança
4.0,4.78,3.56,1.38,3.6,5h1,adulto
4.0,4.78,3.56,1.38,3.6,5h1,adulto
4.0,4.78,3.56,1.38,3.6,5h4,adulto
4.0,4.78,3.56,1.38,3.6,5h4,adulto
4.0,4.78,3.56,1.38,3.6,5a2,idade
4.0,4.78,3.56,1.38,3.6,5o509,objeto
4.0,4.78,3.56,1.38,3.6,5o500,foto
4.75,4.56,4.33,3.88,3.9,5h7,criança
4.75,4.56,4.33,3.88,3.9,5h5,bebê
4.75,4.56,4.33,3.88,3.9,5h1,mulher
4.75,4.56,4.33,3.88,3.9,5h4,mulher
4.75,4.56,4.33,3.88,3.9,5h7,pessoa
4.75,4.56,4.33,3.88,3.9,5h7,pessoa
4.75,4.56,4.33,3.88,3.9,5o501,ambiente
4.75,4.56,4.33,3.88,3.9,5o501,ambiente
4.75,4.56,4.33,3.88,3.9,5a14,roupa
4.75,4.56,4.33,3.88,3.9,5o500,foto
2.25,3.22,3.67,3.25,3.5,5o500,imagem
2.25,3.22,3.67,3.25,3.5,5h6,grupo
2.25,3.22,3.67,3.25,3.5,5h7,pessoa
2.25,3.22,3.67,3.25,3.5,5h1,senhora
2.25,3.22,3.67,3.25,3.5,5a31,lenço
2.25,3.22,3.67,3.25,3.5,5h7,criança
2.25,3.22,3.67,3.25,3.5,5h7,criança
2.25,3.22,3.67,3.25,3.5,5h7,criança
2.25,3.22,3.67,3.25,3.5,5h7,criança
2.25,3.22,3.67,3.25,3.5,5h6,família
3.63,3.56,2.33,4.13,3.6,5o500,imagem
3.63,3.56,2.33,4.13,3.6,5h6,grupo
3.63,3.56,2.33,4.13,3.6,5h7,pessoa
3.63,3.56,2.33,4.13,3.6,5h1,senhora
3.63,3.56,2.33,4.13,3.6,5a2,idade
3.63,3.56,2.33,4.13,3.6,5a15,casaco
3.63,3.56,2.33,4.13,3.6,5a15,casaco
3.63,3.56,2.33,4.13,3.6,5a15,casaco
3.63,3.56,2.33,4.13,3.6,5a15,casaco
3.63,3.56,2.33,4.13,3.6,5a31,lenço
3.63,3.56,2.33,4.13,3.6,5h2,menino
3.63,3.56,2.33,4.13,3.6,5h2,menino
3.63,3.56,2.33,4.13,3.6,5h3,menino
3.63,3.56,2.33,4.13,3.6,5h3,menino
3.63,3.56,2.33,4.13,3.6,5a19,calça
3.63,3.56,2.33,4.13,3.6,5a19,calça
3.63,3.56,2.33,4.13,3.6,5h4,moça
3.63,3.56,2.33,4.13,3.6,5h7,criança
3.63,3.56,2.33,4.13,3.6,5a21,tênis
3.25,3.33,4.44,2.5,3.5,5h7,pessoa
3.25,3.33,4.44,2.5,3.5,5h7,pessoa
3.25,3.33,4.44,2.5,3.5,5h1,senhora
3.25,3.33,4.44,2.5,3.5,5a22,blusa
3.25,3.33,4.44,2.5,3.5,5a22,blusa
3.25,3.33,4.44,2.5,3.5,5h2,menino
3.25,3.33,4.44,2.5,3.5,5h2,menino
3.25,3.33,4.44,2.5,3.5,5h3,menino
3.25,3.33,4.44,2.5,3.5,5h3,menino
3.25,3.33,4.44,2.5,3.5,5a21,tênis
3.25,3.33,4.44,2.5,3.5,5a21,tênis
3.25,3.33,4.44,2.5,3.5,5a19,jeans
3.25,3.33,4.44,2.5,3.5,5a14,roupa
2.25,3.44,2.22,4.25,3.5,5h1,senhora
2.25,3.44,2.22,4.25,3.5,5h1,senhora
2.25,3.44,2.22,4.25,3.5,5o500,imagem
2.25,3.44,2.22,4.25,3.5,5o500,imagem
2.25,3.44,2.22,4.25,3.5,5h1,adulto
2.25,3.44,2.22,4.25,3.5,5h4,adulto
2.25,3.44,2.22,4.25,3.5,5h7,criança
2.25,3.44,2.22,4.25,3.5,5h7,criança
2.25,3.44,2.22,4.25,3.5,5a14,roupa
3.88,3.78,4.33,3.0,4.4,5h1,senhora
3.88,3.78,4.33,3.0,4.4,5a15,casaco
3.88,3.78,4.33,3.0,4.4,5h2,menino
3.88,3.78,4.33,3.0,4.4,5h3,menino
3.88,3.78,4.33,3.0,4.4,5o500,foto
2.0,2.67,1.78,3.5,4.2,5h7,pessoa
2.0,2.67,1.78,3.5,4.2,5h1,senhora
2.0,2.67,1.78,3.5,4.2,5a14,roupa
2.0,2.67,1.78,3.5,4.2,5h2,garoto
2.0,2.67,1.78,3.5,4.2,5h2,garoto
2.0,2.67,1.78,3.5,4.2,5h3,garoto
2.0,2.67,1.78,3.5,4.2,5h3,garoto
2.0,2.67,1.78,3.5,4.2,5h5,bebê
2.0,2.67,1.78,3.5,4.2,5h7,criança
2.25,3.78,3.56,3.63,3.7,5o501,local
2.25,3.78,3.56,3.63,3.7,5o501,local
2.25,3.78,3.56,3.63,3.7,5h7,pessoa
2.25,3.78,3.56,3.63,3.7,5a2,idade
2.25,3.78,3.56,3.63,3.7,5h7,criança
2.25,3.78,3.56,3.63,3.7,5h1,senhora
2.25,3.78,3.56,3.63,3.7,5a14,roupa
3.25,3.0,3.0,3.25,3.9,5o500,cena
3.25,3.0,3.0,3.25,3.9,5o500,cena
3.25,3.0,3.0,3.25,3.9,5h7,pessoa
3.25,3.0,3.0,3.25,3.9,5h7,pessoa
3.25,3.0,3.0,3.25,3.9,5h1,senhora
3.25,3.0,3.0,3.25,3.9,5a15,casaco
3.25,3.0,3.0,3.25,3.9,5a15,casaco
3.25,3.0,3.0,3.25,3.9,5a31,lenço
3.25,3.0,3.0,3.25,3.9,5o507,banco
3.25,3.0,3.0,3.25,3.9,5o507,banco
3.25,3.0,3.0,3.25,3.9,5h2,rapaz
3.25,3.0,3.0,3.25,3.9,5h3,rapaz
3.25,3.0,3.0,3.25,3.9,5a21,tênis
3.25,3.0,3.0,3.25,3.9,5a21,tênis
3.25,3.0,3.0,3.25,3.9,5a19,calça
3.25,3.0,3.0,3.25,3.9,5a19,calça
3.25,3.0,3.0,3.25,3.9,5a19,calça
3.25,3.0,3.0,3.25,3.9,5a22,blusa
3.25,3.0,3.0,3.25,3.9,5a22,blusa
3.25,3.0,3.0,3.25,3.9,5a22,blusa
3.25,3.0,3.0,3.25,3.9,5a26,rosto
3.25,3.0,3.0,3.25,3.9,5a26,rosto
3.25,3.0,3.0,3.25,3.9,5h1,mulher
3.25,3.0,3.0,3.25,3.9,5h1,mulher
3.25,3.0,3.0,3.25,3.9,5h4,mulher
3.25,3.0,3.0,3.25,3.9,5h4,mulher
3.25,3.0,3.0,3.25,3.9,5h7,criança
3.25,3.0,3.0,3.25,3.9,5h7,criança
3.25,3.0,3.0,3.25,3.9,5h2,menino
3.25,3.0,3.0,3.25,3.9,5h3,menino
1.75,3.89,3.0,2.38,3.7,5o500,imagem
1.75,3.89,3.0,2.38,3.7,5h2,menino
1.75,3.89,3.0,2.38,3.7,5h2,menino
1.75,3.89,3.0,2.38,3.7,5h3,menino
1.75,3.89,3.0,2.38,3.7,5h3,menino
1.75,3.89,3.0,2.38,3.7,5a14,roupa
1.75,3.89,3.0,2.38,3.7,5a19,calça
1.75,3.89,3.0,2.38,3.7,5a15,jaqueta
1.75,3.89,3.0,2.38,3.7,5o512,cimento
1.75,3.89,3.0,2.38,3.7,5h1,senhora
1.75,3.89,3.0,2.38,3.7,5h1,senhora
1.75,3.89,3.0,2.38,3.7,5h5,bebê
1.75,3.89,3.0,2.38,3.7,5a31,lenço
1.75,3.89,3.0,2.38,3.7,5h7,pessoa
2.0,3.11,2.22,1.88,2.7,5h7,pessoa
2.0,3.11,2.22,1.88,2.7,5h7,pessoa
2.0,3.11,2.22,1.88,2.7,5h7,pessoa
2.0,3.11,2.22,1.88,2.7,5h7,pessoa
2.0,3.11,2.22,1.88,2.7,5h7,pessoa
2.0,3.11,2.22,1.88,2.7,5h7,criança
2.0,3.11,2.22,1.88,2.7,5h7,criança
2.0,3.11,2.22,1.88,2.7,5h2,menino
2.0,3.11,2.22,1.88,2.7,5h2,menino
2.0,3.11,2.22,1.88,2.7,5h2,menino
2.0,3.11,2.22,1.88,2.7,5h2,menino
2.0,3.11,2.22,1.88,2.7,5h3,menino
2.0,3.11,2.22,1.88,2.7,5h3,menino
2.0,3.11,2.22,1.88,2.7,5h3,menino
2.0,3.11,2.22,1.88,2.7,5h3,menino
2.0,3.11,2.22,1.88,2.7,5o507,banco
2.0,3.11,2.22,1.88,2.7,5a15,jaqueta
2.0,3.11,2.22,1.88,2.7,5a15,jaqueta
2.0,3.11,2.22,1.88,2.7,5a15,jaqueta
2.0,3.11,2.22,1.88,2.7,5a15,jaqueta
2.0,3.11,2.22,1.88,2.7,5a19,calça
2.0,3.11,2.22,1.88,2.7,5a19,calça
2.0,3.11,2.22,1.88,2.7,5a19,calça
2.0,3.11,2.22,1.88,2.7,5a21,tênis
2.0,3.11,2.22,1.88,2.7,5a21,tênis
2.0,3.11,2.22,1.88,2.7,5h1,senhora
2.0,3.11,2.22,1.88,2.7,5h1,senhora
2.0,3.11,2.22,1.88,2.7,5h1,mulher
2.0,3.11,2.22,1.88,2.7,5h4,mulher
2.0,3.11,2.22,1.88,2.7,5h5,bebê
2.0,3.11,2.22,1.88,2.7,5h5,bebê
2.0,3.11,2.22,1.88,2.7,5h5,bebê
2.0,3.11,2.22,1.88,2.7,5a15,sobretudo
2.0,3.11,2.22,1.88,2.7,5a31,cachecol
2.0,3.11,2.22,1.88,2.7,5h4,moça
3.25,4.11,3.44,3.38,4.3,5h1,senhora
3.25,4.11,3.44,3.38,4.3,5h1,senhora
3.25,4.11,3.44,3.38,4.3,5h7,criança
3.25,4.11,3.44,3.38,4.3,5o500,foto
3.25,4.11,3.44,3.38,4.3,5o500,foto
3.25,4.11,3.44,3.38,4.3,5h1,mulher
3.25,4.11,3.44,3.38,4.3,5h4,mulher
3.25,4.11,3.44,3.38,4.3,5a15,casaco
3.5,3.44,3.56,4.13,3.2,5h7,pessoa
3.5,3.44,3.56,4.13,3.2,5h1,senhora
3.5,3.44,3.56,4.13,3.2,5a31,cachecol
3.5,3.44,3.56,4.13,3.2,5h2,menino
3.5,3.44,3.56,4.13,3.2,5h2,menino
3.5,3.44,3.56,4.13,3.2,5h3,menino
3.5,3.44,3.56,4.13,3.2,5h3,menino
3.5,3.44,3.56,4.13,3.2,5h2,menina
3.5,3.44,3.56,4.13,3.2,5h4,menina
3.5,3.44,3.56,4.13,3.2,5h7,criança
3.5,3.44,3.56,4.13,3.2,5h7,criança
3.5,3.44,3.56,4.13,3.2,5a15,casaco
3.5,3.44,3.56,4.13,3.2,5a2,idade
4.63,3.56,2.67,3.5,2.8,5h7,pessoa
4.63,3.56,2.67,3.5,2.8,5h7,pessoa
4.63,3.56,2.67,3.5,2.8,5h1,senhora
4.63,3.56,2.67,3.5,2.8,5o500,foto
4.63,3.56,2.67,3.5,2.8,5h2,menino
4.63,3.56,2.67,3.5,2.8,5h3,menino
4.63,3.56,2.67,3.5,2.8,5o516,sala
2.88,3.44,3.78,3.13,4.6,5o500,foto
2.88,3.44,3.78,3.13,4.6,5h7,pessoa
2.88,3.44,3.78,3.13,4.6,5h7,pessoa
2.88,3.44,3.78,3.13,4.6,5h7,pessoa
2.88,3.44,3.78,3.13,4.6,5a2,idade
2.88,3.44,3.78,3.13,4.6,5a2,idade
2.88,3.44,3.78,3.13,4.6,5h6,fileira
2.88,3.44,3.78,3.13,4.6,5o507,cadeira
2.88,3.44,3.78,3.13,4.6,5o507,cadeira
2.88,3.44,3.78,3.13,4.6,5h1,senhora
2.88,3.44,3.78,3.13,4.6,5h1,senhora
2.88,3.44,3.78,3.13,4.6,5a31,lenço
2.88,3.44,3.78,3.13,4.6,5h2,garoto
2.88,3.44,3.78,3.13,4.6,5h3,garoto
2.88,3.44,3.78,3.13,4.6,5a15,jaqueta
2.88,3.44,3.78,3.13,4.6,5h1,mulher
2.88,3.44,3.78,3.13,4.6,5h4,mulher
2.88,3.44,3.78,3.13,4.6,5a26,rosto
3.38,3.0,3.56,2.25,4.0,5h1,senhora
3.38,3.0,3.56,2.25,4.0,5h1,senhora
3.38,3.0,3.56,2.25,4.0,5h7,pessoa
3.38,3.0,3.56,2.25,4.0,5h7,pessoa
3.38,3.0,3.56,2.25,4.0,5h7,criança
3.38,3.0,3.56,2.25,4.0,5h7,criança
3.38,3.0,3.56,2.25,4.0,5o501,local
2.63,4.11,3.56,3.0,3.5,5o500,imagem
2.63,4.11,3.56,3.0,3.5,5h1,senhora
2.63,4.11,3.56,3.0,3.5,5a15,agasalho
2.63,4.11,3.56,3.0,3.5,5a15,agasalho
2.63,4.11,3.56,3.0,3.5,5h2,menino
2.63,4.11,3.56,3.0,3.5,5h2,menino
2.63,4.11,3.56,3.0,3.5,5h3,menino
2.63,4.11,3.56,3.0,3.5,5h3,menino
2.63,4.11,3.56,3.0,3.5,5a22,blusa
2.75,3.78,2.33,3.38,3.3,5o500,cena
2.75,3.78,2.33,3.38,3.3,5h7,pessoa
2.75,3.78,2.33,3.38,3.3,5h1,senhora
2.75,3.78,2.33,3.38,3.3,5h1,senhora
2.75,3.78,2.33,3.38,3.3,5a15,casaco
2.75,3.78,2.33,3.38,3.3,5h2,garoto
2.75,3.78,2.33,3.38,3.3,5h3,garoto
2.75,3.78,2.33,3.38,3.3,5h2,menino
2.75,3.78,2.33,3.38,3.3,5h3,menino
4.13,4.22,4.22,1.88,3.6,5o500,imagem
4.13,4.22,4.22,1.88,3.6,5o500,imagem
4.13,4.22,4.22,1.88,3.6,5h1,adulto
4.13,4.22,4.22,1.88,3.6,5h4,adulto
4.13,4.22,4.22,1.88,3.6,5h7,criança
4.13,4.22,4.22,1.88,3.6,5o501,local
3.25,3.11,2.44,1.63,2.4,5o500,imagem
3.25,3.11,2.44,1.63,2.4,5h6,grupo
3.25,3.11,2.44,1.63,2.4,5h7,pessoa
3.25,3.11,2.44,1.63,2.4,5h6,fila
3.25,3.11,2.44,1.63,2.4,5h7,criança
3.25,3.11,2.44,1.63,2.4,5h7,criança
3.13,3.89,3.89,2.63,3.6,5o500,foto
3.13,3.89,3.89,2.63,3.6,5a31,lenço
3.13,3.89,3.89,2.63,3.6,5h7,criança
3.13,3.89,3.89,2.63,3.6,5h7,criança
3.13,3.89,3.89,2.63,3.6,5a19,calça
3.13,3.89,3.89,2.63,3.6,5a19,calça
3.13,3.89,3.89,2.63,3.6,5a19,jeans
3.13,3.89,3.89,2.63,3.6,5a19,jeans
3.13,3.89,3.89,2.63,3.6,5a22,blusa
3.13,3.89,3.89,2.63,3.6,5a15,casaco
3.13,3.89,3.89,2.63,3.6,5a15,casaco
4.25,4.11,1.56,3.75,3.7,5h7,pessoa
4.25,4.11,1.56,3.75,3.7,5h7,pessoa
4.25,4.11,1.56,3.75,3.7,5o501,lugar
4.25,4.11,1.56,3.75,3.7,5h1,senhora
4.25,4.11,1.56,3.75,3.7,5h1,senhora
4.25,4.11,1.56,3.75,3.7,5o500,foto
4.25,4.11,1.56,3.75,3.7,5o500,foto
4.25,4.11,1.56,3.75,3.7,5a31,lenço
4.25,4.11,1.56,3.75,3.7,5a14,roupa
4.25,4.11,1.56,3.75,3.7,5a14,roupa
4.25,4.11,1.56,3.75,3.7,5h2,garoto
4.25,4.11,1.56,3.75,3.7,5h3,garoto
4.25,4.11,1.56,3.75,3.7,5o500,imagem
4.25,4.11,1.56,3.75,3.7,5h4,moça
4.25,4.11,1.56,3.75,3.7,5h7,criança
2.63,3.22,4.0,2.13,3.7,5h7,pessoa
2.63,3.22,4.0,2.13,3.7,5h7,pessoa
2.63,3.22,4.0,2.13,3.7,5o501,local
2.63,3.22,4.0,2.13,3.7,5a2,idade
2.63,3.22,4.0,2.13,3.7,5h7,criança
2.63,3.22,4.0,2.13,3.7,5a21,tênis
2.63,3.22,4.0,2.13,3.7,5o509,coisa
3.25,3.33,3.0,2.63,3.9,5o500,imagem
3.25,3.33,3.0,2.63,3.9,5h7,pessoa
3.25,3.33,3.0,2.63,3.9,5h7,pessoa
3.25,3.33,3.0,2.63,3.9,5o507,banco
3.25,3.33,3.0,2.63,3.9,5o507,banco
3.25,3.33,3.0,2.63,3.9,5h7,criança
3.25,3.33,3.0,2.63,3.9,5h7,criança
3.25,3.33,3.0,2.63,3.9,5h1,adulto
3.25,3.33,3.0,2.63,3.9,5h4,adulto
3.25,3.33,3.0,2.63,3.9,5o500,foto
3.25,3.33,3.0,2.63,3.9,5h1,senhora
3.25,3.33,3.0,2.63,3.9,5a15,casaco
3.25,3.33,3.0,2.63,3.9,5a15,casaco
3.25,3.33,3.0,2.63,3.9,5a15,casaco
3.25,3.33,3.0,2.63,3.9,5a31,cachecol
3.25,3.33,3.0,2.63,3.9,5h2,garoto
3.25,3.33,3.0,2.63,3.9,5h3,garoto
3.25,3.33,3.0,2.63,3.9,5h2,menina
3.25,3.33,3.0,2.63,3.9,5h4,menina
3.38,3.67,4.56,3.75,3.6,5h6,grupo
3.38,3.67,4.56,3.75,3.6,5h7,pessoa
3.38,3.67,4.56,3.75,3.6,5h7,pessoa
3.38,3.67,4.56,3.75,3.6,5h1,senhora
3.38,3.67,4.56,3.75,3.6,5h1,senhora
3.38,3.67,4.56,3.75,3.6,5a31,lenço
3.38,3.67,4.56,3.75,3.6,5a14,roupa
3.38,3.67,4.56,3.75,3.6,5a15,sobretudo
3.38,3.67,4.56,3.75,3.6,5o500,foto
3.38,3.67,4.56,3.75,3.6,5h2,menino
3.38,3.67,4.56,3.75,3.6,5h2,menino
3.38,3.67,4.56,3.75,3.6,5h2,menino
3.38,3.67,4.56,3.75,3.6,5h2,menino
3.38,3.67,4.56,3.75,3.6,5h3,menino
3.38,3.67,4.56,3.75,3.6,5h3,menino
3.38,3.67,4.56,3.75,3.6,5h3,menino
3.38,3.67,4.56,3.75,3.6,5h3,menino
3.38,3.67,4.56,3.75,3.6,5a21,tênis
3.38,3.67,4.56,3.75,3.6,5a21,tênis
3.38,3.67,4.56,3.75,3.6,5a21,tênis
3.38,3.67,4.56,3.75,3.6,5a19,jeans
3.38,3.67,4.56,3.75,3.6,5a19,jeans
3.38,3.67,4.56,3.75,3.6,5a15,casaco
3.38,3.67,4.56,3.75,3.6,5a15,casaco
3.38,3.67,4.56,3.75,3.6,5a15,casaco
3.38,3.67,4.56,3.75,3.6,5a15,casaco
3.38,3.67,4.56,3.75,3.6,5a15,casaco
3.38,3.67,4.56,3.75,3.6,5o507,cadeira
3.38,3.67,4.56,3.75,3.6,5o509,objeto
3.38,3.67,4.56,3.75,3.6,5h2,menina
3.38,3.67,4.56,3.75,3.6,5h4,menina
3.38,3.67,4.56,3.75,3.6,5h7,criança
3.38,3.67,4.56,3.75,3.6,5h7,criança
3.38,3.67,4.56,3.75,3.6,5a19,calça
3.38,3.67,4.56,3.75,3.6,5a19,calça
2.63,3.33,3.56,2.75,3.8,5h6,grupo
2.63,3.33,3.56,2.75,3.8,5h7,pessoa
2.63,3.33,3.56,2.75,3.8,5h7,pessoa
2.63,3.33,3.56,2.75,3.8,5h7,pessoa
2.63,3.33,3.56,2.75,3.8,5a14,roupa
2.63,3.33,3.56,2.75,3.8,5a2,idade
2.25,4.44,4.0,2.88,4.7,5h7,pessoa
2.25,4.44,4.0,2.88,4.7,5h7,pessoa
2.25,4.44,4.0,2.88,4.7,5h7,pessoa
2.25,4.44,4.0,2.88,4.7,5h6,fila
2.25,4.44,4.0,2.88,4.7,5a14,vestimenta
2.25,4.44,4.0,2.88,4.7,5h7,criança
2.25,4.44,4.0,2.88,4.7,5h2,menino
2.25,4.44,4.0,2.88,4.7,5h3,menino
2.13,4.44,3.89,2.13,4.0,5o500,foto
2.13,4.44,3.89,2.13,4.0,5h7,criança
2.13,4.44,3.89,2.13,4.0,5h7,criança
2.13,4.44,3.89,2.13,4.0,5h7,criança
2.13,4.44,3.89,2.13,4.0,5h7,pessoa
2.13,4.44,3.89,2.13,4.0,5h6,fila
2.13,4.44,3.89,2.13,4.0,5o501,lugar
2.13,4.44,3.89,2.13,4.0,5o512,concreto
1.63,4.33,4.0,2.5,4.1,5h7,pessoa
1.63,4.33,4.0,2.5,4.1,5o512,cimento
1.63,4.33,4.0,2.5,4.1,5h7,criança
1.63,4.33,4.0,2.5,4.1,5a14,roupa
1.63,4.33,4.0,2.5,4.1,5o500,foto
3.75,4.22,4.44,1.38,4.5,5o500,imagem
3.75,4.22,4.44,1.38,4.5,5o500,imagem
3.75,4.22,4.44,1.38,4.5,5o500,imagem
3.75,4.22,4.44,1.38,4.5,5o500,imagem
3.75,4.22,4.44,1.38,4.5,5h7,pessoa
3.75,4.22,4.44,1.38,4.5,5h7,pessoa
3.75,4.22,4.44,1.38,4.5,5a15,jaqueta
3.75,4.22,4.44,1.38,4.5,5a15,jaqueta
3.75,4.22,4.44,1.38,4.5,5a15,jaqueta
3.75,4.22,4.44,1.38,4.5,5h2,garoto
3.75,4.22,4.44,1.38,4.5,5h2,garoto
3.75,4.22,4.44,1.38,4.5,5h3,garoto
3.75,4.22,4.44,1.38,4.5,5h3,garoto
3.75,4.22,4.44,1.38,4.5,5a15,agasalho
3.75,4.22,4.44,1.38,4.5,5a15,agasalho
3.75,4.22,4.44,1.38,4.5,5a19,jeans
3.75,4.22,4.44,1.38,4.5,5h1,mulher
3.75,4.22,4.44,1.38,4.5,5h4,mulher
3.75,4.22,4.44,1.38,4.5,5h7,criança
3.75,4.22,4.44,1.38,4.5,5a19,calça
3.75,4.22,4.44,1.38,4.5,5a21,tênis
2.88,3.44,2.56,2.13,4.1,5h1,senhora
2.88,3.44,2.56,2.13,4.1,5a14,roupa
2.88,3.44,2.56,2.13,4.1,5a14,roupa
2.88,3.44,2.56,2.13,4.1,5h2,garoto
2.88,3.44,2.56,2.13,4.1,5h2,garoto
2.88,3.44,2.56,2.13,4.1,5h2,garoto
2.88,3.44,2.56,2.13,4.1,5h2,garoto
2.88,3.44,2.56,2.13,4.1,5h3,garoto
2.88,3.44,2.56,2.13,4.1,5h3,garoto
2.88,3.44,2.56,2.13,4.1,5h3,garoto
2.88,3.44,2.56,2.13,4.1,5h3,garoto
2.88,3.44,2.56,2.13,4.1,5a22,moletom
2.88,3.44,2.56,2.13,4.1,5a22,moletom
2.88,3.44,2.56,2.13,4.1,5a19,jeans
2.88,3.44,2.56,2.13,4.1,5a19,jeans
2.88,3.44,2.56,2.13,4.1,5a21,tênis
2.88,3.44,2.56,2.13,4.1,5a21,tênis
2.88,3.44,2.56,2.13,4.1,5h2,menina
2.88,3.44,2.56,2.13,4.1,5h4,menina
2.88,3.44,2.56,2.13,4.1,5h7,criança
2.88,3.44,2.56,2.13,4.1,5h7,criança
2.88,3.44,2.56,2.13,4.1,5a15,agasalho
2.88,3.44,2.56,2.13,4.1,5a15,agasalho
2.88,3.44,2.56,2.13,4.1,5h7,pessoa
3.88,3.33,3.44,2.5,3.8,5o500,imagem
3.88,3.33,3.44,2.5,3.8,5h7,criança
3.88,3.33,3.44,2.5,3.8,5h7,criança
3.88,3.33,3.44,2.5,3.8,5h1,senhora
3.88,3.33,3.44,2.5,3.8,5h2,garoto
3.88,3.33,3.44,2.5,3.8,5h3,garoto
3.88,3.33,3.44,2.5,3.8,5h4,moça
3.88,3.33,3.44,2.5,3.8,5h7,pessoa
3.88,3.33,3.44,2.5,3.8,5o500,foto
3.88,3.33,3.44,2.5,3.8,5a14,roupa
2.13,3.56,2.89,2.25,3.5,5o512,concreto
2.13,3.56,2.89,2.25,3.5,5o501,local
2.13,3.56,2.89,2.25,3.5,5h7,pessoa
2.13,3.56,2.89,2.25,3.5,5h7,pessoa
2.13,3.56,2.89,2.25,3.5,5h7,pessoa
2.13,3.56,2.89,2.25,3.5,5h6,fila
2.13,3.56,2.89,2.25,3.5,5h6,fila
2.13,3.56,2.89,2.25,3.5,5h1,senhora
2.13,3.56,2.89,2.25,3.5,5h1,senhora
2.13,3.56,2.89,2.25,3.5,5h7,criança
2.13,3.56,2.89,2.25,3.5,5a2,idade
2.13,3.56,2.89,2.25,3.5,5h2,garoto
2.13,3.56,2.89,2.25,3.5,5h2,garoto
2.13,3.56,2.89,2.25,3.5,5h3,garoto
2.13,3.56,2.89,2.25,3.5,5h3,garoto
2.13,3.56,2.89,2.25,3.5,5a14,roupa
2.13,3.56,2.89,2.25,3.5,5o501,ambiente
4.63,4.33,4.0,1.75,4.1,5o501,lugar
4.63,4.33,4.0,1.75,4.1,5h1,senhora
4.63,4.33,4.0,1.75,4.1,5a19,calça
4.63,4.33,4.0,1.75,4.1,5a19,calça
4.63,4.33,4.0,1.75,4.1,5h1,mulher
4.63,4.33,4.0,1.75,4.1,5h4,mulher
4.63,4.33,4.0,1.75,4.1,5a15,casaco
4.63,4.33,4.0,1.75,4.1,5a15,casaco
4.63,4.33,4.0,1.75,4.1,5a15,casaco
4.63,4.33,4.0,1.75,4.1,5h7,criança
4.63,4.33,4.0,1.75,4.1,5h7,pessoa
4.63,4.33,4.0,1.75,4.1,5h2,garoto
4.63,4.33,4.0,1.75,4.1,5h3,garoto
4.63,4.33,4.0,1.75,4.1,5a21,tênis
2.25,3.78,3.0,2.38,4.0,5h1,senhora
2.25,3.78,3.0,2.38,4.0,5h1,senhora
2.25,3.78,3.0,2.38,4.0,5a31,lenço
2.25,3.78,3.0,2.38,4.0,5h2,garoto
2.25,3.78,3.0,2.38,4.0,5h2,garoto
2.25,3.78,3.0,2.38,4.0,5h3,garoto
2.25,3.78,3.0,2.38,4.0,5h3,garoto
2.25,3.78,3.0,2.38,4.0,5a26,cara
2.25,3.78,3.0,2.38,4.0,5a15,casaco
2.25,3.78,3.0,2.38,4.0,5a15,casaco
2.25,3.78,3.0,2.38,4.0,5a15,casaco
2.25,3.78,3.0,2.38,4.0,5h1,mulher
2.25,3.78,3.0,2.38,4.0,5h4,mulher
2.25,3.78,3.0,2.38,4.0,5h7,criança
2.5,4.33,4.33,2.25,3.9,5h6,grupo
2.5,4.33,4.33,2.25,3.9,5h7,pessoa
2.5,4.33,4.33,2.25,3.9,5h6,fila
2.5,4.33,4.33,2.25,3.9,5h6,fila
2.5,4.33,4.33,2.25,3.9,5h7,criança
2.5,4.33,4.33,2.25,3.9,5a2,idade
2.5,4.33,4.33,2.25,3.9,5a15,casaco
3.5,2.78,3.33,3.38,4.1,5o500,imagem
3.5,2.78,3.33,3.38,4.1,5h7,pessoa
3.5,2.78,3.33,3.38,4.1,5o516,sala
3.5,2.78,3.33,3.38,4.1,5h7,criança
3.5,2.78,3.33,3.38,4.1,5a15,agasalho
3.5,2.78,3.33,3.38,4.1,5o500,foto
2.88,3.89,3.78,1.5,4.0,5h1,senhora
2.88,3.89,3.78,1.5,4.0,5a31,cachecol
2.75,3.0,4.11,2.63,4.0,5h1,senhora
2.75,3.0,4.11,2.63,4.0,5a14,roupa
2.75,3.0,4.11,2.63,4.0,5o500,foto
2.75,3.0,4.11,2.63,4.0,5h7,pessoa
2.75,3.0,4.11,2.63,4.0,5h2,garoto
2.75,3.0,4.11,2.63,4.0,5h3,garoto
2.75,3.0,4.11,2.63,4.0,5a19,calça
2.75,3.0,4.11,2.63,4.0,5a22,blusa
4.25,4.0,3.67,3.13,3.6,5o500,foto
4.25,4.0,3.67,3.13,3.6,5h7,criança
4.25,4.0,3.67,3.13,3.6,5a14,vestimenta
1.38,3.56,3.22,1.5,3.25,5h1,mulher
1.38,3.56,3.22,1.5,3.25,5h1,mulher
1.38,3.56,3.22,1.5,3.25,5h4,mulher
1.38,3.56,3.22,1.5,3.25,5h4,mulher
1.38,3.56,3.22,1.5,3.25,5a14,roupa
1.38,3.56,3.22,1.5,3.25,5a14,roupa
1.38,3.56,3.22,1.5,3.25,5h2,menino
1.38,3.56,3.22,1.5,3.25,5h2,menino
1.38,3.56,3.22,1.5,3.25,5h3,menino
1.38,3.56,3.22,1.5,3.25,5h3,menino
2.13,4.0,1.78,3.25,4.3,5o500,imagem
2.13,4.0,1.78,3.25,4.3,5o500,imagem
2.13,4.0,1.78,3.25,4.3,5h7,pessoa
2.13,4.0,1.78,3.25,4.3,5h7,criança
2.13,4.0,1.78,3.25,4.3,5h1,senhora
2.13,4.0,1.78,3.25,4.3,5a15,casaco
2.13,4.0,1.78,3.25,4.3,5a31,lenço
2.13,4.0,1.78,3.25,4.3,5a15,agasalho
4.38,4.0,3.22,1.5,4.5,5o500,foto
4.38,4.0,3.22,1.5,4.5,5h7,pessoa
4.38,4.0,3.22,1.5,4.5,5h1,senhora
4.38,4.0,3.22,1.5,4.5,5h7,criança
4.38,4.0,3.22,1.5,4.5,5h5,bebê
2.63,3.44,2.67,2.25,3.6,5h1,mulher
2.63,3.44,2.67,2.25,3.6,5h1,mulher
2.63,3.44,2.67,2.25,3.6,5h1,mulher
2.63,3.44,2.67,2.25,3.6,5h4,mulher
2.63,3.44,2.67,2.25,3.6,5h4,mulher
2.63,3.44,2.67,2.25,3.6,5h4,mulher
2.63,3.44,2.67,2.25,3.6,5h2,garoto
2.63,3.44,2.67,2.25,3.6,5h2,garoto
2.63,3.44,2.67,2.25,3.6,5h3,garoto
2.63,3.44,2.67,2.25,3.6,5h3,garoto
2.63,3.44,2.67,2.25,3.6,5h7,criança
2.63,3.44,2.67,2.25,3.6,5h7,pessoa
3.13,3.33,3.0,3.25,3.2,5h7,pessoa
3.13,3.33,3.0,3.25,3.2,5h7,pessoa
3.13,3.33,3.0,3.25,3.2,5h2,garoto
3.13,3.33,3.0,3.25,3.2,5h2,garoto
3.13,3.33,3.0,3.25,3.2,5h3,garoto
3.13,3.33,3.0,3.25,3.2,5h3,garoto
3.13,3.33,3.0,3.25,3.2,5a15,jaqueta
3.13,3.33,3.0,3.25,3.2,5a15,jaqueta
3.13,3.33,3.0,3.25,3.2,5a15,jaqueta
3.13,3.33,3.0,3.25,3.2,5a19,calça
3.13,3.33,3.0,3.25,3.2,5a21,tênis
3.13,3.33,3.0,3.25,3.2,5h1,senhora
3.13,3.33,3.0,3.25,3.2,5a15,casaco
3.13,3.33,3.0,3.25,3.2,5a31,cachecol
3.13,3.33,3.0,3.25,3.2,5h4,moça
3.13,3.33,3.0,3.25,3.2,5h7,criança
3.13,3.33,3.0,3.25,3.2,5h7,criança
3.13,3.33,3.0,3.25,3.2,5a22,blusa
3.0,3.67,4.78,3.38,3.8,5h7,pessoa
3.0,3.67,4.78,3.38,3.8,5o500,foto
3.0,3.67,4.78,3.38,3.8,5h1,senhora
3.0,3.67,4.78,3.38,3.8,5a15,casaco
3.0,3.67,4.78,3.38,3.8,5a15,casaco
3.0,3.67,4.78,3.38,3.8,5a31,lenço
3.0,3.67,4.78,3.38,3.8,5h2,menino
3.0,3.67,4.78,3.38,3.8,5h3,menino
3.0,3.67,4.78,3.38,3.8,5a22,blusa
3.0,3.67,4.78,3.38,3.8,5h1,mulher
3.0,3.67,4.78,3.38,3.8,5h4,mulher
3.0,3.67,4.78,3.38,3.8,5h7,criança
3.0,3.67,4.78,3.38,3.8,5h7,criança
3.0,4.11,3.33,2.0,4.2,5o501,local
3.0,4.11,3.33,2.0,4.2,5h7,pessoa
3.0,4.11,3.33,2.0,4.2,5h7,pessoa
3.0,4.11,3.33,2.0,4.2,5h7,pessoa
3.0,4.11,3.33,2.0,4.2,5h7,criança
3.0,4.11,3.33,2.0,4.2,5h7,criança
3.0,4.11,3.33,2.0,4.2,5o509,coisa
3.0,4.11,3.33,2.0,4.2,5o500,foto
3.0,4.11,3.33,2.0,4.2,5o500,foto
3.0,4.11,3.33,2.0,4.2,5a14,roupa
3.0,4.11,3.33,2.0,4.2,5a14,roupa
4.5,3.22,4.33,4.63,3.6,5h1,senhora
4.5,3.22,4.33,4.63,3.6,5a15,sobretudo
4.5,3.22,4.33,4.63,3.6,5a31,lenço
4.5,3.22,4.33,4.63,3.6,5h7,pessoa
4.5,3.22,4.33,4.63,3.6,5h7,pessoa
4.5,3.22,4.33,4.63,3.6,5h2,garoto
4.5,3.22,4.33,4.63,3.6,5h2,garoto
4.5,3.22,4.33,4.63,3.6,5h2,garoto
4.5,3.22,4.33,4.63,3.6,5h3,garoto
4.5,3.22,4.33,4.63,3.6,5h3,garoto
4.5,3.22,4.33,4.63,3.6,5h3,garoto
4.5,3.22,4.33,4.63,3.6,5h1,mulher
4.5,3.22,4.33,4.63,3.6,5h1,mulher
4.5,3.22,4.33,4.63,3.6,5h4,mulher
4.5,3.22,4.33,4.63,3.6,5h4,mulher
4.5,3.22,4.33,4.63,3.6,5a15,casaco
4.5,3.22,4.33,4.63,3.6,5a15,casaco
4.5,3.22,4.33,4.63,3.6,5h7,criança
4.5,3.22,4.33,4.63,3.6,5a15,jaqueta
4.5,3.22,4.33,4.63,3.6,5a15,jaqueta
4.5,3.22,4.33,4.63,3.6,5a15,jaqueta
4.5,3.22,4.33,4.63,3.6,5a26,rosto
4.5,3.22,4.33,4.63,3.6,5o501,local
4.5,3.22,4.33,4.63,3.6,5o501,lugar
3.75,4.0,4.56,2.38,4.4,5h7,pessoa
3.75,4.0,4.56,2.38,4.4,5o501,ambiente
3.75,4.0,4.56,2.38,4.4,5o501,local
3.75,4.0,4.56,2.38,4.4,5h7,criança
3.75,4.0,4.56,2.38,4.4,5o500,imagem
3.75,4.0,4.56,2.38,4.4,5h1,mulher
3.75,4.0,4.56,2.38,4.4,5h4,mulher
2.13,3.0,2.56,3.75,3.7,5h7,pessoa
2.13,3.0,2.56,3.75,3.7,5h2,garoto
2.13,3.0,2.56,3.75,3.7,5h2,garoto
2.13,3.0,2.56,3.75,3.7,5h2,garoto
2.13,3.0,2.56,3.75,3.7,5h3,garoto
2.13,3.0,2.56,3.75,3.7,5h3,garoto
2.13,3.0,2.56,3.75,3.7,5h3,garoto
2.13,3.0,2.56,3.75,3.7,5h1,senhora
2.13,3.0,2.56,3.75,3.7,5h1,senhora
2.13,3.0,2.56,3.75,3.7,5o501,lugar
2.13,3.0,2.56,3.75,3.7,5h1,adulto
2.13,3.0,2.56,3.75,3.7,5h4,adulto
1.88,3.11,2.44,3.63,4.3,5o500,imagem
1.88,3.11,2.44,3.63,4.3,5h1,senhora
1.88,3.11,2.44,3.63,4.3,5h7,criança
1.88,3.11,2.44,3.63,4.3,5h7,pessoa
1.88,3.11,2.44,3.63,4.3,5h7,pessoa
1.88,3.11,2.44,3.63,4.3,5h7,pessoa
1.88,3.11,2.44,3.63,4.3,5h7,pessoa
1.88,3.11,2.44,3.63,4.3,5o500,foto
3.63,3.44,3.11,2.63,3.5,5h6,família
3.63,3.44,3.11,2.63,3.5,5h1,senhora
3.63,3.44,3.11,2.63,3.5,5a15,casaco
3.63,3.44,3.11,2.63,3.5,5h7,criança
3.63,3.44,3.11,2.63,3.5,5a15,jaqueta
3.63,3.44,3.11,2.63,3.5,5h2,menino
3.63,3.44,3.11,2.63,3.5,5h3,menino
3.75,3.89,3.33,2.38,3.9,5h1,senhora
3.75,3.89,3.33,2.38,3.9,5h1,senhora
3.75,3.89,3.33,2.38,3.9,5h7,criança
3.75,3.89,3.33,2.38,3.9,5h7,criança
3.75,3.89,3.33,2.38,3.9,5o500,foto
3.75,3.89,3.33,2.38,3.9,5h4,moça
3.25,3.33,2.78,3.13,3.8,5h6,fileira
3.25,3.33,2.78,3.13,3.8,5h6,fileira
3.25,3.33,2.78,3.13,3.8,5h6,fileira
3.25,3.33,2.78,3.13,3.8,5h7,pessoa
3.25,3.33,2.78,3.13,3.8,5h7,pessoa
3.25,3.33,2.78,3.13,3.8,5h7,pessoa
3.25,3.33,2.78,3.13,3.8,5h7,pessoa
3.25,3.33,2.78,3.13,3.8,5h7,pessoa
3.25,3.33,2.78,3.13,3.8,5h7,pessoa
3.25,3.33,2.78,3.13,3.8,5o500,foto
3.25,3.33,2.78,3.13,3.8,5o500,foto
3.25,3.33,2.78,3.13,3.8,5o500,foto
3.25,3.33,2.78,3.13,3.8,5o500,foto
3.25,3.33,2.78,3.13,3.8,5a26,rosto
3.25,3.33,2.78,3.13,3.8,5h2,menino
3.25,3.33,2.78,3.13,3.8,5h2,menino
3.25,3.33,2.78,3.13,3.8,5h2,menino
3.25,3.33,2.78,3.13,3.8,5h3,menino
3.25,3.33,2.78,3.13,3.8,5h3,menino
3.25,3.33,2.78,3.13,3.8,5h3,menino
3.25,3.33,2.78,3.13,3.8,5a15,casaco
3.25,3.33,2.78,3.13,3.8,5a15,casaco
3.25,3.33,2.78,3.13,3.8,5a19,calça
3.25,3.33,2.78,3.13,3.8,5a19,jeans
3.25,3.33,2.78,3.13,3.8,5h1,senhora
3.25,3.33,2.78,3.13,3.8,5a14,vestimenta
3.25,3.33,2.78,3.13,3.8,5h1,mulher
3.25,3.33,2.78,3.13,3.8,5h4,mulher
1.75,3.56,2.78,2.5,4.3,5o500,cena
1.75,3.56,2.78,2.5,4.3,5h1,senhora
1.75,3.56,2.78,2.5,4.3,5a31,lenço
1.75,3.56,2.78,2.5,4.3,5h2,menino
1.75,3.56,2.78,2.5,4.3,5h2,menino
1.75,3.56,2.78,2.5,4.3,5h3,menino
1.75,3.56,2.78,2.5,4.3,5h3,menino
1.75,3.56,2.78,2.5,4.3,5a19,calça
1.75,3.56,2.78,2.5,4.3,5a22,blusa
1.75,3.56,2.78,2.5,4.3,5h7,pessoa
3.75,3.44,2.78,3.25,3.9,5h7,pessoa
3.75,3.44,2.78,3.25,3.9,5h7,pessoa
3.75,3.44,2.78,3.25,3.9,5h7,pessoa
3.75,3.44,2.78,3.25,3.9,5h7,pessoa
3.75,3.44,2.78,3.25,3.9,5a14,roupa
3.38,4.89,4.78,2.13,4.6,5h7,criança
3.38,4.89,4.78,2.13,4.6,5h1,senhora
3.38,4.89,4.78,2.13,4.6,5o516,sala
3.38,4.89,4.78,2.13,4.6,5h7,pessoa
3.38,4.89,4.78,2.13,4.6,5a14,roupa
3.38,4.89,4.78,2.13,4.6,5a22,blusa
3.38,4.89,4.78,2.13,4.6,5a31,cachecol
3.38,4.89,4.78,2.13,4.6,5a21,tênis
2.88,3.44,4.0,4.63,3.1,5o500,foto
2.88,3.44,4.0,4.63,3.1,5o500,foto
2.88,3.44,4.0,4.63,3.1,5h6,família
2.88,3.44,4.0,4.63,3.1,5h6,família
2.88,3.44,4.0,4.63,3.1,5h7,criança
2.88,3.44,4.0,4.63,3.1,5h7,pessoa
4.88,4.33,3.78,1.75,4.0,5h2,garoto
4.88,4.33,3.78,1.75,4.0,5h2,garoto
4.88,4.33,3.78,1.75,4.0,5h2,garoto
4.88,4.33,3.78,1.75,4.0,5h3,garoto
4.88,4.33,3.78,1.75,4.0,5h3,garoto
4.88,4.33,3.78,1.75,4.0,5h3,garoto
4.88,4.33,3.78,1.75,4.0,5h1,senhora
4.88,4.33,3.78,1.75,4.0,5h1,senhora
4.88,4.33,3.78,1.75,4.0,5h1,mulher
4.88,4.33,3.78,1.75,4.0,5h1,mulher
4.88,4.33,3.78,1.75,4.0,5h4,mulher
4.88,4.33,3.78,1.75,4.0,5h4,mulher
4.88,4.33,3.78,1.75,4.0,5h7,criança
4.88,4.33,3.78,1.75,4.0,5h7,criança
4.88,4.33,3.78,1.75,4.0,5a15,casaco
4.88,4.33,3.78,1.75,4.0,5a19,calça
4.88,4.33,3.78,1.75,4.0,5a21,tênis
4.88,4.33,3.78,1.75,4.0,5a14,vestimenta
4.88,4.33,3.78,1.75,4.0,5a14,roupa
4.88,4.33,3.78,1.75,4.0,5a31,cachecol
3.88,4.33,4.78,2.25,3.3,5h1,senhora
3.88,4.33,4.78,2.25,3.3,5h1,senhora
3.88,4.33,4.78,2.25,3.3,5h2,menino
3.88,4.33,4.78,2.25,3.3,5h2,menino
3.88,4.33,4.78,2.25,3.3,5h2,menino
3.88,4.33,4.78,2.25,3.3,5h3,menino
3.88,4.33,4.78,2.25,3.3,5h3,menino
3.88,4.33,4.78,2.25,3.3,5h3,menino
3.88,4.33,4.78,2.25,3.3,5o507,banco
3.88,4.33,4.78,2.25,3.3,5h1,mulher
3.88,4.33,4.78,2.25,3.3,5h4,mulher
3.75,3.67,2.56,3.13,3.8,5h1,senhora
3.75,3.67,2.56,3.13,3.8,5a31,lenço
3.75,3.67,2.56,3.13,3.8,5a31,cachecol
3.75,3.67,2.56,3.13,3.8,5h2,garoto
3.75,3.67,2.56,3.13,3.8,5h2,garoto
3.75,3.67,2.56,3.13,3.8,5h3,garoto
3.75,3.67,2.56,3.13,3.8,5h3,garoto
3.75,3.67,2.56,3.13,3.8,5h7,criança
3.75,3.67,2.56,3.13,3.8,5a15,casaco
3.75,3.67,2.56,3.13,3.8,5a19,jeans
3.75,3.67,2.56,3.13,3.8,5a21,tênis
3.75,3.67,2.56,3.13,3.8,5o500,imagem
3.75,3.67,2.56,3.13,3.8,5h7,pessoa
3.63,3.22,3.22,2.38,3.4,5h6,família
3.63,3.22,3.22,2.38,3.4,5h6,grupo
3.63,3.22,3.22,2.38,3.4,5h7,pessoa
3.63,3.22,3.22,2.38,3.4,5h7,criança
2.63,3.33,3.0,3.75,3.2,5h6,grupo
2.63,3.33,3.0,3.75,3.2,5h7,pessoa
2.63,3.33,3.0,3.75,3.2,5h7,pessoa
2.63,3.33,3.0,3.75,3.2,5o516,sala
2.63,3.33,3.0,3.75,3.2,5o507,cadeira
2.63,3.33,3.0,3.75,3.2,5h1,senhora
2.63,3.33,3.0,3.75,3.2,5a31,cachecol
2.63,3.33,3.0,3.75,3.2,5h2,garoto
2.63,3.33,3.0,3.75,3.2,5h2,garoto
2.63,3.33,3.0,3.75,3.2,5h2,garoto
2.63,3.33,3.0,3.75,3.2,5h3,garoto
2.63,3.33,3.0,3.75,3.2,5h3,garoto
2.63,3.33,3.0,3.75,3.2,5h3,garoto
2.63,3.33,3.0,3.75,3.2,5h1,mulher
2.63,3.33,3.0,3.75,3.2,5h4,mulher
2.63,3.33,3.0,3.75,3.2,5h7,criança
4.25,4.22,3.67,2.63,4.5,5o500,imagem
4.25,4.22,3.67,2.63,4.5,5h7,pessoa
4.25,4.22,3.67,2.63,4.5,5o500,foto
4.38,3.78,3.56,3.0,4.0,5h7,pessoa
4.38,3.78,3.56,3.0,4.0,5h7,pessoa
4.38,3.78,3.56,3.0,4.0,5h1,senhora
4.38,3.78,3.56,3.0,4.0,5a15,casaco
4.38,3.78,3.56,3.0,4.0,5a15,casaco
4.38,3.78,3.56,3.0,4.0,5a31,cachecol
4.38,3.78,3.56,3.0,4.0,5h1,mulher
4.38,3.78,3.56,3.0,4.0,5h4,mulher
4.38,3.78,3.56,3.0,4.0,5h7,criança
4.38,3.78,3.56,3.0,4.0,5h7,criança
4.38,3.11,3.67,2.75,3.7,5h7,pessoa
4.38,3.11,3.67,2.75,3.7,5o501,local
4.38,3.11,3.67,2.75,3.7,5o500,imagem
4.38,3.11,3.67,2.75,3.7,5h2,menino
4.38,3.11,3.67,2.75,3.7,5h3,menino
4.38,3.11,3.67,2.75,3.7,5o501,lugar
4.38,3.11,3.67,2.75,3.7,5h1,senhora
4.38,3.11,3.67,2.75,3.7,5h4,moça
2.25,3.78,2.67,3.0,3.4,5o500,imagem
2.25,3.78,2.67,3.0,3.4,5h7,pessoa
2.25,3.78,2.67,3.0,3.4,5h7,pessoa
2.25,3.78,2.67,3.0,3.4,5h1,senhora
2.25,3.78,2.67,3.0,3.4,5a31,cachecol
2.25,3.78,2.67,3.0,3.4,5h2,garoto
2.25,3.78,2.67,3.0,3.4,5h3,garoto
2.25,3.78,2.67,3.0,3.4,5a15,casaco
2.25,3.78,2.67,3.0,3.4,5a15,casaco
2.25,3.78,2.67,3.0,3.4,5a15,casaco
2.25,3.78,2.67,3.0,3.4,5a19,jeans
2.25,3.78,2.67,3.0,3.4,5a19,jeans
2.25,3.78,2.67,3.0,3.4,5a21,tênis
2.25,3.78,2.67,3.0,3.4,5a21,tênis
2.25,3.78,2.67,3.0,3.4,5a21,tênis
2.25,3.78,2.67,3.0,3.4,5h2,menina
2.25,3.78,2.67,3.0,3.4,5h4,menina
2.25,3.78,2.67,3.0,3.4,5a22,blusa
2.25,3.78,2.67,3.0,3.4,5a22,blusa
2.25,3.78,2.67,3.0,3.4,5h7,criança
2.25,3.78,2.67,3.0,3.4,5a19,calça
2.25,3.78,2.67,3.0,3.4,5h2,menino
2.25,3.78,2.67,3.0,3.4,5h3,menino
2.25,3.78,2.67,3.0,3.4,5a26,rosto
3.38,4.44,3.44,3.0,3.6,5h1,senhora
3.38,4.44,3.44,3.0,3.6,5a14,roupa
3.38,4.44,3.44,3.0,3.6,5h2,menino
3.38,4.44,3.44,3.0,3.6,5h2,menino
3.38,4.44,3.44,3.0,3.6,5h3,menino
3.38,4.44,3.44,3.0,3.6,5h3,menino
3.38,4.44,3.44,3.0,3.6,5h7,pessoa
3.38,4.44,3.44,3.0,3.6,5h7,pessoa
3.38,4.44,3.44,3.0,3.6,5h1,mulher
3.38,4.44,3.44,3.0,3.6,5h4,mulher
3.38,4.44,3.44,3.0,3.6,5h5,bebê
3.38,4.44,3.44,3.0,3.6,5o500,foto
3.25,3.89,2.67,3.13,3.6,5h7,pessoa
3.25,3.89,2.67,3.13,3.6,5h7,pessoa
3.25,3.89,2.67,3.13,3.6,5a14,roupa
3.25,3.89,2.67,3.13,3.6,5h1,senhora
3.25,3.89,2.67,3.13,3.6,5h1,senhora
3.25,3.89,2.67,3.13,3.6,5h7,criança
3.25,3.89,2.67,3.13,3.6,5h7,criança
3.25,3.89,2.67,3.13,3.6,5h1,mulher
3.25,3.89,2.67,3.13,3.6,5h4,mulher
4.13,3.33,3.0,3.88,3.9,5o500,foto
4.13,3.33,3.0,3.88,3.9,5h7,criança
4.13,3.33,3.0,3.88,3.9,5h5,bebê
4.13,3.33,3.0,3.88,3.9,5h1,mulher
4.13,3.33,3.0,3.88,3.9,5h4,mulher
4.13,3.33,3.0,3.88,3.9,5h1,senhora
4.13,3.33,3.0,3.88,3.9,5a14,roupa
4.13,3.33,3.0,3.88,3.9,5h6,fila
4.13,3.33,3.0,3.88,3.9,5o509,coisa
3.75,4.11,3.33,3.88,4.9,5o516,sala
3.75,4.11,3.33,3.88,4.9,5h7,pessoa
3.75,4.11,3.33,3.88,4.9,5o501,lugar
3.75,4.11,3.33,3.88,4.9,5o500,cena
3.75,4.11,3.33,3.88,4.9,5a31,lenço
3.75,4.11,3.33,3.88,4.9,5a15,casaco
3.75,4.11,3.33,3.88,4.9,5a15,casaco
3.75,4.11,3.33,3.88,4.9,5a15,casaco
3.75,4.11,3.33,3.88,4.9,5h2,garoto
3.75,4.11,3.33,3.88,4.9,5h2,garoto
3.75,4.11,3.33,3.88,4.9,5h3,garoto
3.75,4.11,3.33,3.88,4.9,5h3,garoto
3.75,4.11,3.33,3.88,4.9,5a19,jeans
3.75,4.11,3.33,3.88,4.9,5a19,jeans
3.75,4.11,3.33,3.88,4.9,5a21,tênis
3.75,4.11,3.33,3.88,4.9,5a21,tênis
1.13,3.33,2.89,4.25,2.8,5h6,grupo
1.13,3.33,2.89,4.25,2.8,5h7,pessoa
1.13,3.33,2.89,4.25,2.8,5h7,pessoa
1.13,3.33,2.89,4.25,2.8,5a15,casaco
1.13,3.33,2.89,4.25,2.8,5a15,casaco
1.13,3.33,2.89,4.25,2.8,5h2,menino
1.13,3.33,2.89,4.25,2.8,5h3,menino
1.13,3.33,2.89,4.25,2.8,5h7,filho
1.13,3.33,2.89,4.25,2.8,5h7,criança
1.13,3.33,2.89,4.25,2.8,5o509,coisa
2.63,3.11,3.89,2.5,3.3,5o500,cena
2.63,3.11,3.89,2.5,3.3,5h7,pessoa
2.63,3.11,3.89,2.5,3.3,5h6,fila
2.63,3.11,3.89,2.5,3.3,5h6,fila
2.63,3.11,3.89,2.5,3.3,5o501,local
2.63,3.11,3.89,2.5,3.3,5o501,ambiente
2.63,3.11,3.89,2.5,3.3,5h1,senhora
2.63,3.11,3.89,2.5,3.3,5h7,criança
2.63,3.11,3.89,2.5,3.3,5a2,idade
3.0,2.56,2.67,2.88,2.5,5o500,imagem
3.0,2.56,2.67,2.88,2.5,5o500,imagem
3.0,2.56,2.67,2.88,2.5,5h7,pessoa
3.0,2.56,2.67,2.88,2.5,5h7,pessoa
3.0,2.56,2.67,2.88,2.5,5h7,pessoa
3.0,2.56,2.67,2.88,2.5,5a26,rosto
3.0,2.56,2.67,2.88,2.5,5h1,senhora
3.0,2.56,2.67,2.88,2.5,5h1,senhora
3.0,2.56,2.67,2.88,2.5,5h2,menino
3.0,2.56,2.67,2.88,2.5,5h2,menino
3.0,2.56,2.67,2.88,2.5,5h3,menino
3.0,2.56,2.67,2.88,2.5,5h3,menino
3.0,2.56,2.67,2.88,2.5,5h7,criança
3.0,2.56,2.67,2.88,2.5,5h1,mulher
3.0,2.56,2.67,2.88,2.5,5h4,mulher
3.0,2.56,2.67,2.88,2.5,5o500,foto
3.0,2.56,2.67,2.88,2.5,5a14,roupa
3.63,3.78,2.89,4.13,3.3,5h7,pessoa
3.63,3.78,2.89,4.13,3.3,5h7,pessoa
3.63,3.78,2.89,4.13,3.3,5o501,lugar
3.63,3.78,2.89,4.13,3.3,5o501,lugar
3.63,3.78,2.89,4.13,3.3,5o500,imagem
3.63,3.78,2.89,4.13,3.3,5h7,criança
3.63,3.78,2.89,4.13,3.3,5h7,criança
3.63,3.78,2.89,4.13,3.3,5h1,senhora
3.63,3.78,2.89,4.13,3.3,5h7,filho
4.63,3.44,3.11,4.25,4.4,5h6,família
4.63,3.44,3.11,4.25,4.4,5h7,pessoa
4.63,3.44,3.11,4.25,4.4,5o501,local
4.63,3.44,3.11,4.25,4.4,5h7,criança
4.63,3.44,3.11,4.25,4.4,5o512,cimento
3.88,4.33,4.0,3.5,3.9,5o501,local
3.88,4.33,4.0,3.5,3.9,5h6,fila
3.88,4.33,4.0,3.5,3.9,5h7,pessoa
3.88,4.33,4.0,3.5,3.9,5o507,cadeira
3.88,4.33,4.0,3.5,3.9,5a15,agasalho
3.88,4.33,4.0,3.5,3.9,5h1,senhora
3.88,4.33,4.0,3.5,3.9,5a31,cachecol
3.88,4.33,4.0,3.5,3.9,5h7,criança
3.88,4.33,4.0,3.5,3.9,5o501,lugar
3.88,4.33,4.0,3.5,3.9,5h1,mulher
3.88,4.33,4.0,3.5,3.9,5h4,mulher
3.75,3.44,3.11,4.13,3.7,5h6,família
3.75,3.44,3.11,4.13,3.7,5h1,mulher
3.75,3.44,3.11,4.13,3.7,5h4,mulher
3.75,3.44,3.11,4.13,3.7,5a2,idade
3.75,3.44,3.11,4.13,3.7,5h2,menino
3.75,3.44,3.11,4.13,3.7,5h2,menino
3.75,3.44,3.11,4.13,3.7,5h3,menino
3.75,3.44,3.11,4.13,3.7,5h3,menino
3.75,3.44,3.11,4.13,3.7,5h2,menina
3.75,3.44,3.11,4.13,3.7,5h4,menina
3.75,3.44,3.11,4.13,3.7,5h5,bebê
3.75,3.44,3.11,4.13,3.7,5a22,blusa
3.75,3.44,3.11,4.13,3.7,5a22,blusa
3.75,3.44,3.11,4.13,3.7,5a19,calça
3.75,3.44,3.11,4.13,3.7,5a21,tênis
3.75,3.44,3.11,4.13,3.7,5o512,cimento
3.75,3.44,3.11,4.13,3.7,5h7,pessoa
1.38,3.67,2.78,2.88,2.9,5o500,imagem
1.38,3.67,2.78,2.88,2.9,5o500,imagem
1.38,3.67,2.78,2.88,2.9,5h7,pessoa
1.38,3.67,2.78,2.88,2.9,5h7,pessoa
1.38,3.67,2.78,2.88,2.9,5a2,idade
1.38,3.67,2.78,2.88,2.9,5h1,senhora
1.38,3.67,2.78,2.88,2.9,5o500,foto
1.38,3.67,2.78,2.88,2.9,5h7,criança
1.38,3.67,2.78,2.88,2.9,5h7,criança
1.38,3.67,2.78,2.88,2.9,5h7,criança
1.38,3.67,2.78,2.88,2.9,5h7,criança
1.38,3.67,2.78,2.88,2.9,5h1,mulher
1.38,3.67,2.78,2.88,2.9,5h4,mulher
1.38,3.67,2.78,2.88,2.9,5a15,casaco
1.38,3.67,2.78,2.88,2.9,5h1,adulto
1.38,3.67,2.78,2.88,2.9,5h4,adulto
3.25,3.67,2.89,2.5,3.4,5o500,cena
3.25,3.67,2.89,2.5,3.4,5h6,grupo
3.25,3.67,2.89,2.5,3.4,5h7,pessoa
3.25,3.67,2.89,2.5,3.4,5h7,pessoa
3.25,3.67,2.89,2.5,3.4,5h2,garoto
3.25,3.67,2.89,2.5,3.4,5h2,garoto
3.25,3.67,2.89,2.5,3.4,5h3,garoto
3.25,3.67,2.89,2.5,3.4,5h3,garoto
3.25,3.67,2.89,2.5,3.4,5h1,mulher
3.25,3.67,2.89,2.5,3.4,5h1,mulher
3.25,3.67,2.89,2.5,3.4,5h4,mulher
3.25,3.67,2.89,2.5,3.4,5h4,mulher
3.25,3.67,2.89,2.5,3.4,5h7,criança
3.25,3.67,2.89,2.5,3.4,5a26,rosto
3.25,3.67,2.89,2.5,3.4,5o500,imagem
3.88,3.44,3.89,3.5,3.7,5h6,grupo
3.88,3.44,3.89,3.5,3.7,5h7,criança
3.88,3.44,3.89,3.5,3.7,5o509,coisa
3.63,3.56,2.44,4.0,4.1,5o500,imagem
3.63,3.56,2.44,4.0,4.1,5h1,senhora
3.63,3.56,2.44,4.0,4.1,5a15,sobretudo
3.63,3.56,2.44,4.0,4.1,5a31,cachecol
3.63,3.56,2.44,4.0,4.1,5o500,foto
3.63,3.56,2.44,4.0,4.1,5o500,foto
3.63,3.56,2.44,4.0,4.1,5o500,foto
3.63,3.56,2.44,4.0,4.1,5o507,cadeira
3.63,3.56,2.44,4.0,4.1,5o507,cadeira
3.63,3.56,2.44,4.0,4.1,5o507,cadeira
3.63,3.56,2.44,4.0,4.1,5h6,fila
3.63,3.56,2.44,4.0,4.1,5h6,fila
3.63,3.56,2.44,4.0,4.1,5h7,pessoa
3.63,3.56,2.44,4.0,4.1,5h7,pessoa
3.63,3.56,2.44,4.0,4.1,5h2,menino
3.63,3.56,2.44,4.0,4.1,5h2,menino
3.63,3.56,2.44,4.0,4.1,5h3,menino
3.63,3.56,2.44,4.0,4.1,5h3,menino
3.63,3.56,2.44,4.0,4.1,5h1,mulher
3.63,3.56,2.44,4.0,4.1,5h4,mulher
3.63,3.56,2.44,4.0,4.1,5h7,criança
3.63,3.56,2.44,4.0,4.1,5o512,concreto
3.63,3.56,2.44,4.0,4.1,5a14,vestimenta
3.63,3.56,2.44,4.0,4.1,5o501,ambiente
2.63,3.56,4.22,3.38,3.8,5h7,pessoa
2.63,3.56,4.22,3.38,3.8,5h7,criança
2.63,3.56,4.22,3.38,3.8,5h1,adulto
2.63,3.56,4.22,3.38,3.8,5h4,adulto
2.63,3.56,4.22,3.38,3.8,5o501,local
3.63,4.22,3.56,2.38,4.0,5h1,mulher
3.63,4.22,3.56,2.38,4.0,5h1,mulher
3.63,4.22,3.56,2.38,4.0,5h4,mulher
3.63,4.22,3.56,2.38,4.0,5h4,mulher
3.63,4.22,3.56,2.38,4.0,5o507,banco
3.63,4.22,3.56,2.38,4.0,5o500,foto
3.63,4.22,3.56,2.38,4.0,5o500,foto
3.63,4.22,3.56,2.38,4.0,5h1,senhora
3.63,4.22,3.56,2.38,4.0,5h1,senhora
3.63,4.22,3.56,2.38,4.0,5a31,cachecol
3.63,4.22,3.56,2.38,4.0,5a15,casaco
3.63,4.22,3.56,2.38,4.0,5a15,casaco
3.63,4.22,3.56,2.38,4.0,5h2,menino
3.63,4.22,3.56,2.38,4.0,5h2,menino
3.63,4.22,3.56,2.38,4.0,5h3,menino
3.63,4.22,3.56,2.38,4.0,5h3,menino
3.63,4.22,3.56,2.38,4.0,5h5,bebê
3.63,4.22,3.56,2.38,4.0,5a19,calça
3.63,4.22,3.56,2.38,4.0,5a19,calça
3.63,4.22,3.56,2.38,4.0,5a21,tênis
3.63,4.22,3.56,2.38,4.0,5a21,tênis
3.63,4.22,3.56,2.38,4.0,5a21,tênis
3.63,4.22,3.56,2.38,4.0,5a14,vestimenta
3.63,4.22,3.56,2.38,4.0,5h2,rapaz
3.63,4.22,3.56,2.38,4.0,5h3,rapaz
3.63,4.22,3.56,2.38,4.0,5a22,blusa
3.63,4.22,3.56,2.38,4.0,5a19,jeans
3.63,4.22,3.56,2.38,4.0,5a19,jeans
3.63,4.22,3.56,2.38,4.0,5h2,garoto
3.63,4.22,3.56,2.38,4.0,5h2,garoto
3.63,4.22,3.56,2.38,4.0,5h3,garoto
3.63,4.22,3.56,2.38,4.0,5h3,garoto
3.63,4.22,3.56,2.38,4.0,5a2,idade
3.63,4.22,3.56,2.38,4.0,5a15,jaqueta
3.63,4.22,3.56,2.38,4.0,5h7,pessoa
3.63,4.22,3.56,2.38,4.0,5a14,roupa
3.63,4.22,3.56,2.38,4.0,5h6,fila
3.75,3.89,3.33,3.63,3.8,5o500,imagem
3.75,3.89,3.33,3.63,3.8,5h7,pessoa
3.75,3.89,3.33,3.63,3.8,5h7,pessoa
3.75,3.89,3.33,3.63,3.8,5h7,pessoa
3.75,3.89,3.33,3.63,3.8,5h7,pessoa
3.75,3.89,3.33,3.63,3.8,5h6,fila
3.75,3.89,3.33,3.63,3.8,5h2,menino
3.75,3.89,3.33,3.63,3.8,5h3,menino
3.75,3.89,3.33,3.63,3.8,5h1,senhora
3.75,3.89,3.33,3.63,3.8,5h7,filho
3.88,3.11,3.22,3.13,4.1,5o500,foto
3.88,3.11,3.22,3.13,4.1,5o500,foto
3.88,3.11,3.22,3.13,4.1,5o500,foto
3.88,3.11,3.22,3.13,4.1,5o500,foto
3.88,3.11,3.22,3.13,4.1,5h7,pessoa
3.88,3.11,3.22,3.13,4.1,5o501,ambiente
3.88,3.11,3.22,3.13,4.1,5h7,criança
3.88,3.11,3.22,3.13,4.1,5h7,criança
3.88,3.11,3.22,3.13,4.1,5a15,jaqueta
3.88,3.11,3.22,3.13,4.1,5a19,jeans
3.88,3.11,3.22,3.13,4.1,5a21,tênis
3.88,3.11,3.22,3.13,4.1,5h1,senhora
3.88,3.11,3.22,3.13,4.1,5a31,lenço
3.88,3.11,3.22,3.13,4.1,5a22,blusa
3.88,3.11,3.22,3.13,4.1,5h2,garoto
3.88,3.11,3.22,3.13,4.1,5h3,garoto
3.88,3.11,3.22,3.13,4.1,5h1,mulher
3.88,3.11,3.22,3.13,4.1,5h4,mulher
1.88,4.11,3.11,2.88,2.7,5o507,cadeira
1.88,4.11,3.11,2.88,2.7,5h7,pessoa
1.88,4.11,3.11,2.88,2.7,5h7,pessoa
1.88,4.11,3.11,2.88,2.7,5a2,idade
1.88,4.11,3.11,2.88,2.7,5h1,mulher
1.88,4.11,3.11,2.88,2.7,5h1,mulher
1.88,4.11,3.11,2.88,2.7,5h4,mulher
1.88,4.11,3.11,2.88,2.7,5h4,mulher
1.88,4.11,3.11,2.88,2.7,5h7,criança
1.88,4.11,3.11,2.88,2.7,5h7,criança
1.88,4.11,3.11,2.88,2.7,5h1,senhora
1.88,4.11,3.11,2.88,2.7,5a15,casaco
1.88,4.11,3.11,2.88,2.7,5a31,lenço
1.88,4.11,3.11,2.88,2.7,5o507,banco
1.88,4.11,3.11,2.88,2.7,5h2,menino
1.88,4.11,3.11,2.88,2.7,5h3,menino
2.88,4.44,3.78,1.63,4.1,5h6,grupo
2.88,4.44,3.78,1.63,4.1,5h7,pessoa
2.88,4.44,3.78,1.63,4.1,5h7,pessoa
2.88,4.44,3.78,1.63,4.1,5h7,pessoa
2.88,4.44,3.78,1.63,4.1,5a14,roupa
2.88,4.44,3.78,1.63,4.1,5a14,roupa
2.88,4.44,3.78,1.63,4.1,5a14,roupa
2.88,4.44,3.78,1.63,4.1,5o501,local
2.88,4.44,3.78,1.63,4.1,5o512,concreto
2.88,4.44,3.78,1.63,4.1,5o507,cadeira
2.88,4.44,3.78,1.63,4.1,5h1,senhora
2.88,4.44,3.78,1.63,4.1,5a31,lenço
2.88,4.44,3.78,1.63,4.1,5h2,menino
2.88,4.44,3.78,1.63,4.1,5h2,menino
2.88,4.44,3.78,1.63,4.1,5h2,menino
2.88,4.44,3.78,1.63,4.1,5h3,menino
2.88,4.44,3.78,1.63,4.1,5h3,menino
2.88,4.44,3.78,1.63,4.1,5h3,menino
2.88,4.44,3.78,1.63,4.1,5h4,moça
2.88,4.44,3.78,1.63,4.1,5a15,casaco
2.88,4.44,3.78,1.63,4.1,5a15,casaco
3.63,3.56,3.56,3.63,5.0,5o501,local
3.63,3.56,3.56,3.63,5.0,5h6,fila
3.63,3.56,3.56,3.63,5.0,5h1,senhora
3.63,3.56,3.56,3.63,5.0,5h1,senhora
3.63,3.56,3.56,3.63,5.0,5h2,garoto
3.63,3.56,3.56,3.63,5.0,5h3,garoto
3.63,3.56,3.56,3.63,5.0,5h7,filho
3.63,3.56,3.56,3.63,5.0,5h7,criança
3.63,3.56,3.56,3.63,5.0,5o500,foto
3.25,4.78,3.33,3.5,2.4,5h7,pessoa
3.25,4.78,3.33,3.5,2.4,5h7,pessoa
3.25,4.78,3.33,3.5,2.4,5o500,foto
3.25,4.78,3.33,3.5,2.4,5o500,foto
3.25,4.78,3.33,3.5,2.4,5o500,foto
3.25,4.78,3.33,3.5,2.4,5h2,garoto
3.25,4.78,3.33,3.5,2.4,5h2,garoto
3.25,4.78,3.33,3.5,2.4,5h2,garoto
3.25,4.78,3.33,3.5,2.4,5h3,garoto
3.25,4.78,3.33,3.5,2.4,5h3,garoto
3.25,4.78,3.33,3.5,2.4,5h3,garoto
3.25,4.78,3.33,3.5,2.4,5a15,casaco
3.25,4.78,3.33,3.5,2.4,5a15,casaco
3.25,4.78,3.33,3.5,2.4,5a19,calça
3.25,4.78,3.33,3.5,2.4,5h7,criança
3.25,4.78,3.33,3.5,2.4,5h1,senhora
3.25,4.78,3.33,3.5,2.4,5a15,sobretudo
3.25,4.78,3.33,3.5,2.4,5a31,lenço
3.88,3.89,3.33,2.5,4.5,5o500,imagem
3.88,3.89,3.33,2.5,4.5,5o500,imagem
3.88,3.89,3.33,2.5,4.5,5h1,mulher
3.88,3.89,3.33,2.5,4.5,5h1,mulher
3.88,3.89,3.33,2.5,4.5,5h4,mulher
3.88,3.89,3.33,2.5,4.5,5h4,mulher
3.88,3.89,3.33,2.5,4.5,5h7,criança
3.88,3.89,3.33,2.5,4.5,5a15,casaco
3.88,3.89,3.33,2.5,4.5,5a15,casaco
3.88,3.89,3.33,2.5,4.5,5h7,pessoa
3.88,3.89,3.33,2.5,4.5,5h6,fila
1.88,3.0,2.78,3.5,3.4,5o500,foto
1.88,3.0,2.78,3.5,3.4,5o500,foto
1.88,3.0,2.78,3.5,3.4,5o500,foto
1.88,3.0,2.78,3.5,3.4,5h7,pessoa
1.88,3.0,2.78,3.5,3.4,5h7,pessoa
1.88,3.0,2.78,3.5,3.4,5a2,idade
1.88,3.0,2.78,3.5,3.4,5a2,idade
1.88,3.0,2.78,3.5,3.4,5a26,rosto
1.88,3.0,2.78,3.5,3.4,5o501,local
1.88,3.0,2.78,3.5,3.4,5a14,roupa
1.88,3.0,2.78,3.5,3.4,5h1,senhora
1.88,3.0,2.78,3.5,3.4,5o507,banco
1.88,3.0,2.78,3.5,3.4,5o507,banco
1.88,3.0,2.78,3.5,3.4,5h1,mulher
1.88,3.0,2.78,3.5,3.4,5h1,mulher
1.88,3.0,2.78,3.5,3.4,5h4,mulher
1.88,3.0,2.78,3.5,3.4,5h4,mulher
1.88,3.0,2.78,3.5,3.4,5a31,cachecol
1.88,3.0,2.78,3.5,3.4,5h2,garoto
1.88,3.0,2.78,3.5,3.4,5h2,garoto
1.88,3.0,2.78,3.5,3.4,5h2,garoto
1.88,3.0,2.78,3.5,3.4,5h3,garoto
1.88,3.0,2.78,3.5,3.4,5h3,garoto
1.88,3.0,2.78,3.5,3.4,5h3,garoto
1.88,3.0,2.78,3.5,3.4,5a22,blusa
1.88,3.0,2.78,3.5,3.4,5a22,blusa
1.88,3.0,2.78,3.5,3.4,5a19,calça
1.88,3.0,2.78,3.5,3.4,5a21,tênis
1.88,3.0,2.78,3.5,3.4,5h7,criança
2.0,3.56,3.0,2.75,3.4,5o500,foto
2.0,3.56,3.0,2.75,3.4,5o500,foto
2.0,3.56,3.0,2.75,3.4,5o500,foto
2.0,3.56,3.0,2.75,3.4,5h7,pessoa
2.0,3.56,3.0,2.75,3.4,5h7,pessoa
2.0,3.56,3.0,2.75,3.4,5h7,pessoa
2.0,3.56,3.0,2.75,3.4,5h7,pessoa
2.0,3.56,3.0,2.75,3.4,5h7,pessoa
2.0,3.56,3.0,2.75,3.4,5h7,criança
2.0,3.56,3.0,2.75,3.4,5o507,cadeira
2.0,3.56,3.0,2.75,3.4,5h2,menino
2.0,3.56,3.0,2.75,3.4,5h3,menino
2.38,3.22,3.56,3.63,2.7,5h6,grupo
2.38,3.22,3.56,3.63,2.7,5h7,pessoa
2.38,3.22,3.56,3.63,2.7,5h7,pessoa
2.38,3.22,3.56,3.63,2.7,5h7,pessoa
2.38,3.22,3.56,3.63,2.7,5o507,cadeira
2.38,3.22,3.56,3.63,2.7,5a15,casaco
2.38,3.22,3.56,3.63,2.7,5a19,calça
2.38,3.22,3.56,3.63,2.7,5a31,cachecol
2.38,3.22,3.56,3.63,2.7,5a14,roupa
3.25,4.11,3.56,2.5,4.5,5h6,grupo
3.25,4.11,3.56,2.5,4.5,5h7,pessoa
3.25,4.11,3.56,2.5,4.5,5a22,blusa
3.25,4.11,3.56,2.5,4.5,5a15,casaco
4.0,4.11,3.44,3.38,3.4,5o500,imagem
4.0,4.11,3.44,3.38,3.4,5o500,imagem
4.0,4.11,3.44,3.38,3.4,5h1,senhora
4.0,4.11,3.44,3.38,3.4,5h1,senhora
4.0,4.11,3.44,3.38,3.4,5a22,blusa
4.0,4.11,3.44,3.38,3.4,5a31,cachecol
4.0,4.11,3.44,3.38,3.4,5o500,foto
4.0,4.11,3.44,3.38,3.4,5o500,foto
4.0,4.11,3.44,3.38,3.4,5h2,garoto
4.0,4.11,3.44,3.38,3.4,5h2,garoto
4.0,4.11,3.44,3.38,3.4,5h3,garoto
4.0,4.11,3.44,3.38,3.4,5h3,garoto
4.0,4.11,3.44,3.38,3.4,5a15,jaqueta
4.0,4.11,3.44,3.38,3.4,5a15,jaqueta
4.0,4.11,3.44,3.38,3.4,5a19,calça
4.0,4.11,3.44,3.38,3.4,5a19,calça
4.0,4.11,3.44,3.38,3.4,5a21,tênis
4.0,4.11,3.44,3.38,3.4,5a21,tênis
4.0,4.11,3.44,3.38,3.4,5o509,objeto
4.0,4.11,3.44,3.38,3.4,5h2,menino
4.0,4.11,3.44,3.38,3.4,5h3,menino
4.0,4.11,3.44,3.38,3.4,5a2,idade
4.0,4.11,3.44,3.38,3.4,5a14,roupa
4.0,4.11,3.44,3.38,3.4,5h1,mulher
4.0,4.11,3.44,3.38,3.4,5h4,mulher
4.0,4.11,3.44,3.38,3.4,5h7,criança
4.0,4.11,3.44,3.38,3.4,5h7,criança
4.0,4.11,3.44,3.38,3.4,5o501,ambiente
4.0,4.11,3.44,3.38,3.4,5h7,pessoa
4.0,4.11,3.44,3.38,3.4,5o501,lugar
3.88,3.44,2.78,2.5,3.3,5o500,foto
3.88,3.44,2.78,2.5,3.3,5o500,foto
3.88,3.44,2.78,2.5,3.3,5o500,foto
3.88,3.44,2.78,2.5,3.3,5h1,senhora
3.88,3.44,2.78,2.5,3.3,5h1,senhora
3.88,3.44,2.78,2.5,3.3,5o507,cadeira
3.88,3.44,2.78,2.5,3.3,5h7,pessoa
3.88,3.44,2.78,2.5,3.3,5h7,pessoa
3.88,3.44,2.78,2.5,3.3,5o501,lugar
3.88,3.44,2.78,2.5,3.3,5o501,ambiente
3.88,3.44,2.78,2.5,3.3,5o512,cimento
2.63,3.89,2.89,3.38,3.6,5o500,imagem
2.63,3.89,2.89,3.38,3.6,5h7,pessoa
2.63,3.89,2.89,3.38,3.6,5h7,pessoa
2.63,3.89,2.89,3.38,3.6,5a14,roupa
2.63,3.89,2.89,3.38,3.6,5o501,lugar
2.63,3.89,2.89,3.38,3.6,5h7,criança
2.63,3.89,2.89,3.38,3.6,5a26,rosto
2.63,3.89,2.89,3.38,3.6,5o501,ambiente
2.63,3.89,2.89,3.38,3.6,5o509,objeto
3.75,3.44,2.89,2.13,4.3,5h1,senhora
3.75,3.44,2.89,2.13,4.3,5h1,senhora
3.75,3.44,2.89,2.13,4.3,5h2,menino
3.75,3.44,2.89,2.13,4.3,5h2,menino
3.75,3.44,2.89,2.13,4.3,5h2,menino
3.75,3.44,2.89,2.13,4.3,5h2,menino
3.75,3.44,2.89,2.13,4.3,5h3,menino
3.75,3.44,2.89,2.13,4.3,5h3,menino
3.75,3.44,2.89,2.13,4.3,5h3,menino
3.75,3.44,2.89,2.13,4.3,5h3,menino
3.75,3.44,2.89,2.13,4.3,5a15,casaco
3.75,3.44,2.89,2.13,4.3,5o507,banco
3.75,3.44,2.89,2.13,4.3,5o507,banco
3.75,3.44,2.89,2.13,4.3,5o507,banco
3.75,3.44,2.89,2.13,4.3,5o509,objeto
3.75,3.44,2.89,2.13,4.3,5a15,jaqueta
3.75,3.44,2.89,2.13,4.3,5a15,jaqueta
3.75,3.44,2.89,2.13,4.3,5a21,tênis
3.75,3.44,2.89,2.13,4.3,5a21,tênis
3.75,3.44,2.89,2.13,4.3,5a19,calça
3.75,3.44,2.89,2.13,4.3,5a19,jeans
3.75,3.44,2.89,2.13,4.3,5h1,mulher
3.75,3.44,2.89,2.13,4.3,5h4,mulher
3.75,3.44,2.89,2.13,4.3,5h5,bebê
3.75,3.44,2.89,2.13,4.3,5h1,adulto
3.75,3.44,2.89,2.13,4.3,5h4,adulto
3.75,3.56,2.33,3.88,4.1,5o500,cena
3.75,3.56,2.33,3.88,4.1,5h7,pessoa
3.75,3.56,2.33,3.88,4.1,5h7,pessoa
3.75,3.56,2.33,3.88,4.1,5h2,menino
3.75,3.56,2.33,3.88,4.1,5h2,menino
3.75,3.56,2.33,3.88,4.1,5h3,menino
3.75,3.56,2.33,3.88,4.1,5h3,menino
3.75,3.56,2.33,3.88,4.1,5o500,foto
3.75,3.56,2.33,3.88,4.1,5h1,senhora
3.75,3.56,2.33,3.88,4.1,5a15,casaco
3.75,3.56,2.33,3.88,4.1,5a31,lenço
3.75,3.56,2.33,3.88,4.1,5a26,rosto
2.63,4.0,4.11,2.5,4.7,5o507,cadeira
2.63,4.0,4.11,2.5,4.7,5h1,mulher
2.63,4.0,4.11,2.5,4.7,5h4,mulher
2.63,4.0,4.11,2.5,4.7,5a14,vestimenta
2.63,4.0,4.11,2.5,4.7,5a31,lenço
2.63,4.0,4.11,2.5,4.7,5h2,menino
2.63,4.0,4.11,2.5,4.7,5h3,menino
2.63,4.0,4.11,2.5,4.7,5h7,filho
2.63,4.0,4.11,2.5,4.7,5h7,criança
2.63,4.0,4.11,2.5,4.7,5h1,adulto
2.63,4.0,4.11,2.5,4.7,5h4,adulto
2.5,4.56,3.0,2.38,2.8,5h2,garoto
2.5,4.56,3.0,2.38,2.8,5h3,garoto
2.5,4.56,3.0,2.38,2.8,5a2,idade
2.5,4.56,3.0,2.38,2.8,5a15,jaqueta
2.5,4.56,3.0,2.38,2.8,5a15,jaqueta
2.5,4.56,3.0,2.38,2.8,5a15,jaqueta
2.5,4.56,3.0,2.38,2.8,5a19,jeans
2.5,4.56,3.0,2.38,2.8,5a19,jeans
2.5,4.56,3.0,2.38,2.8,5a21,tênis
2.5,4.56,3.0,2.38,2.8,5h2,rapaz
2.5,4.56,3.0,2.38,2.8,5h3,rapaz
2.5,4.56,3.0,2.38,2.8,5h1,mulher
2.5,4.56,3.0,2.38,2.8,5h4,mulher
2.5,4.56,3.0,2.38,2.8,5h5,bebê
2.5,4.56,3.0,2.38,2.8,5h7,pessoa
3.13,3.56,3.89,3.75,3.5,5o500,imagem
3.13,3.56,3.89,3.75,3.5,5h7,pessoa
3.13,3.56,3.89,3.75,3.5,5h7,criança
3.13,3.56,3.89,3.75,3.5,5a14,roupa
3.5,4.56,2.67,1.88,3.7,5o500,imagem
3.5,4.56,2.67,1.88,3.7,5h7,criança
3.5,4.56,2.67,1.88,3.7,5h7,criança
3.5,4.56,2.67,1.88,3.7,5h1,adulto
3.5,4.56,2.67,1.88,3.7,5h4,adulto
3.5,4.56,2.67,1.88,3.7,5h1,senhora
3.5,4.56,2.67,1.88,3.7,5a14,roupa
2.38,3.11,2.67,2.5,3.8,5h6,família
2.38,3.11,2.67,2.5,3.8,5h6,família
2.38,3.11,2.67,2.5,3.8,5o501,local
2.38,3.11,2.67,2.5,3.8,5o501,local
2.38,3.11,2.67,2.5,3.8,5a15,casaco
4.88,3.89,4.33,3.25,4.4,5h7,pessoa
4.88,3.89,4.33,3.25,4.4,5h7,criança
4.88,3.89,4.33,3.25,4.4,5h7,criança
4.88,3.89,4.33,3.25,4.4,5h7,criança
4.88,3.89,4.33,3.25,4.4,5o516,sala
4.88,3.89,4.33,3.25,4.4,5h1,senhora
4.88,3.89,4.33,3.25,4.4,5h2,menino
4.88,3.89,4.33,3.25,4.4,5h2,menino
4.88,3.89,4.33,3.25,4.4,5h3,menino
4.88,3.89,4.33,3.25,4.4,5h3,menino
4.88,3.89,4.33,3.25,4.4,5h1,mulher
4.88,3.89,4.33,3.25,4.4,5h4,mulher
4.88,3.89,4.33,3.25,4.4,5o500,imagem
3.5,2.67,4.0,1.88,4.0,5h7,pessoa
3.5,2.67,4.0,1.88,4.0,5h1,mulher
3.5,2.67,4.0,1.88,4.0,5h4,mulher
3.5,2.67,4.0,1.88,4.0,5h7,criança
3.5,2.67,4.0,1.88,4.0,5h7,criança
3.5,2.67,4.0,1.88,4.0,5h7,criança
3.5,2.67,4.0,1.88,4.0,5a15,casaco
3.5,2.67,4.0,1.88,4.0,5a15,casaco
3.5,2.67,4.0,1.88,4.0,5a15,casaco
3.5,2.67,4.0,1.88,4.0,5a14,roupa
3.5,2.67,4.0,1.88,4.0,5h1,senhora
3.5,2.67,4.0,1.88,4.0,5h1,senhora
3.5,2.67,4.0,1.88,4.0,5o500,foto
3.5,2.67,4.0,1.88,4.0,5h2,garoto
3.5,2.67,4.0,1.88,4.0,5h3,garoto
4.88,3.78,2.44,3.63,4.4,5h6,grupo
4.88,3.78,2.44,3.63,4.4,5h7,pessoa
4.88,3.78,2.44,3.63,4.4,5h7,pessoa
4.88,3.78,2.44,3.63,4.4,5h7,pessoa
4.88,3.78,2.44,3.63,4.4,5h7,pessoa
4.88,3.78,2.44,3.63,4.4,5h7,pessoa
4.88,3.78,2.44,3.63,4.4,5h7,criança
4.88,3.78,2.44,3.63,4.4,5h7,criança
4.88,3.78,2.44,3.63,4.4,5o501,ambiente
4.88,3.78,2.44,3.63,4.4,5a14,roupa
3.63,3.78,3.67,3.0,4.5,5o500,imagem
3.63,3.78,3.67,3.0,4.5,5o500,imagem
3.63,3.78,3.67,3.0,4.5,5h7,pessoa
3.63,3.78,3.67,3.0,4.5,5h7,pessoa
3.63,3.78,3.67,3.0,4.5,5h7,pessoa
3.63,3.78,3.67,3.0,4.5,5a14,roupa
3.63,3.78,3.67,3.0,4.5,5a2,idade
2.38,3.33,3.67,3.88,3.3,5o500,imagem
2.38,3.33,3.67,3.88,3.3,5h7,pessoa
2.38,3.33,3.67,3.88,3.3,5h7,pessoa
2.38,3.33,3.67,3.88,3.3,5o516,sala
2.38,3.33,3.67,3.88,3.3,5o509,coisa
2.38,3.33,3.67,3.88,3.3,5a2,idade
2.38,3.33,3.67,3.88,3.3,5h7,criança
2.38,3.33,3.67,3.88,3.3,5a14,roupa
2.5,3.33,2.89,2.75,4.6,5o500,cena
2.5,3.33,2.89,2.75,4.6,5h6,grupo
2.5,3.33,2.89,2.75,4.6,5h7,pessoa
2.5,3.33,2.89,2.75,4.6,5h1,senhora
2.5,3.33,2.89,2.75,4.6,5h7,criança
2.25,3.78,2.22,1.5,3.2,5h6,grupo
2.25,3.78,2.22,1.5,3.2,5h7,pessoa
2.25,3.78,2.22,1.5,3.2,5h5,bebê
2.25,3.78,2.22,1.5,3.2,5h7,criança
2.25,3.78,2.22,1.5,3.2,5h1,mulher
2.25,3.78,2.22,1.5,3.2,5h4,mulher
2.25,3.78,2.22,1.5,3.2,5a14,roupa
2.25,3.78,2.22,1.5,3.2,5a21,tênis
3.0,4.67,4.0,2.5,3.3,5o500,imagem
3.0,4.67,4.0,2.5,3.3,5h7,pessoa
3.13,3.89,3.44,3.75,3.6,5h7,pessoa
3.13,3.89,3.44,3.75,3.6,5h7,pessoa
3.13,3.89,3.44,3.75,3.6,5h7,pessoa
3.13,3.89,3.44,3.75,3.6,5o509,coisa
3.13,3.89,3.44,3.75,3.6,5a14,roupa
3.13,3.89,3.44,3.75,3.6,5h7,filho
3.13,3.89,3.44,3.75,3.6,5h7,criança
2.88,4.56,2.78,2.38,3.3,5h6,fila
2.88,4.56,2.78,2.38,3.3,5h1,senhora
2.88,4.56,2.78,2.38,3.3,5h1,senhora
2.88,4.56,2.78,2.38,3.3,5a2,idade
2.88,4.56,2.78,2.38,3.3,5h7,criança
2.88,4.56,2.78,2.38,3.3,5h7,criança
2.88,4.56,2.78,2.38,3.3,5h4,moça
3.13,3.67,2.11,4.0,3.7,5o500,foto
3.13,3.67,2.11,4.0,3.7,5h7,pessoa
3.13,3.67,2.11,4.0,3.7,5h7,pessoa
3.13,3.67,2.11,4.0,3.7,5h1,senhora
3.13,3.67,2.11,4.0,3.7,5a2,idade
3.13,3.67,2.11,4.0,3.7,5h2,garoto
3.13,3.67,2.11,4.0,3.7,5h3,garoto
3.13,3.67,2.11,4.0,3.7,5h1,mulher
3.13,3.67,2.11,4.0,3.7,5h4,mulher
3.13,3.67,2.11,4.0,3.7,5h2,menino
3.13,3.67,2.11,4.0,3.7,5h3,menino
3.13,3.67,2.11,4.0,3.7,5a14,roupa
3.13,3.67,2.11,4.0,3.7,5o501,ambiente
1.88,4.22,2.89,2.25,3.5,5o500,imagem
1.88,4.22,2.89,2.25,3.5,5h7,pessoa
1.88,4.22,2.89,2.25,3.5,5h7,pessoa
1.88,4.22,2.89,2.25,3.5,5h1,senhora
1.88,4.22,2.89,2.25,3.5,5h7,criança
1.88,4.22,2.89,2.25,3.5,5o501,local
4.25,4.0,2.78,2.38,3.7,5h6,família
4.25,4.0,2.78,2.38,3.7,5o501,ambiente
4.25,4.0,2.78,2.38,3.7,5o516,sala
4.25,4.0,2.78,2.38,3.7,5o512,cimento
4.25,4.0,2.78,2.38,3.7,5o507,banco
4.25,4.0,2.78,2.38,3.7,5h1,mulher
4.25,4.0,2.78,2.38,3.7,5h1,mulher
4.25,4.0,2.78,2.38,3.7,5h4,mulher
4.25,4.0,2.78,2.38,3.7,5h4,mulher
4.25,4.0,2.78,2.38,3.7,5a22,blusa
4.25,4.0,2.78,2.38,3.7,5a22,blusa
4.25,4.0,2.78,2.38,3.7,5a22,blusa
4.25,4.0,2.78,2.38,3.7,5h2,menino
4.25,4.0,2.78,2.38,3.7,5h2,menino
4.25,4.0,2.78,2.38,3.7,5h3,menino
4.25,4.0,2.78,2.38,3.7,5h3,menino
4.25,4.0,2.78,2.38,3.7,5h7,criança
4.25,4.0,2.78,2.38,3.7,5h7,criança
4.25,4.0,2.78,2.38,3.7,5h5,bebê
4.25,4.0,2.78,2.38,3.7,5o500,foto
3.63,4.44,2.22,2.88,4.1,5h7,pessoa
3.63,4.44,2.22,2.88,4.1,5h7,pessoa
3.63,4.44,2.22,2.88,4.1,5h7,pessoa
3.63,4.44,2.22,2.88,4.1,5h7,pessoa
3.63,4.44,2.22,2.88,4.1,5h7,pessoa
3.63,4.44,2.22,2.88,4.1,5h6,fila
3.63,4.44,2.22,2.88,4.1,5h1,senhora
3.63,4.44,2.22,2.88,4.1,5h1,senhora
3.63,4.44,2.22,2.88,4.1,5a15,sobretudo
3.63,4.44,2.22,2.88,4.1,5h7,criança
3.63,4.44,2.22,2.88,4.1,5h7,criança
3.63,4.44,2.22,2.88,4.1,5h7,criança
3.63,4.44,2.22,2.88,4.1,5a14,roupa
3.63,4.44,2.22,2.88,4.1,5a21,tênis
3.63,4.44,2.22,2.88,4.1,5a21,tênis
3.63,4.44,2.22,2.88,4.1,5h1,adulto
3.63,4.44,2.22,2.88,4.1,5h1,adulto
3.63,4.44,2.22,2.88,4.1,5h4,adulto
3.63,4.44,2.22,2.88,4.1,5h4,adulto
3.63,4.44,2.22,2.88,4.1,5a15,casaco
3.63,4.44,2.22,2.88,4.1,5a22,blusa
3.63,4.44,2.22,2.88,4.1,5a19,calça
3.63,4.44,2.22,2.88,4.1,5a19,jeans
2.88,3.78,3.78,4.0,3.3,5o500,foto
2.88,3.78,3.78,4.0,3.3,5o500,foto
2.88,3.78,3.78,4.0,3.3,5o500,foto
2.88,3.78,3.78,4.0,3.3,5o500,foto
2.88,3.78,3.78,4.0,3.3,5h1,mulher
2.88,3.78,3.78,4.0,3.3,5h1,mulher
2.88,3.78,3.78,4.0,3.3,5h4,mulher
2.88,3.78,3.78,4.0,3.3,5h4,mulher
2.88,3.78,3.78,4.0,3.3,5h7,criança
2.88,3.78,3.78,4.0,3.3,5h7,criança
2.88,3.78,3.78,4.0,3.3,5h7,criança
2.88,3.78,3.78,4.0,3.3,5h7,criança
2.88,3.78,3.78,4.0,3.3,5h7,criança
2.88,3.78,3.78,4.0,3.3,5a19,jeans
2.88,3.78,3.78,4.0,3.3,5a19,jeans
2.88,3.78,3.78,4.0,3.3,5a15,jaqueta
2.88,3.78,3.78,4.0,3.3,5a15,jaqueta
2.88,3.78,3.78,4.0,3.3,5a15,jaqueta
2.88,3.78,3.78,4.0,3.3,5a15,jaqueta
2.88,3.78,3.78,4.0,3.3,5a19,calça
2.88,3.78,3.78,4.0,3.3,5o507,banco
2.88,3.78,3.78,4.0,3.3,5h7,pessoa
2.88,3.78,3.78,4.0,3.3,5h7,pessoa
2.88,3.78,3.78,4.0,3.3,5a21,tênis
1.88,4.56,4.22,3.75,2.1,5h6,grupo
1.88,4.56,4.22,3.75,2.1,5h6,grupo
1.88,4.56,4.22,3.75,2.1,5h7,pessoa
1.88,4.56,4.22,3.75,2.1,5o509,coisa
1.88,4.56,4.22,3.75,2.1,5a14,roupa
3.0,3.44,4.89,4.0,2.9,5h6,família
3.0,3.44,4.89,4.0,2.9,5h1,senhora
3.0,3.44,4.89,4.0,2.9,5h7,criança
3.0,3.44,4.89,4.0,2.9,5h7,criança
3.0,3.44,4.89,4.0,2.9,5o500,foto
