@relation adj_tmp-weka.filters.unsupervised.instance.RemoveRange-Rfirst-5741

@attribute EXTRA numeric
@attribute AGREE numeric
@attribute CONSC numeric
@attribute NEURO numeric
@attribute OPEN numeric
@attribute CONCEPT {s4377,s4418,s4549,s8514,s4650,s7576,s9051,s9761,s10496,s4596,s4559,s5610,s8195,s8461,s8727,s10308,s9152,s4691,s4490,s4148,s10421,s9864,s10106,s4698,s4983,s8641,s8104,s8223,s4753,s9696,s4565,s4527,s8494,s8365,s9572,s5643,s4483,s4486,s6321,s7204,s9157,s10484,s4569,s7626,s4207,s5460,s8902,s10599,s7935,s5138,s4502,s8191,s4603,s4299,s10495,s4458,s4275,s7077,s9001,s9469,s4155,s7627,s8753,s10340,s7691,s6598,s10606,s10326,s9544,s10560,s10617,s10112,s4447,s4645,s4564,s9860,s8592,s10085,s10358,s4514,s6252,s9371,s4517,s4437,s4620,s4335,s6569,s10515,s10516,s7248,s9404,s10149,s10134,s9848,s5461,s10136,s9782,s7881,s8200,s9870,s4270,s4639,s10672,s10535,s4453,s6206,s4445,s10505,s9974,s9131,s10663,s10442,s4169,s8694}
@attribute STRING {agitado,negro,simples,calmo,pobre,claro,remoto,nacional,sério,rústico,nítido,proveitoso,feliz,jovem,trabalhador,grande,diverso,esticado,escuro,triste,velho,possível,antigo,preto,branco,direito,idoso,humilde,bravo,visível,alto,forte,plano,atento,exterior,considerável,distante,sujo,próximo,bom,extremo,desbotado,largo,comprido,confortável,colorido,pronto,miserável,novo,extraordinário,batido,aparente,baixo,limpo,corrente,árido,multicolorido,pequeno,escasso,abatido,só,corporal,exato,quente,estirado,apreensivo,rural,fechado,usado,cruel,rico,ralo,preocupado,diferente,comum,pelado,saudável,grosso,amarelo,semelhante,macio,pálido,frio,corado,marcante,tranqüilo,multicolor,decente,generoso,caseiro,cintilante,disponível,raro,acidentado,adequado,sozinho,espesso,longo,seguro,natural,encoberto,morto,fraco,encardido,amarelado,pouco,tristonho,manchado,cuidado,difícil,dado,desmaiado,notável,crespo,frágil,doentio,vertical,imundo,transparente,vazio,desnudo,vago,raquítico,liso,distraído,próprio,desanimado,descoberto,inesperado,evidente,externo,carinhoso,provável,melancólico,distinto,elevado,sorumbático,turvo,aprisionado,deserto,intenso,produtivo,físico,parecido,alheio,certo,seco,contente,tímido,aleatório,alegre,curvado,denso,queimado,baldio,selvagem,paralelo,envergonhado,infértil,indeterminado,inquieto,singelo,solitário,direto,nu,insalubre,simpático,perceptível,obeso,curioso,sóbrio,moço,brilhante,disposto,robusto,corpulento,firme,acentuado,barato,sereno,reduzido,descuidado,caído,digno,material,arqueado,indefinido,duro,razoável,ocasional,franzino}

@data
3.88,3.22,3.11,1.63,3.7,s8592,frio
3.88,3.22,3.11,1.63,3.7,s9544,frio
2.38,3.11,3.22,3.13,2.2,s5643,possível
2.38,3.11,3.22,3.13,2.2,s8200,vazio
1.75,3.67,2.67,2.88,4.1,s4458,colorido
3.13,4,1.89,3.75,3,s4527,triste
3.13,4,1.89,3.75,3,s8494,triste
3.38,3.33,2.89,3.75,3.8,s8592,frio
3.38,3.33,2.89,3.75,3.8,s9544,frio
4.75,4.22,2.56,2.75,4.6,s8365,velho
4.75,4.22,2.56,2.75,4.6,s9572,velho
4.75,4.22,2.56,2.75,4.6,s4148,rústico
4.75,4.22,2.56,2.75,4.6,s4527,triste
4.75,4.22,2.56,2.75,4.6,s8494,triste
2.25,3.67,2.22,3.13,3.2,s8753,pequeno
2.25,3.67,2.22,3.13,3.2,s10606,pequeno
2.25,3.67,2.22,3.13,3.2,s8365,velho
2.25,3.67,2.22,3.13,3.2,s9572,velho
2.25,3.67,2.22,3.13,3.2,s4983,novo
2.25,3.67,2.22,3.13,3.2,s4527,triste
2.25,3.67,2.22,3.13,3.2,s8494,triste
4.13,3.22,3.11,3.5,3.4,s10134,natural
4.13,3.22,3.11,3.5,3.4,s10672,inesperado
4.63,3.56,3.44,3.38,3.6,s4753,diferente
4.13,3.78,3.78,1.88,3.4,s9864,bom
4,3.56,3.33,4.75,3.2,s4527,triste
4,3.56,3.33,4.75,3.2,s8494,triste
4,3.56,3.33,4.75,3.2,s8104,grande
4,3.56,3.33,4.75,3.2,s8223,grande
4,3.56,3.33,4.75,3.2,s5643,possível
3,3.67,4.22,3.25,3.7,s4527,triste
3,3.67,4.22,3.25,3.7,s8494,triste
3,3.67,4.22,3.25,3.7,s8592,frio
3,3.67,4.22,3.25,3.7,s9544,frio
3,3.67,4.22,3.25,3.7,s4559,branco
3,3.67,4.22,3.25,3.7,s4559,branco
3,3.67,4.22,3.25,3.7,s4559,branco
2.88,2.11,4.56,5,4.8,s8727,evidente
3.38,3.56,2.78,4.13,4,s4527,triste
3.38,3.56,2.78,4.13,4,s8494,triste
2.88,3.44,3,2.13,3.7,s4490,sério
2.88,3.44,3,2.13,3.7,s4645,preocupado
4,3.89,3.78,2.25,3.9,s4527,triste
4,3.89,3.78,2.25,3.9,s8494,triste
3.25,3.11,4,2.88,4.1,s8753,pequeno
3.25,3.11,4,2.88,4.1,s10606,pequeno
3.25,3.11,4,2.88,4.1,s4527,triste
3.25,3.11,4,2.88,4.1,s8494,triste
2.25,3.22,3.67,3.25,3.5,s4527,triste
2.25,3.22,3.67,3.25,3.5,s8494,triste
2.25,3.22,3.67,3.25,3.5,s5643,possível
3.63,3.56,2.33,4.13,3.6,s8753,pequeno
3.63,3.56,2.33,4.13,3.6,s10606,pequeno
3.25,3.33,4.44,2.5,3.5,s4620,liso
3.25,3.33,4.44,2.5,3.5,s6321,liso
3.25,3.33,4.44,2.5,3.5,s4527,triste
3.25,3.33,4.44,2.5,3.5,s8494,triste
2.25,3.44,2.22,4.25,3.5,s8365,velho
2.25,3.44,2.22,4.25,3.5,s9572,velho
2.25,3.44,2.22,4.25,3.5,s8753,pequeno
2.25,3.44,2.22,4.25,3.5,s10606,pequeno
3.88,3.78,4.33,3,4.4,s4753,diverso
2,2.67,1.78,3.5,4.2,s8753,pequeno
2,2.67,1.78,3.5,4.2,s10606,pequeno
2.25,3.78,3.56,3.63,3.7,s4698,feliz
3.25,3,3,3.25,3.9,s4559,branco
3.25,3,3,3.25,3.9,s4559,branco
3.25,3,3,3.25,3.9,s8223,comprido
3.25,3,3,3.25,3.9,s4527,triste
3.25,3,3,3.25,3.9,s8494,triste
3.25,3,3,3.25,3.9,s8514,preto
3.25,3,3,3.25,3.9,s8365,velho
3.25,3,3,3.25,3.9,s9572,velho
2,3.11,2.22,1.88,2.7,s4527,triste
2,3.11,2.22,1.88,2.7,s8494,triste
2,3.11,2.22,1.88,2.7,s8104,grande
2,3.11,2.22,1.88,2.7,s8223,grande
3.25,4.11,3.44,3.38,4.3,s4645,preocupado
3.25,4.11,3.44,3.38,4.3,s9864,bom
3.5,3.44,3.56,4.13,3.2,s8365,velho
3.5,3.44,3.56,4.13,3.2,s8365,velho
3.5,3.44,3.56,4.13,3.2,s9572,velho
3.5,3.44,3.56,4.13,3.2,s9572,velho
3.5,3.44,3.56,4.13,3.2,s4983,novo
4.63,3.56,2.67,3.5,2.8,s8753,pequeno
4.63,3.56,2.67,3.5,2.8,s10606,pequeno
4.63,3.56,2.67,3.5,2.8,s4527,triste
4.63,3.56,2.67,3.5,2.8,s8494,triste
2.88,3.44,3.78,3.13,4.6,s4603,próximo
2.88,3.44,3.78,3.13,4.6,s4490,sério
3.38,3,3.56,2.25,4,s8223,longo
3.38,3,3.56,2.25,4,s9371,saudável
3.38,3,3.56,2.25,4,s8592,frio
3.38,3,3.56,2.25,4,s9544,frio
2.75,3.78,2.33,3.38,3.3,s4983,jovem
2.75,3.78,2.33,3.38,3.3,s8104,grande
2.75,3.78,2.33,3.38,3.3,s8223,grande
3.25,3.11,2.44,1.63,2.4,s5643,possível
3.13,3.89,3.89,2.63,3.6,s4483,direito
3.13,3.89,3.89,2.63,3.6,s4486,direito
3.13,3.89,3.89,2.63,3.6,s4490,direito
3.13,3.89,3.89,2.63,3.6,s6321,direito
4.25,4.11,1.56,3.75,3.7,s4527,triste
4.25,4.11,1.56,3.75,3.7,s8494,triste
2.63,3.22,4,2.13,3.7,s10516,próprio
2.63,3.22,4,2.13,3.7,s10516,próprio
3.25,3.33,3,2.63,3.9,s9001,batido
3.38,3.67,4.56,3.75,3.6,s8223,comprido
3.38,3.67,4.56,3.75,3.6,s4559,branco
3.38,3.67,4.56,3.75,3.6,s4559,branco
3.38,3.67,4.56,3.75,3.6,s4559,branco
3.38,3.67,4.56,3.75,3.6,s4559,branco
3.38,3.67,4.56,3.75,3.6,s8514,preto
3.38,3.67,4.56,3.75,3.6,s8514,preto
3.38,3.67,4.56,3.75,3.6,s8514,preto
3.38,3.67,4.56,3.75,3.6,s4983,novo
3.38,3.67,4.56,3.75,3.6,s8753,pequeno
3.38,3.67,4.56,3.75,3.6,s10606,pequeno
3.38,3.67,4.56,3.75,3.6,s7626,alto
3.38,3.67,4.56,3.75,3.6,s10484,alto
3.38,3.67,4.56,3.75,3.6,s4483,direito
3.38,3.67,4.56,3.75,3.6,s4483,direito
3.38,3.67,4.56,3.75,3.6,s4486,direito
3.38,3.67,4.56,3.75,3.6,s4486,direito
3.38,3.67,4.56,3.75,3.6,s4490,direito
3.38,3.67,4.56,3.75,3.6,s4490,direito
3.38,3.67,4.56,3.75,3.6,s6321,direito
3.38,3.67,4.56,3.75,3.6,s6321,direito
3.38,3.67,4.56,3.75,3.6,s8365,velho
3.38,3.67,4.56,3.75,3.6,s9572,velho
3.38,3.67,4.56,3.75,3.6,s4437,amarelo
2.13,4.44,3.89,2.13,4,s8753,pequeno
2.13,4.44,3.89,2.13,4,s10606,pequeno
2.13,4.44,3.89,2.13,4,s8727,evidente
1.63,4.33,4,2.5,4.1,s4559,branco
1.63,4.33,4,2.5,4.1,s4620,liso
1.63,4.33,4,2.5,4.1,s6321,liso
3.75,4.22,4.44,1.38,4.5,s8753,pequeno
3.75,4.22,4.44,1.38,4.5,s10606,pequeno
3.75,4.22,4.44,1.38,4.5,s8223,comprido
3.75,4.22,4.44,1.38,4.5,s8223,comprido
3.75,4.22,4.44,1.38,4.5,s4565,escuro
3.75,4.22,4.44,1.38,4.5,s4565,escuro
3.75,4.22,4.44,1.38,4.5,s8514,escuro
3.75,4.22,4.44,1.38,4.5,s8514,escuro
3.75,4.22,4.44,1.38,4.5,s4155,baixo
3.75,4.22,4.44,1.38,4.5,s7627,baixo
3.75,4.22,4.44,1.38,4.5,s8753,baixo
3.75,4.22,4.44,1.38,4.5,s4559,claro
3.75,4.22,4.44,1.38,4.5,s5610,claro
3.75,4.22,4.44,1.38,4.5,s8195,claro
3.75,4.22,4.44,1.38,4.5,s8461,claro
3.75,4.22,4.44,1.38,4.5,s8727,claro
3.75,4.22,4.44,1.38,4.5,s10308,claro
2.88,3.44,2.56,2.13,4.1,s4559,branco
2.88,3.44,2.56,2.13,4.1,s4559,branco
2.88,3.44,2.56,2.13,4.1,s8223,comprido
2.88,3.44,2.56,2.13,4.1,s8514,preto
2.88,3.44,2.56,2.13,4.1,s4527,triste
2.88,3.44,2.56,2.13,4.1,s8494,triste
2.88,3.44,2.56,2.13,4.1,s5643,possível
2.88,3.44,2.56,2.13,4.1,s5643,possível
3.88,3.33,3.44,2.5,3.8,s8753,pequeno
3.88,3.33,3.44,2.5,3.8,s10606,pequeno
3.88,3.33,3.44,2.5,3.8,s4603,próximo
2.13,3.56,2.89,2.25,3.5,s4527,triste
2.13,3.56,2.89,2.25,3.5,s8494,triste
2.13,3.56,2.89,2.25,3.5,s4753,diverso
2.13,3.56,2.89,2.25,3.5,s8104,grande
2.13,3.56,2.89,2.25,3.5,s8223,grande
4.63,4.33,4,1.75,4.1,s4620,liso
4.63,4.33,4,1.75,4.1,s4620,liso
4.63,4.33,4,1.75,4.1,s6321,liso
4.63,4.33,4,1.75,4.1,s6321,liso
3.5,2.78,3.33,3.38,4.1,s4207,forte
3.5,2.78,3.33,3.38,4.1,s4565,forte
3.5,2.78,3.33,3.38,4.1,s5460,forte
3.5,2.78,3.33,3.38,4.1,s10484,forte
2.88,3.89,3.78,1.5,4,s4527,triste
2.88,3.89,3.78,1.5,4,s8494,triste
2.75,3,4.11,2.63,4,s4753,diverso
4.25,4,3.67,3.13,3.6,s4983,jovem
4.25,4,3.67,3.13,3.6,s4753,diverso
1.38,3.56,3.22,1.5,3.25,s4559,branco
2.13,4,1.78,3.25,4.3,s8727,aparente
2.13,4,1.78,3.25,4.3,s9469,aparente
2.13,4,1.78,3.25,4.3,s4698,feliz
3.13,3.33,3,3.25,3.2,s4559,claro
3.13,3.33,3,3.25,3.2,s4559,claro
3.13,3.33,3,3.25,3.2,s4559,claro
3.13,3.33,3,3.25,3.2,s5610,claro
3.13,3.33,3,3.25,3.2,s5610,claro
3.13,3.33,3,3.25,3.2,s5610,claro
3.13,3.33,3,3.25,3.2,s8195,claro
3.13,3.33,3,3.25,3.2,s8195,claro
3.13,3.33,3,3.25,3.2,s8195,claro
3.13,3.33,3,3.25,3.2,s8461,claro
3.13,3.33,3,3.25,3.2,s8461,claro
3.13,3.33,3,3.25,3.2,s8461,claro
3.13,3.33,3,3.25,3.2,s8727,claro
3.13,3.33,3,3.25,3.2,s8727,claro
3.13,3.33,3,3.25,3.2,s8727,claro
3.13,3.33,3,3.25,3.2,s10308,claro
3.13,3.33,3,3.25,3.2,s10308,claro
3.13,3.33,3,3.25,3.2,s10308,claro
3.13,3.33,3,3.25,3.2,s4620,liso
3.13,3.33,3,3.25,3.2,s6321,liso
3.13,3.33,3,3.25,3.2,s4559,branco
3.13,3.33,3,3.25,3.2,s4490,sério
3,3.67,4.78,3.38,3.8,s8753,pequeno
3,3.67,4.78,3.38,3.8,s10606,pequeno
3,4.11,3.33,2,4.2,s4527,triste
3,4.11,3.33,2,4.2,s8494,triste
4.5,3.22,4.33,4.63,3.6,s4983,novo
4.5,3.22,4.33,4.63,3.6,s8104,grande
4.5,3.22,4.33,4.63,3.6,s8223,grande
4.5,3.22,4.33,4.63,3.6,s4490,sério
4.5,3.22,4.33,4.63,3.6,s9001,batido
4.5,3.22,4.33,4.63,3.6,s5643,possível
4.5,3.22,4.33,4.63,3.6,s4559,branco
3.75,4,4.56,2.38,4.4,s4527,triste
3.75,4,4.56,2.38,4.4,s8494,triste
3.75,4,4.56,2.38,4.4,s4603,próximo
2.13,3,2.56,3.75,3.7,s4490,sério
3.63,3.44,3.11,2.63,3.5,s4753,diverso
3.63,3.44,3.11,2.63,3.5,s4527,triste
3.63,3.44,3.11,2.63,3.5,s8494,triste
3.75,3.89,3.33,2.38,3.9,s4698,feliz
3.25,3.33,2.78,3.13,3.8,s4559,branco
3.25,3.33,2.78,3.13,3.8,s4559,branco
3.25,3.33,2.78,3.13,3.8,s4559,branco
3.25,3.33,2.78,3.13,3.8,s8753,pequeno
3.25,3.33,2.78,3.13,3.8,s10606,pequeno
3.25,3.33,2.78,3.13,3.8,s8223,longo
3.25,3.33,2.78,3.13,3.8,s8514,preto
3.25,3.33,2.78,3.13,3.8,s8104,grande
3.25,3.33,2.78,3.13,3.8,s8223,grande
3.25,3.33,2.78,3.13,3.8,s4437,amarelo
2.88,3.44,4,4.63,3.1,s4527,triste
2.88,3.44,4,4.63,3.1,s4527,triste
2.88,3.44,4,4.63,3.1,s4527,triste
2.88,3.44,4,4.63,3.1,s8494,triste
2.88,3.44,4,4.63,3.1,s8494,triste
2.88,3.44,4,4.63,3.1,s8494,triste
3.75,3.67,2.56,3.13,3.8,s8753,pequeno
3.75,3.67,2.56,3.13,3.8,s10606,pequeno
3.75,3.67,2.56,3.13,3.8,s8365,velho
3.75,3.67,2.56,3.13,3.8,s9572,velho
3.75,3.67,2.56,3.13,3.8,s4527,triste
3.75,3.67,2.56,3.13,3.8,s8494,triste
3.63,3.22,3.22,2.38,3.4,s8753,pequeno
3.63,3.22,3.22,2.38,3.4,s10606,pequeno
3.63,3.22,3.22,2.38,3.4,s7935,externo
2.63,3.33,3,3.75,3.2,s4490,sério
2.63,3.33,3,3.75,3.2,s4527,triste
2.63,3.33,3,3.75,3.2,s8494,triste
4.25,4.22,3.67,2.63,4.5,s8753,pequeno
4.25,4.22,3.67,2.63,4.5,s10606,pequeno
4.25,4.22,3.67,2.63,4.5,s4527,triste
4.25,4.22,3.67,2.63,4.5,s8494,triste
4.38,3.78,3.56,3,4,s10535,carinhoso
4.38,3.11,3.67,2.75,3.7,s5643,provável
3.38,4.44,3.44,3,3.6,s8753,pequeno
3.38,4.44,3.44,3,3.6,s10606,pequeno
3.38,4.44,3.44,3,3.6,s4527,triste
3.38,4.44,3.44,3,3.6,s8494,triste
3.25,3.89,2.67,3.13,3.6,s4527,triste
3.25,3.89,2.67,3.13,3.6,s8494,triste
3.25,3.89,2.67,3.13,3.6,s4559,branco
4.13,3.33,3,3.88,3.9,s4983,jovem
4.13,3.33,3,3.88,3.9,s4645,preocupado
3.75,4.11,3.33,3.88,4.9,s8753,pequeno
3.75,4.11,3.33,3.88,4.9,s10606,pequeno
3.75,4.11,3.33,3.88,4.9,s8104,grande
3.75,4.11,3.33,3.88,4.9,s8223,grande
3.75,4.11,3.33,3.88,4.9,s8365,velho
3.75,4.11,3.33,3.88,4.9,s9572,velho
3.75,4.11,3.33,3.88,4.9,s4565,escuro
3.75,4.11,3.33,3.88,4.9,s8514,escuro
3.75,4.11,3.33,3.88,4.9,s4620,liso
3.75,4.11,3.33,3.88,4.9,s6321,liso
3.75,4.11,3.33,3.88,4.9,s4698,feliz
3,2.56,2.67,2.88,2.5,s4527,triste
3,2.56,2.67,2.88,2.5,s8494,triste
3.63,3.78,2.89,4.13,3.3,s8753,pequeno
3.63,3.78,2.89,4.13,3.3,s10606,pequeno
3.63,3.78,2.89,4.13,3.3,s8104,grande
3.63,3.78,2.89,4.13,3.3,s8223,grande
4.63,3.44,3.11,4.25,4.4,s4502,sujo
4.63,3.44,3.11,4.25,4.4,s8191,sujo
3.88,4.33,4,3.5,3.9,s8753,pequeno
3.88,4.33,4,3.5,3.9,s10606,pequeno
3.88,4.33,4,3.5,3.9,s4527,triste
3.88,4.33,4,3.5,3.9,s8494,triste
3.75,3.44,3.11,4.13,3.7,s4483,direito
3.75,3.44,3.11,4.13,3.7,s4486,direito
3.75,3.44,3.11,4.13,3.7,s4490,direito
3.75,3.44,3.11,4.13,3.7,s6321,direito
3.75,3.44,3.11,4.13,3.7,s8104,grande
3.75,3.44,3.11,4.13,3.7,s8223,grande
3.75,3.44,3.11,4.13,3.7,s4527,triste
3.75,3.44,3.11,4.13,3.7,s8494,triste
1.38,3.67,2.78,2.88,2.9,s4527,triste
1.38,3.67,2.78,2.88,2.9,s4527,triste
1.38,3.67,2.78,2.88,2.9,s8494,triste
1.38,3.67,2.78,2.88,2.9,s8494,triste
1.38,3.67,2.78,2.88,2.9,s8494,melancólico
1.38,3.67,2.78,2.88,2.9,s8753,pequeno
1.38,3.67,2.78,2.88,2.9,s10606,pequeno
3.25,3.67,2.89,2.5,3.4,s4527,triste
3.25,3.67,2.89,2.5,3.4,s8494,triste
3.25,3.67,2.89,2.5,3.4,s4753,diverso
3.88,3.44,3.89,3.5,3.7,s4527,triste
3.88,3.44,3.89,3.5,3.7,s4527,triste
3.88,3.44,3.89,3.5,3.7,s8494,triste
3.88,3.44,3.89,3.5,3.7,s8494,triste
3.63,3.56,2.44,4,4.1,s4983,novo
3.63,3.56,2.44,4,4.1,s8104,grande
3.63,3.56,2.44,4,4.1,s8223,grande
3.63,3.56,2.44,4,4.1,s4527,triste
3.63,3.56,2.44,4,4.1,s8494,triste
2.63,3.56,4.22,3.38,3.8,s8753,pequeno
2.63,3.56,4.22,3.38,3.8,s10606,pequeno
2.63,3.56,4.22,3.38,3.8,s7935,externo
3.63,4.22,3.56,2.38,4,s4559,claro
3.63,4.22,3.56,2.38,4,s5610,claro
3.63,4.22,3.56,2.38,4,s8195,claro
3.63,4.22,3.56,2.38,4,s8461,claro
3.63,4.22,3.56,2.38,4,s8727,claro
3.63,4.22,3.56,2.38,4,s10308,claro
3.63,4.22,3.56,2.38,4,s4565,escuro
3.63,4.22,3.56,2.38,4,s8514,escuro
3.75,3.89,3.33,3.63,3.8,s8365,velho
3.75,3.89,3.33,3.63,3.8,s9572,velho
3.75,3.89,3.33,3.63,3.8,s4447,exato
1.88,4.11,3.11,2.88,2.7,s4565,escuro
1.88,4.11,3.11,2.88,2.7,s8514,escuro
1.88,4.11,3.11,2.88,2.7,s4620,liso
1.88,4.11,3.11,2.88,2.7,s6321,liso
2.88,4.44,3.78,1.63,4.1,s4559,branco
2.88,4.44,3.78,1.63,4.1,s4490,sério
3.63,3.56,3.56,3.63,5,s4983,jovem
3.63,3.56,3.56,3.63,5,s4527,triste
3.63,3.56,3.56,3.63,5,s8494,triste
3.25,4.78,3.33,3.5,2.4,s4527,triste
3.25,4.78,3.33,3.5,2.4,s8494,triste
3.25,4.78,3.33,3.5,2.4,s4437,amarelo
3.25,4.78,3.33,3.5,2.4,s8195,limpo
3.25,4.78,3.33,3.5,2.4,s10340,limpo
3.88,3.89,3.33,2.5,4.5,s4527,triste
3.88,3.89,3.33,2.5,4.5,s8494,triste
3.88,3.89,3.33,2.5,4.5,s8727,aparente
3.88,3.89,3.33,2.5,4.5,s9469,aparente
3.88,3.89,3.33,2.5,4.5,s4502,sujo
3.88,3.89,3.33,2.5,4.5,s8191,sujo
1.88,3,2.78,3.5,3.4,s4620,liso
1.88,3,2.78,3.5,3.4,s4620,liso
1.88,3,2.78,3.5,3.4,s6321,liso
1.88,3,2.78,3.5,3.4,s6321,liso
1.88,3,2.78,3.5,3.4,s4527,triste
1.88,3,2.78,3.5,3.4,s8494,triste
1.88,3,2.78,3.5,3.4,s8104,grande
1.88,3,2.78,3.5,3.4,s8223,grande
1.88,3,2.78,3.5,3.4,s4753,diverso
1.88,3,2.78,3.5,3.4,s8753,pequeno
1.88,3,2.78,3.5,3.4,s10606,pequeno
2,3.56,3,2.75,3.4,s4983,novo
2,3.56,3,2.75,3.4,s8104,grande
2,3.56,3,2.75,3.4,s8223,grande
2.38,3.22,3.56,3.63,2.7,s4527,triste
2.38,3.22,3.56,3.63,2.7,s8494,triste
3.88,3.44,2.78,2.5,3.3,s8365,velho
3.88,3.44,2.78,2.5,3.3,s9572,velho
3.88,3.44,2.78,2.5,3.3,s4502,sujo
3.88,3.44,2.78,2.5,3.3,s8191,sujo
2.63,3.89,2.89,3.38,3.6,s5643,possível
3.75,3.44,2.89,2.13,4.3,s4559,branco
3.75,3.44,2.89,2.13,4.3,s4559,branco
3.75,3.44,2.89,2.13,4.3,s8223,longo
3.75,3.44,2.89,2.13,4.3,s4207,distinto
3.75,3.56,2.33,3.88,4.1,s4983,novo
3.75,3.56,2.33,3.88,4.1,s8365,velho
3.75,3.56,2.33,3.88,4.1,s9572,velho
3.75,3.56,2.33,3.88,4.1,s4527,triste
3.75,3.56,2.33,3.88,4.1,s8494,triste
2.63,4,4.11,2.5,4.7,s4437,amarelado
2.5,4.56,3,2.38,2.8,s8753,pequeno
2.5,4.56,3,2.38,2.8,s10606,pequeno
2.5,4.56,3,2.38,2.8,s4559,branco
2.5,4.56,3,2.38,2.8,s8514,preto
2.5,4.56,3,2.38,2.8,s4270,distraído
2.5,4.56,3,2.38,2.8,s4639,distraído
2.38,3.11,2.67,2.5,3.8,s4527,triste
2.38,3.11,2.67,2.5,3.8,s8494,triste
2.38,3.11,2.67,2.5,3.8,s4645,preocupado
2.38,3.11,2.67,2.5,3.8,s8753,pequeno
2.38,3.11,2.67,2.5,3.8,s10606,pequeno
4.88,3.89,4.33,3.25,4.4,s9001,batido
4.88,3.89,4.33,3.25,4.4,s4527,triste
4.88,3.89,4.33,3.25,4.4,s8494,triste
3.5,2.67,4,1.88,4,s4527,triste
3.5,2.67,4,1.88,4,s8494,triste
4.88,3.78,2.44,3.63,4.4,s4527,triste
4.88,3.78,2.44,3.63,4.4,s8494,triste
4.88,3.78,2.44,3.63,4.4,s4645,preocupado
4.13,3.67,4,3.13,3.9,s7935,externo
4.13,3.67,4,3.13,3.9,s8592,cruel
4.13,3.67,4,3.13,3.9,s10516,próprio
2.38,3.33,3.67,3.88,3.3,s4527,triste
2.38,3.33,3.67,3.88,3.3,s8494,triste
3,4.67,4,2.5,3.3,s10134,natural
3.13,3.89,3.44,3.75,3.6,s4527,triste
3.13,3.89,3.44,3.75,3.6,s8494,triste
2.88,4.56,2.78,2.38,3.3,s8753,pequeno
2.88,4.56,2.78,2.38,3.3,s10606,pequeno
2.88,4.56,2.78,2.38,3.3,s7248,seguro
2.88,4.56,2.78,2.38,3.3,s9404,seguro
2.88,4.56,2.78,2.38,3.3,s10149,seguro
2.88,4.56,2.78,2.38,3.3,s4603,próximo
3.13,3.67,2.11,4,3.7,s4559,branco
3.13,3.67,2.11,4,3.7,s4620,liso
3.13,3.67,2.11,4,3.7,s6321,liso
3.13,3.67,2.11,4,3.7,s4527,triste
3.13,3.67,2.11,4,3.7,s8494,triste
3.13,3.67,2.11,4,3.7,s7626,elevado
1.88,4.22,2.89,2.25,3.5,s4753,diverso
4.25,4,2.78,2.38,3.7,s8753,pequeno
4.25,4,2.78,2.38,3.7,s10606,pequeno
4.25,4,2.78,2.38,3.7,s4527,triste
4.25,4,2.78,2.38,3.7,s8494,triste
4.25,4,2.78,2.38,3.7,s8365,velho
4.25,4,2.78,2.38,3.7,s9572,velho
2.88,3.78,3.78,4,3.3,s4645,apreensivo
2.88,3.78,3.78,4,3.3,s4155,grosso
2.88,3.78,3.78,4,3.3,s4517,grosso
2.88,3.78,3.78,4,3.3,s4559,branco
1.88,4.56,4.22,3.75,2.1,s4983,jovem
3,3.44,4.89,4,2.9,s7576,humilde
3,3.44,4.89,4,2.9,s5643,possível
