EXTRA,AGREE,CONSC,NEURO,OPEN,CONCEPT,STRING
3.88,3.22,3.11,1.63,3.7,s2270,cruzar
3.88,3.22,3.11,1.63,3.7,s2342,estar
3.88,3.22,3.11,1.63,3.7,s2342,estar
3.88,3.22,3.11,1.63,3.7,s2342,estar
3.88,3.22,3.11,1.63,3.7,s2702,estar
3.88,3.22,3.11,1.63,3.7,s2702,estar
3.88,3.22,3.11,1.63,3.7,s2702,estar
3.88,3.22,3.11,1.63,3.7,s2441,abraçar
3.88,3.22,3.11,1.63,3.7,s2464,abraçar
3.88,3.22,3.11,1.63,3.7,s3953,abraçar
3.88,3.22,3.11,1.63,3.7,s1777,vestir
3.88,3.22,3.11,1.63,3.7,s3504,vestir
3.88,3.22,3.11,1.63,3.7,s3819,vestir
3.88,3.22,3.11,1.63,3.7,s2448,ter
3.88,3.22,3.11,1.63,3.7,s3118,ter
2.38,3.11,3.22,3.13,2.2,s2342,estar
2.38,3.11,3.22,3.13,2.2,s2342,estar
2.38,3.11,3.22,3.13,2.2,s2702,estar
2.38,3.11,3.22,3.13,2.2,s2702,estar
2.38,3.11,3.22,3.13,2.2,s2448,ter
2.38,3.11,3.22,3.13,2.2,s3118,ter
1.75,3.67,2.67,2.88,4.1,s2342,estar
1.75,3.67,2.67,2.88,4.1,s2342,estar
1.75,3.67,2.67,2.88,4.1,s2342,estar
1.75,3.67,2.67,2.88,4.1,s2702,estar
1.75,3.67,2.67,2.88,4.1,s2702,estar
1.75,3.67,2.67,2.88,4.1,s2702,estar
1.75,3.67,2.67,2.88,4.1,s2441,abraçar
1.75,3.67,2.67,2.88,4.1,s2464,abraçar
1.75,3.67,2.67,2.88,4.1,s3953,abraçar
1.75,3.67,2.67,2.88,4.1,s1783,olhar
1.75,3.67,2.67,2.88,4.1,s3625,olhar
1.75,3.67,2.67,2.88,4.1,s3726,chatear
1.75,3.67,2.67,2.88,4.1,s3118,incluir
1.75,3.22,3.56,3.88,4.1,s341,segurar
1.75,3.22,3.56,3.88,4.1,s3005,segurar
1.75,3.22,3.56,3.88,4.1,s4043,segurar
1.75,3.22,3.56,3.88,4.1,s2342,haver
1.75,3.22,3.56,3.88,4.1,s4026,espalhar
1.75,3.22,3.56,3.88,4.1,s2342,estar
1.75,3.22,3.56,3.88,4.1,s2702,estar
3.13,4.0,1.89,3.75,3.0,s3953,cercar
3.13,4.0,1.89,3.75,3.0,s2448,ter
3.13,4.0,1.89,3.75,3.0,s3118,ter
3.13,4.0,1.89,3.75,3.0,s2342,ser
3.13,4.0,1.89,3.75,3.0,s2501,ser
3.13,4.0,1.89,3.75,3.0,s3022,ser
3.13,4.0,1.89,3.75,3.0,s1134,expulsar
3.13,4.0,1.89,3.75,3.0,s3767,perder
3.38,3.33,2.89,3.75,3.8,s2448,ter
3.38,3.33,2.89,3.75,3.8,s3118,ter
3.38,3.33,2.89,3.75,3.8,s2342,ser
3.38,3.33,2.89,3.75,3.8,s2342,ser
3.38,3.33,2.89,3.75,3.8,s2501,ser
3.38,3.33,2.89,3.75,3.8,s2501,ser
3.38,3.33,2.89,3.75,3.8,s3022,ser
3.38,3.33,2.89,3.75,3.8,s3022,ser
3.38,3.33,2.89,3.75,3.8,s416,tirar
3.38,3.33,2.89,3.75,3.8,s1208,tirar
3.38,3.33,2.89,3.75,3.8,s1617,tirar
3.38,3.33,2.89,3.75,3.8,s2227,tirar
3.38,3.33,2.89,3.75,3.8,s3031,tirar
3.38,3.33,2.89,3.75,3.8,s3643,tirar
3.38,3.33,2.89,3.75,3.8,s2441,abraçar
3.38,3.33,2.89,3.75,3.8,s2464,abraçar
3.38,3.33,2.89,3.75,3.8,s3953,abraçar
3.38,3.33,2.89,3.75,3.8,s2342,estar
3.38,3.33,2.89,3.75,3.8,s2342,estar
3.38,3.33,2.89,3.75,3.8,s2702,estar
3.38,3.33,2.89,3.75,3.8,s2702,estar
3.38,3.33,2.89,3.75,3.8,s3733,acalmar
3.38,3.33,2.89,3.75,3.8,s3852,acalmar
3.38,3.33,2.89,3.75,3.8,s4026,espalhar
3.0,4.33,3.56,2.25,3.4,s1892,seguir
3.0,4.33,3.56,2.25,3.4,s3369,seguir
3.0,4.33,3.56,2.25,3.4,s2448,ter
3.0,4.33,3.56,2.25,3.4,s3118,ter
3.0,4.33,3.56,2.25,3.4,s2869,fazer
3.0,4.33,3.56,2.25,3.4,s2873,fazer
3.0,4.33,3.56,2.25,3.4,s2342,ser
3.0,4.33,3.56,2.25,3.4,s2501,ser
3.0,4.33,3.56,2.25,3.4,s3022,ser
3.0,4.33,3.56,2.25,3.4,s2860,usar
3.0,4.33,3.56,2.25,3.4,s3428,ferir
3.0,4.33,3.56,2.25,3.4,s828,ficar
4.75,4.22,2.56,2.75,4.6,s2441,abraçar
4.75,4.22,2.56,2.75,4.6,s2464,abraçar
4.75,4.22,2.56,2.75,4.6,s3953,abraçar
4.75,4.22,2.56,2.75,4.6,s2342,ser
4.75,4.22,2.56,2.75,4.6,s2501,ser
4.75,4.22,2.56,2.75,4.6,s3022,ser
4.75,4.22,2.56,2.75,4.6,s1783,olhar
4.75,4.22,2.56,2.75,4.6,s1783,olhar
4.75,4.22,2.56,2.75,4.6,s3625,olhar
4.75,4.22,2.56,2.75,4.6,s3625,olhar
4.75,4.22,2.56,2.75,4.6,s4115,desolar
4.75,4.22,2.56,2.75,4.6,s4026,espalhar
4.75,4.22,2.56,2.75,4.6,s3572,formar
4.75,4.22,2.56,2.75,4.6,s3862,formar
3.0,3.44,3.33,2.38,4.4,s2342,ser
3.0,3.44,3.33,2.38,4.4,s2501,ser
3.0,3.44,3.33,2.38,4.4,s3022,ser
3.0,3.44,3.33,2.38,4.4,s2342,haver
3.0,3.44,3.33,2.38,4.4,s2342,haver
3.0,3.44,3.33,2.38,4.4,s840,pavimentar
3.0,3.44,3.33,2.38,4.4,s4026,espalhar
3.0,3.44,3.33,2.38,4.4,s2860,usar
2.25,3.67,2.22,3.13,3.2,s2342,estar
2.25,3.67,2.22,3.13,3.2,s2342,estar
2.25,3.67,2.22,3.13,3.2,s2342,estar
2.25,3.67,2.22,3.13,3.2,s2702,estar
2.25,3.67,2.22,3.13,3.2,s2702,estar
2.25,3.67,2.22,3.13,3.2,s2702,estar
2.25,3.67,2.22,3.13,3.2,s2441,abraçar
2.25,3.67,2.22,3.13,3.2,s2464,abraçar
2.25,3.67,2.22,3.13,3.2,s3953,abraçar
2.25,3.67,2.22,3.13,3.2,s2342,ser
2.25,3.67,2.22,3.13,3.2,s2501,ser
2.25,3.67,2.22,3.13,3.2,s3022,ser
2.25,3.67,2.22,3.13,3.2,s2448,ter
2.25,3.67,2.22,3.13,3.2,s3118,ter
4.13,3.22,3.11,3.5,3.4,s1134,desalojar
4.13,3.22,3.11,3.5,3.4,s2448,ter
4.13,3.22,3.11,3.5,3.4,s3118,ter
4.13,3.22,3.11,3.5,3.4,s1579,encontrar
4.13,3.22,3.11,3.5,3.4,s2342,estar
4.13,3.22,3.11,3.5,3.4,s2702,estar
4.25,3.67,4.67,2.5,3.5,s2448,ter
4.25,3.67,4.67,2.5,3.5,s2448,ter
4.25,3.67,4.67,2.5,3.5,s2448,ter
4.25,3.67,4.67,2.5,3.5,s3118,ter
4.25,3.67,4.67,2.5,3.5,s3118,ter
4.25,3.67,4.67,2.5,3.5,s3118,ter
4.25,3.67,4.67,2.5,3.5,s2342,ser
4.25,3.67,4.67,2.5,3.5,s2501,ser
4.25,3.67,4.67,2.5,3.5,s3022,ser
4.25,3.67,4.67,2.5,3.5,s1134,despejar
4.25,3.67,4.67,2.5,3.5,s3279,despejar
4.25,3.67,4.67,2.5,3.5,s727,ir
4.25,3.67,4.67,2.5,3.5,s1892,ir
4.25,3.67,4.67,2.5,3.5,s2099,ir
4.25,3.67,4.67,2.5,3.5,s1579,encontrar
4.25,3.67,4.67,2.5,3.5,s2943,afligir
4.25,3.67,4.67,2.5,3.5,s4115,afligir
4.25,3.67,4.67,2.5,3.5,s2342,estar
4.25,3.67,4.67,2.5,3.5,s2702,estar
4.63,3.56,3.44,3.38,3.6,s2441,abraçar
4.63,3.56,3.44,3.38,3.6,s2464,abraçar
4.63,3.56,3.44,3.38,3.6,s3953,abraçar
4.63,3.56,3.44,3.38,3.6,s2342,estar
4.63,3.56,3.44,3.38,3.6,s2702,estar
4.63,3.56,3.44,3.38,3.6,s969,ver
4.63,3.56,3.44,3.38,3.6,s3434,ver
4.63,3.56,3.44,3.38,3.6,s3756,ver
4.13,3.78,3.78,1.88,3.4,s3716,mostrar
4.13,3.78,3.78,1.88,3.4,s3717,mostrar
4.13,3.78,3.78,1.88,3.4,s3896,notar
4.13,3.78,3.78,1.88,3.4,s3448,bater
4.13,3.78,3.78,1.88,3.4,s4026,espalhar
4.13,3.78,3.78,1.88,3.4,s3022,trazer
4.0,3.56,3.33,4.75,3.2,s2342,estar
4.0,3.56,3.33,4.75,3.2,s2342,estar
4.0,3.56,3.33,4.75,3.2,s2702,estar
4.0,3.56,3.33,4.75,3.2,s2702,estar
4.0,3.56,3.33,4.75,3.2,s2441,abraçar
4.0,3.56,3.33,4.75,3.2,s2464,abraçar
4.0,3.56,3.33,4.75,3.2,s3953,abraçar
4.0,3.56,3.33,4.75,3.2,s2342,ser
4.0,3.56,3.33,4.75,3.2,s2342,ser
4.0,3.56,3.33,4.75,3.2,s2501,ser
4.0,3.56,3.33,4.75,3.2,s2501,ser
4.0,3.56,3.33,4.75,3.2,s3022,ser
4.0,3.56,3.33,4.75,3.2,s3022,ser
4.0,3.56,3.33,4.75,3.2,s969,ver
4.0,3.56,3.33,4.75,3.2,s3434,ver
4.0,3.56,3.33,4.75,3.2,s3756,ver
1.75,3.0,3.89,4.75,3.0,s2448,ter
1.75,3.0,3.89,4.75,3.0,s2448,ter
1.75,3.0,3.89,4.75,3.0,s2448,ter
1.75,3.0,3.89,4.75,3.0,s3118,ter
1.75,3.0,3.89,4.75,3.0,s3118,ter
1.75,3.0,3.89,4.75,3.0,s3118,ter
1.75,3.0,3.89,4.75,3.0,s2342,estar
1.75,3.0,3.89,4.75,3.0,s2702,estar
1.75,3.0,3.89,4.75,3.0,s3767,perder
3.0,3.67,4.22,3.25,3.7,s3006,agasalhar
3.0,3.67,4.22,3.25,3.7,s3007,agasalhar
3.0,3.67,4.22,3.25,3.7,s3008,agasalhar
3.0,3.67,4.22,3.25,3.7,s341,prender
3.0,3.67,4.22,3.25,3.7,s1457,prender
3.0,3.67,4.22,3.25,3.7,s2890,prender
3.0,3.67,4.22,3.25,3.7,s3005,prender
3.0,3.67,4.22,3.25,3.7,s3108,prender
3.0,3.67,4.22,3.25,3.7,s3239,prender
3.0,3.67,4.22,3.25,3.7,s3823,prender
3.0,3.67,4.22,3.25,3.7,s4026,espalhar
3.5,3.78,2.67,3.63,4.3,s2342,estar
3.5,3.78,2.67,3.63,4.3,s2342,estar
3.5,3.78,2.67,3.63,4.3,s2342,estar
3.5,3.78,2.67,3.63,4.3,s2342,estar
3.5,3.78,2.67,3.63,4.3,s2702,estar
3.5,3.78,2.67,3.63,4.3,s2702,estar
3.5,3.78,2.67,3.63,4.3,s2702,estar
3.5,3.78,2.67,3.63,4.3,s2702,estar
3.5,3.78,2.67,3.63,4.3,s341,prender
3.5,3.78,2.67,3.63,4.3,s1457,prender
3.5,3.78,2.67,3.63,4.3,s2890,prender
3.5,3.78,2.67,3.63,4.3,s3005,prender
3.5,3.78,2.67,3.63,4.3,s3108,prender
3.5,3.78,2.67,3.63,4.3,s3239,prender
3.5,3.78,2.67,3.63,4.3,s3823,prender
3.5,3.78,2.67,3.63,4.3,s3006,agasalhar
3.5,3.78,2.67,3.63,4.3,s3007,agasalhar
3.5,3.78,2.67,3.63,4.3,s3008,agasalhar
3.5,3.78,2.67,3.63,4.3,s798,calçar
3.5,3.78,2.67,3.63,4.3,s840,calçar
3.5,3.78,2.67,3.63,4.3,s2342,haver
3.5,3.78,2.67,3.63,4.3,s4026,espalhar
2.88,2.11,4.56,5.0,4.8,s2342,estar
2.88,2.11,4.56,5.0,4.8,s2342,estar
2.88,2.11,4.56,5.0,4.8,s2702,estar
2.88,2.11,4.56,5.0,4.8,s2702,estar
2.88,2.11,4.56,5.0,4.8,s3953,rodear
2.88,2.11,4.56,5.0,4.8,s3733,acalmar
2.88,2.11,4.56,5.0,4.8,s3852,acalmar
2.88,2.11,4.56,5.0,4.8,s3666,disfarçar
2.88,2.11,4.56,5.0,4.8,s2342,ser
2.88,2.11,4.56,5.0,4.8,s2501,ser
2.88,2.11,4.56,5.0,4.8,s3022,ser
3.38,3.56,2.78,4.13,4.0,s2342,estar
3.38,3.56,2.78,4.13,4.0,s2342,estar
3.38,3.56,2.78,4.13,4.0,s2342,estar
3.38,3.56,2.78,4.13,4.0,s2702,estar
3.38,3.56,2.78,4.13,4.0,s2702,estar
3.38,3.56,2.78,4.13,4.0,s2702,estar
3.38,3.56,2.78,4.13,4.0,s3953,cercar
4.13,4.11,3.33,2.75,3.8,s2448,ter
4.13,4.11,3.33,2.75,3.8,s3118,ter
4.13,4.11,3.33,2.75,3.8,s2342,haver
4.13,4.11,3.33,2.75,3.8,s4026,espalhar
4.13,4.11,3.33,2.75,3.8,s2342,estar
4.13,4.11,3.33,2.75,3.8,s2342,estar
4.13,4.11,3.33,2.75,3.8,s2702,estar
4.13,4.11,3.33,2.75,3.8,s2702,estar
4.13,4.11,3.33,2.75,3.8,s3717,expor
4.13,4.11,3.33,2.75,3.8,s3006,agasalhar
4.13,4.11,3.33,2.75,3.8,s3007,agasalhar
4.13,4.11,3.33,2.75,3.8,s3008,agasalhar
3.88,4.89,2.89,1.75,3.7,s2441,abraçar
3.88,4.89,2.89,1.75,3.7,s2441,abraçar
3.88,4.89,2.89,1.75,3.7,s2464,abraçar
3.88,4.89,2.89,1.75,3.7,s2464,abraçar
3.88,4.89,2.89,1.75,3.7,s3953,abraçar
3.88,4.89,2.89,1.75,3.7,s3953,abraçar
3.88,4.89,2.89,1.75,3.7,s2342,estar
3.88,4.89,2.89,1.75,3.7,s2342,estar
3.88,4.89,2.89,1.75,3.7,s2702,estar
3.88,4.89,2.89,1.75,3.7,s2702,estar
3.88,4.89,2.89,1.75,3.7,s2448,ter
3.88,4.89,2.89,1.75,3.7,s3118,ter
3.88,4.89,2.89,1.75,3.7,s1885,amontoar
3.88,4.89,2.89,1.75,3.7,s3817,amontoar
2.88,3.44,3.0,2.13,3.7,s1897,envolver
2.88,3.44,3.0,2.13,3.7,s3445,envolver
2.88,3.44,3.0,2.13,3.7,s3953,envolver
2.88,3.44,3.0,2.13,3.7,s4026,espalhar
2.88,3.44,3.0,2.13,3.7,s2448,ter
2.88,3.44,3.0,2.13,3.7,s3118,ter
2.88,3.44,3.0,2.13,3.7,s2342,haver
2.88,3.44,3.0,2.13,3.7,s1783,olhar
2.88,3.44,3.0,2.13,3.7,s3625,olhar
2.88,3.44,3.0,2.13,3.7,s2342,estar
2.88,3.44,3.0,2.13,3.7,s2702,estar
2.88,3.44,3.0,2.13,3.7,s1777,vestir
2.88,3.44,3.0,2.13,3.7,s3504,vestir
2.88,3.44,3.0,2.13,3.7,s3819,vestir
2.88,3.44,3.0,2.13,3.7,s1884,arrumar
2.88,3.44,3.0,2.13,3.7,s2794,arrumar
4.0,3.89,3.78,2.25,3.9,s2342,estar
4.0,3.89,3.78,2.25,3.9,s2342,estar
4.0,3.89,3.78,2.25,3.9,s2342,estar
4.0,3.89,3.78,2.25,3.9,s2702,estar
4.0,3.89,3.78,2.25,3.9,s2702,estar
4.0,3.89,3.78,2.25,3.9,s2702,estar
4.0,3.89,3.78,2.25,3.9,s2342,ser
4.0,3.89,3.78,2.25,3.9,s2501,ser
4.0,3.89,3.78,2.25,3.9,s3022,ser
4.0,3.89,3.78,2.25,3.9,s2448,ter
4.0,3.89,3.78,2.25,3.9,s3118,ter
3.25,3.11,4.0,2.88,4.1,s2342,estar
3.25,3.11,4.0,2.88,4.1,s2342,estar
3.25,3.11,4.0,2.88,4.1,s2342,estar
3.25,3.11,4.0,2.88,4.1,s2702,estar
3.25,3.11,4.0,2.88,4.1,s2702,estar
3.25,3.11,4.0,2.88,4.1,s2702,estar
3.25,3.11,4.0,2.88,4.1,s2448,ter
3.25,3.11,4.0,2.88,4.1,s2448,ter
3.25,3.11,4.0,2.88,4.1,s3118,ter
3.25,3.11,4.0,2.88,4.1,s3118,ter
4.13,3.44,2.67,1.88,3.6,s2342,estar
4.13,3.44,2.67,1.88,3.6,s2342,estar
4.13,3.44,2.67,1.88,3.6,s2702,estar
4.13,3.44,2.67,1.88,3.6,s2702,estar
4.13,3.44,2.67,1.88,3.6,s2342,ser
4.13,3.44,2.67,1.88,3.6,s2501,ser
4.13,3.44,2.67,1.88,3.6,s3022,ser
4.13,3.44,2.67,1.88,3.6,s1365,consolar
4.13,3.44,2.67,1.88,3.6,s1505,consolar
4.13,3.44,2.67,1.88,3.6,s3897,caracterizar
4.13,3.44,2.67,1.88,3.6,s4013,caracterizar
4.13,3.44,2.67,1.88,3.6,s2448,ter
4.13,3.44,2.67,1.88,3.6,s3118,ter
4.13,3.44,2.67,1.88,3.6,s3767,perder
4.0,4.44,3.44,1.5,4.0,s2342,estar
4.0,4.44,3.44,1.5,4.0,s2342,estar
4.0,4.44,3.44,1.5,4.0,s2702,estar
4.0,4.44,3.44,1.5,4.0,s2702,estar
4.0,4.44,3.44,1.5,4.0,s2342,ser
4.0,4.44,3.44,1.5,4.0,s2501,ser
4.0,4.44,3.44,1.5,4.0,s3022,ser
4.0,4.44,3.44,1.5,4.0,s3953,rodear
4.0,4.78,3.56,1.38,3.6,s1777,vestir
4.0,4.78,3.56,1.38,3.6,s3504,vestir
4.0,4.78,3.56,1.38,3.6,s3819,vestir
4.75,4.56,4.33,3.88,3.9,s3716,mostrar
4.75,4.56,4.33,3.88,3.9,s3717,mostrar
4.75,4.56,4.33,3.88,3.9,s4026,espalhar
4.75,4.56,4.33,3.88,3.9,s1579,encontrar
4.75,4.56,4.33,3.88,3.9,s2441,abraçar
4.75,4.56,4.33,3.88,3.9,s2464,abraçar
4.75,4.56,4.33,3.88,3.9,s3953,abraçar
4.75,4.56,4.33,3.88,3.9,s2342,estar
4.75,4.56,4.33,3.88,3.9,s2702,estar
4.75,4.56,4.33,3.88,3.9,s2342,ser
4.75,4.56,4.33,3.88,3.9,s2501,ser
4.75,4.56,4.33,3.88,3.9,s3022,ser
4.75,4.56,4.33,3.88,3.9,s3006,acolher
2.25,3.22,3.67,3.25,3.5,s40,agachar
2.25,3.22,3.67,3.25,3.5,s2441,abraçar
2.25,3.22,3.67,3.25,3.5,s2464,abraçar
2.25,3.22,3.67,3.25,3.5,s3953,abraçar
2.25,3.22,3.67,3.25,3.5,s2342,estar
2.25,3.22,3.67,3.25,3.5,s2702,estar
2.25,3.22,3.67,3.25,3.5,s1579,encontrar
2.25,3.22,3.67,3.25,3.5,s2448,ter
2.25,3.22,3.67,3.25,3.5,s3118,ter
2.25,3.22,3.67,3.25,3.5,s1854,brigar
2.25,3.22,3.67,3.25,3.5,s2342,ser
2.25,3.22,3.67,3.25,3.5,s2501,ser
2.25,3.22,3.67,3.25,3.5,s3022,ser
3.63,3.56,2.33,4.13,3.6,s2342,estar
3.63,3.56,2.33,4.13,3.6,s2342,estar
3.63,3.56,2.33,4.13,3.6,s2342,estar
3.63,3.56,2.33,4.13,3.6,s2702,estar
3.63,3.56,2.33,4.13,3.6,s2702,estar
3.63,3.56,2.33,4.13,3.6,s2702,estar
3.63,3.56,2.33,4.13,3.6,s1783,olhar
3.63,3.56,2.33,4.13,3.6,s3625,olhar
3.63,3.56,2.33,4.13,3.6,s4026,espalhar
3.25,3.33,4.44,2.5,3.5,s2342,estar
3.25,3.33,4.44,2.5,3.5,s2342,estar
3.25,3.33,4.44,2.5,3.5,s2702,estar
3.25,3.33,4.44,2.5,3.5,s2702,estar
3.25,3.33,4.44,2.5,3.5,s1783,olhar
3.25,3.33,4.44,2.5,3.5,s3625,olhar
3.25,3.33,4.44,2.5,3.5,s2448,ter
3.25,3.33,4.44,2.5,3.5,s3118,ter
3.25,3.33,4.44,2.5,3.5,s4026,espalhar
2.25,3.44,2.22,4.25,3.5,s969,ver
2.25,3.44,2.22,4.25,3.5,s3434,ver
2.25,3.44,2.22,4.25,3.5,s3756,ver
2.25,3.44,2.22,4.25,3.5,s3716,indicar
2.25,3.44,2.22,4.25,3.5,s2342,ser
2.25,3.44,2.22,4.25,3.5,s2501,ser
2.25,3.44,2.22,4.25,3.5,s3022,ser
2.25,3.44,2.22,4.25,3.5,s2342,estar
2.25,3.44,2.22,4.25,3.5,s2702,estar
2.25,3.44,2.22,4.25,3.5,s2342,haver
2.25,3.44,2.22,4.25,3.5,s4026,espalhar
3.88,3.78,4.33,3.0,4.4,s2342,estar
3.88,3.78,4.33,3.0,4.4,s2342,estar
3.88,3.78,4.33,3.0,4.4,s2702,estar
3.88,3.78,4.33,3.0,4.4,s2702,estar
3.88,3.78,4.33,3.0,4.4,s3716,demonstrar
3.88,3.78,4.33,3.0,4.4,s2448,desfrutar
2.0,2.67,1.78,3.5,4.2,s2342,estar
2.0,2.67,1.78,3.5,4.2,s2342,estar
2.0,2.67,1.78,3.5,4.2,s2702,estar
2.0,2.67,1.78,3.5,4.2,s2702,estar
2.0,2.67,1.78,3.5,4.2,s2342,ser
2.0,2.67,1.78,3.5,4.2,s2501,ser
2.0,2.67,1.78,3.5,4.2,s3022,ser
2.0,2.67,1.78,3.5,4.2,s2342,haver
2.0,2.67,1.78,3.5,4.2,s2342,haver
2.25,3.78,3.56,3.63,3.7,s2342,existir
2.25,3.78,3.56,3.63,3.7,s2448,ter
2.25,3.78,3.56,3.63,3.7,s3118,ter
2.25,3.78,3.56,3.63,3.7,s2342,estar
2.25,3.78,3.56,3.63,3.7,s2342,estar
2.25,3.78,3.56,3.63,3.7,s2702,estar
2.25,3.78,3.56,3.63,3.7,s2702,estar
3.25,3.0,3.0,3.25,3.9,s2448,ter
3.25,3.0,3.0,3.25,3.9,s3118,ter
3.25,3.0,3.0,3.25,3.9,s341,prender
3.25,3.0,3.0,3.25,3.9,s1457,prender
3.25,3.0,3.0,3.25,3.9,s2890,prender
3.25,3.0,3.0,3.25,3.9,s3005,prender
3.25,3.0,3.0,3.25,3.9,s3108,prender
3.25,3.0,3.0,3.25,3.9,s3239,prender
3.25,3.0,3.0,3.25,3.9,s3823,prender
3.25,3.0,3.0,3.25,3.9,s2342,ser
3.25,3.0,3.0,3.25,3.9,s2501,ser
3.25,3.0,3.0,3.25,3.9,s3022,ser
3.25,3.0,3.0,3.25,3.9,s2342,estar
3.25,3.0,3.0,3.25,3.9,s2342,estar
3.25,3.0,3.0,3.25,3.9,s2702,estar
3.25,3.0,3.0,3.25,3.9,s2702,estar
3.25,3.0,3.0,3.25,3.9,s2860,usar
3.25,3.0,3.0,3.25,3.9,s4026,espalhar
1.75,3.89,3.0,2.38,3.7,s2342,estar
1.75,3.89,3.0,2.38,3.7,s2342,estar
1.75,3.89,3.0,2.38,3.7,s2702,estar
1.75,3.89,3.0,2.38,3.7,s2702,estar
1.75,3.89,3.0,2.38,3.7,s2441,abraçar
1.75,3.89,3.0,2.38,3.7,s2464,abraçar
1.75,3.89,3.0,2.38,3.7,s3953,abraçar
1.75,3.89,3.0,2.38,3.7,s969,ver
1.75,3.89,3.0,2.38,3.7,s3434,ver
1.75,3.89,3.0,2.38,3.7,s3756,ver
1.75,3.89,3.0,2.38,3.7,s3006,agasalhar
1.75,3.89,3.0,2.38,3.7,s3007,agasalhar
1.75,3.89,3.0,2.38,3.7,s3008,agasalhar
1.75,3.89,3.0,2.38,3.7,s1777,vestir
1.75,3.89,3.0,2.38,3.7,s3504,vestir
1.75,3.89,3.0,2.38,3.7,s3819,vestir
1.75,3.89,3.0,2.38,3.7,s1783,olhar
1.75,3.89,3.0,2.38,3.7,s3625,olhar
2.0,3.11,2.22,1.88,2.7,s2342,estar
2.0,3.11,2.22,1.88,2.7,s2342,estar
2.0,3.11,2.22,1.88,2.7,s2342,estar
2.0,3.11,2.22,1.88,2.7,s2342,estar
2.0,3.11,2.22,1.88,2.7,s2342,estar
2.0,3.11,2.22,1.88,2.7,s2702,estar
2.0,3.11,2.22,1.88,2.7,s2702,estar
2.0,3.11,2.22,1.88,2.7,s2702,estar
2.0,3.11,2.22,1.88,2.7,s2702,estar
2.0,3.11,2.22,1.88,2.7,s2702,estar
2.0,3.11,2.22,1.88,2.7,s2441,abraçar
2.0,3.11,2.22,1.88,2.7,s2464,abraçar
2.0,3.11,2.22,1.88,2.7,s3953,abraçar
2.0,3.11,2.22,1.88,2.7,s2342,haver
2.0,3.11,2.22,1.88,2.7,s2342,haver
2.0,3.11,2.22,1.88,2.7,s680,quebrar
2.0,3.11,2.22,1.88,2.7,s2281,quebrar
2.0,3.11,2.22,1.88,2.7,s2938,quebrar
2.0,3.11,2.22,1.88,2.7,s3852,quebrar
2.0,3.11,2.22,1.88,2.7,s2869,fazer
2.0,3.11,2.22,1.88,2.7,s2873,fazer
3.25,4.11,3.44,3.38,4.3,s2441,abraçar
3.25,4.11,3.44,3.38,4.3,s2464,abraçar
3.25,4.11,3.44,3.38,4.3,s3953,abraçar
3.25,4.11,3.44,3.38,4.3,s3953,rodear
3.25,4.11,3.44,3.38,4.3,s2342,ser
3.25,4.11,3.44,3.38,4.3,s2342,ser
3.25,4.11,3.44,3.38,4.3,s2342,ser
3.25,4.11,3.44,3.38,4.3,s2342,ser
3.25,4.11,3.44,3.38,4.3,s2501,ser
3.25,4.11,3.44,3.38,4.3,s2501,ser
3.25,4.11,3.44,3.38,4.3,s2501,ser
3.25,4.11,3.44,3.38,4.3,s2501,ser
3.25,4.11,3.44,3.38,4.3,s3022,ser
3.25,4.11,3.44,3.38,4.3,s3022,ser
3.25,4.11,3.44,3.38,4.3,s3022,ser
3.25,4.11,3.44,3.38,4.3,s3022,ser
3.25,4.11,3.44,3.38,4.3,s2448,ter
3.25,4.11,3.44,3.38,4.3,s2448,ter
3.25,4.11,3.44,3.38,4.3,s3118,ter
3.25,4.11,3.44,3.38,4.3,s3118,ter
3.25,4.11,3.44,3.38,4.3,s828,comprar
3.25,4.11,3.44,3.38,4.3,s2342,estar
3.25,4.11,3.44,3.38,4.3,s2702,estar
3.25,4.11,3.44,3.38,4.3,s116,receber
3.25,4.11,3.44,3.38,4.3,s3007,receber
3.25,4.11,3.44,3.38,4.3,s3022,trazer
3.5,3.44,3.56,4.13,3.2,s2342,ser
3.5,3.44,3.56,4.13,3.2,s2342,ser
3.5,3.44,3.56,4.13,3.2,s2342,ser
3.5,3.44,3.56,4.13,3.2,s2501,ser
3.5,3.44,3.56,4.13,3.2,s2501,ser
3.5,3.44,3.56,4.13,3.2,s2501,ser
3.5,3.44,3.56,4.13,3.2,s3022,ser
3.5,3.44,3.56,4.13,3.2,s3022,ser
3.5,3.44,3.56,4.13,3.2,s3022,ser
3.5,3.44,3.56,4.13,3.2,s2342,estar
3.5,3.44,3.56,4.13,3.2,s2342,estar
3.5,3.44,3.56,4.13,3.2,s2342,estar
3.5,3.44,3.56,4.13,3.2,s2702,estar
3.5,3.44,3.56,4.13,3.2,s2702,estar
3.5,3.44,3.56,4.13,3.2,s2702,estar
3.5,3.44,3.56,4.13,3.2,s2441,abraçar
3.5,3.44,3.56,4.13,3.2,s2464,abraçar
3.5,3.44,3.56,4.13,3.2,s3953,abraçar
3.5,3.44,3.56,4.13,3.2,s2342,haver
3.5,3.44,3.56,4.13,3.2,s4026,espalhar
3.5,3.44,3.56,4.13,3.2,s1108,desabrigar
3.5,3.44,3.56,4.13,3.2,s4115,desolar
4.63,3.56,2.67,3.5,2.8,s2342,estar
4.63,3.56,2.67,3.5,2.8,s2342,estar
4.63,3.56,2.67,3.5,2.8,s2702,estar
4.63,3.56,2.67,3.5,2.8,s2702,estar
4.63,3.56,2.67,3.5,2.8,s4026,espalhar
4.63,3.56,2.67,3.5,2.8,s1783,olhar
4.63,3.56,2.67,3.5,2.8,s3625,olhar
2.88,3.44,3.78,3.13,4.6,s3716,mostrar
2.88,3.44,3.78,3.13,4.6,s3717,mostrar
2.88,3.44,3.78,3.13,4.6,s2342,ser
2.88,3.44,3.78,3.13,4.6,s2501,ser
2.88,3.44,3.78,3.13,4.6,s3022,ser
2.88,3.44,3.78,3.13,4.6,s2441,abraçar
2.88,3.44,3.78,3.13,4.6,s2464,abraçar
2.88,3.44,3.78,3.13,4.6,s3953,abraçar
2.88,3.44,3.78,3.13,4.6,s1579,encontrar
2.88,3.44,3.78,3.13,4.6,s2342,estar
2.88,3.44,3.78,3.13,4.6,s2342,estar
2.88,3.44,3.78,3.13,4.6,s2702,estar
2.88,3.44,3.78,3.13,4.6,s2702,estar
2.88,3.44,3.78,3.13,4.6,s2778,retratar
2.88,3.44,3.78,3.13,4.6,s2177,passar
2.88,3.44,3.78,3.13,4.6,s3717,passar
2.88,3.44,3.78,3.13,4.6,s1365,consolar
2.88,3.44,3.78,3.13,4.6,s1505,consolar
3.38,3.0,3.56,2.25,4.0,s3141,começar
3.38,3.0,3.56,2.25,4.0,s1317,estender
3.38,3.0,3.56,2.25,4.0,s4053,estender
3.38,3.0,3.56,2.25,4.0,s2342,haver
3.38,3.0,3.56,2.25,4.0,s1854,brigar
3.38,3.0,3.56,2.25,4.0,s2342,ser
3.38,3.0,3.56,2.25,4.0,s2501,ser
3.38,3.0,3.56,2.25,4.0,s3022,ser
3.38,3.0,3.56,2.25,4.0,s3964,ensinar
3.38,3.0,3.56,2.25,4.0,s1854,dividir
3.38,3.0,3.56,2.25,4.0,s2076,dividir
3.38,3.0,3.56,2.25,4.0,s2562,dividir
3.38,3.0,3.56,2.25,4.0,s1617,divertir
3.38,3.0,3.56,2.25,4.0,s2391,respeitar
3.38,3.0,3.56,2.25,4.0,s3369,respeitar
3.38,3.0,3.56,2.25,4.0,s1365,consolar
3.38,3.0,3.56,2.25,4.0,s1505,consolar
3.38,3.0,3.56,2.25,4.0,s727,ir
3.38,3.0,3.56,2.25,4.0,s1892,ir
3.38,3.0,3.56,2.25,4.0,s2099,ir
3.38,3.0,3.56,2.25,4.0,s3151,dar
3.38,3.0,3.56,2.25,4.0,s3716,dar
3.38,3.0,3.56,2.25,4.0,s4026,dar
2.63,4.11,3.56,3.0,3.5,s2778,retratar
2.63,4.11,3.56,3.0,3.5,s4026,espalhar
2.63,4.11,3.56,3.0,3.5,s2342,estar
2.63,4.11,3.56,3.0,3.5,s2702,estar
2.63,4.11,3.56,3.0,3.5,s1365,consolar
2.63,4.11,3.56,3.0,3.5,s1505,consolar
2.63,4.11,3.56,3.0,3.5,s1213,apoiar
2.75,3.78,2.33,3.38,3.3,s2342,haver
2.75,3.78,2.33,3.38,3.3,s2342,haver
2.75,3.78,2.33,3.38,3.3,s2342,haver
2.75,3.78,2.33,3.38,3.3,s2448,ter
2.75,3.78,2.33,3.38,3.3,s3118,ter
2.75,3.78,2.33,3.38,3.3,s2342,ser
2.75,3.78,2.33,3.38,3.3,s2342,ser
2.75,3.78,2.33,3.38,3.3,s2501,ser
2.75,3.78,2.33,3.38,3.3,s2501,ser
2.75,3.78,2.33,3.38,3.3,s3022,ser
2.75,3.78,2.33,3.38,3.3,s3022,ser
2.75,3.78,2.33,3.38,3.3,s4026,espalhar
4.13,4.22,4.22,1.88,3.6,s2778,retratar
4.13,4.22,4.22,1.88,3.6,s2342,ser
4.13,4.22,4.22,1.88,3.6,s2501,ser
4.13,4.22,4.22,1.88,3.6,s3022,ser
4.13,4.22,4.22,1.88,3.6,s416,tirar
4.13,4.22,4.22,1.88,3.6,s1208,tirar
4.13,4.22,4.22,1.88,3.6,s1617,tirar
4.13,4.22,4.22,1.88,3.6,s2227,tirar
4.13,4.22,4.22,1.88,3.6,s3031,tirar
4.13,4.22,4.22,1.88,3.6,s3643,tirar
4.13,4.22,4.22,1.88,3.6,s2342,haver
4.13,4.22,4.22,1.88,3.6,s4026,espalhar
3.25,3.11,2.44,1.63,2.4,s3716,mostrar
3.25,3.11,2.44,1.63,2.4,s3717,mostrar
3.25,3.11,2.44,1.63,2.4,s341,segurar
3.25,3.11,2.44,1.63,2.4,s3005,segurar
3.25,3.11,2.44,1.63,2.4,s4043,segurar
3.25,3.11,2.44,1.63,2.4,s2448,ter
3.25,3.11,2.44,1.63,2.4,s3118,ter
3.25,3.11,2.44,1.63,2.4,s2342,estar
3.25,3.11,2.44,1.63,2.4,s2702,estar
3.25,3.11,2.44,1.63,2.4,s2342,ser
3.25,3.11,2.44,1.63,2.4,s2501,ser
3.25,3.11,2.44,1.63,2.4,s3022,ser
3.25,3.11,2.44,1.63,2.4,s969,ver
3.25,3.11,2.44,1.63,2.4,s3434,ver
3.25,3.11,2.44,1.63,2.4,s3756,ver
3.25,3.11,2.44,1.63,2.4,s4026,espalhar
3.13,3.89,3.89,2.63,3.6,s2448,ter
3.13,3.89,3.89,2.63,3.6,s3118,ter
3.13,3.89,3.89,2.63,3.6,s2342,estar
3.13,3.89,3.89,2.63,3.6,s2342,estar
3.13,3.89,3.89,2.63,3.6,s2702,estar
3.13,3.89,3.89,2.63,3.6,s2702,estar
4.25,4.11,1.56,3.75,3.7,s3141,abrir
4.25,4.11,1.56,3.75,3.7,s3279,abrir
4.25,4.11,1.56,3.75,3.7,s341,segurar
4.25,4.11,1.56,3.75,3.7,s3005,segurar
4.25,4.11,1.56,3.75,3.7,s4043,segurar
4.25,4.11,1.56,3.75,3.7,s2441,abraçar
4.25,4.11,1.56,3.75,3.7,s2464,abraçar
4.25,4.11,1.56,3.75,3.7,s3953,abraçar
4.25,4.11,1.56,3.75,3.7,s2342,estar
4.25,4.11,1.56,3.75,3.7,s2702,estar
4.25,4.11,1.56,3.75,3.7,s2342,haver
4.25,4.11,1.56,3.75,3.7,s4026,espalhar
4.25,4.11,1.56,3.75,3.7,s1777,vestir
4.25,4.11,1.56,3.75,3.7,s3504,vestir
4.25,4.11,1.56,3.75,3.7,s3819,vestir
2.63,3.22,4.0,2.13,3.7,s2342,ser
2.63,3.22,4.0,2.13,3.7,s2501,ser
2.63,3.22,4.0,2.13,3.7,s3022,ser
2.63,3.22,4.0,2.13,3.7,s2342,estar
2.63,3.22,4.0,2.13,3.7,s2342,estar
2.63,3.22,4.0,2.13,3.7,s2342,estar
2.63,3.22,4.0,2.13,3.7,s2342,estar
2.63,3.22,4.0,2.13,3.7,s2702,estar
2.63,3.22,4.0,2.13,3.7,s2702,estar
2.63,3.22,4.0,2.13,3.7,s2702,estar
2.63,3.22,4.0,2.13,3.7,s2702,estar
2.63,3.22,4.0,2.13,3.7,s2441,abraçar
2.63,3.22,4.0,2.13,3.7,s2464,abraçar
2.63,3.22,4.0,2.13,3.7,s3953,abraçar
2.63,3.22,4.0,2.13,3.7,s3767,perder
3.25,3.33,3.0,2.63,3.9,s341,segurar
3.25,3.33,3.0,2.63,3.9,s3005,segurar
3.25,3.33,3.0,2.63,3.9,s4043,segurar
3.25,3.33,3.0,2.63,3.9,s1579,encontrar
3.25,3.33,3.0,2.63,3.9,s1579,encontrar
3.25,3.33,3.0,2.63,3.9,s2342,ser
3.25,3.33,3.0,2.63,3.9,s2501,ser
3.25,3.33,3.0,2.63,3.9,s3022,ser
3.38,3.67,4.56,3.75,3.6,s2342,estar
3.38,3.67,4.56,3.75,3.6,s2342,estar
3.38,3.67,4.56,3.75,3.6,s2342,estar
3.38,3.67,4.56,3.75,3.6,s2342,estar
3.38,3.67,4.56,3.75,3.6,s2342,estar
3.38,3.67,4.56,3.75,3.6,s2702,estar
3.38,3.67,4.56,3.75,3.6,s2702,estar
3.38,3.67,4.56,3.75,3.6,s2702,estar
3.38,3.67,4.56,3.75,3.6,s2702,estar
3.38,3.67,4.56,3.75,3.6,s2702,estar
3.38,3.67,4.56,3.75,3.6,s1783,olhar
3.38,3.67,4.56,3.75,3.6,s1783,olhar
3.38,3.67,4.56,3.75,3.6,s1783,olhar
3.38,3.67,4.56,3.75,3.6,s3625,olhar
3.38,3.67,4.56,3.75,3.6,s3625,olhar
3.38,3.67,4.56,3.75,3.6,s3625,olhar
3.38,3.67,4.56,3.75,3.6,s3239,amarrar
3.38,3.67,4.56,3.75,3.6,s3239,amarrar
3.38,3.67,4.56,3.75,3.6,s2342,ser
3.38,3.67,4.56,3.75,3.6,s2501,ser
3.38,3.67,4.56,3.75,3.6,s3022,ser
2.63,3.33,3.56,2.75,3.8,s2342,estar
2.63,3.33,3.56,2.75,3.8,s2342,estar
2.63,3.33,3.56,2.75,3.8,s2702,estar
2.63,3.33,3.56,2.75,3.8,s2702,estar
2.63,3.33,3.56,2.75,3.8,s2342,ser
2.63,3.33,3.56,2.75,3.8,s2501,ser
2.63,3.33,3.56,2.75,3.8,s3022,ser
2.63,3.33,3.56,2.75,3.8,s4026,espalhar
2.25,4.44,4.0,2.88,4.7,s2342,haver
2.25,4.44,4.0,2.88,4.7,s2342,haver
2.25,4.44,4.0,2.88,4.7,s2342,estar
2.25,4.44,4.0,2.88,4.7,s2702,estar
2.25,4.44,4.0,2.88,4.7,s2448,possuir
2.25,4.44,4.0,2.88,4.7,s3118,possuir
2.25,4.44,4.0,2.88,4.7,s1777,vestir
2.25,4.44,4.0,2.88,4.7,s3504,vestir
2.25,4.44,4.0,2.88,4.7,s3819,vestir
2.25,4.44,4.0,2.88,4.7,s4026,espalhar
2.25,4.44,4.0,2.88,4.7,s1783,olhar
2.25,4.44,4.0,2.88,4.7,s3625,olhar
2.25,4.44,4.0,2.88,4.7,s3716,demonstrar
2.13,4.44,3.89,2.13,4.0,s475,aparecer
2.13,4.44,3.89,2.13,4.0,s2143,aparecer
2.13,4.44,3.89,2.13,4.0,s2342,ser
2.13,4.44,3.89,2.13,4.0,s2342,ser
2.13,4.44,3.89,2.13,4.0,s2501,ser
2.13,4.44,3.89,2.13,4.0,s2501,ser
2.13,4.44,3.89,2.13,4.0,s3022,ser
2.13,4.44,3.89,2.13,4.0,s3022,ser
2.13,4.44,3.89,2.13,4.0,s2342,estar
2.13,4.44,3.89,2.13,4.0,s2702,estar
2.13,4.44,3.89,2.13,4.0,s2448,ter
2.13,4.44,3.89,2.13,4.0,s3118,ter
2.13,4.44,3.89,2.13,4.0,s4026,espalhar
2.13,4.44,3.89,2.13,4.0,s2860,usar
3.75,4.22,4.44,1.38,4.5,s2270,cruzar
3.75,4.22,4.44,1.38,4.5,s2342,estar
3.75,4.22,4.44,1.38,4.5,s2342,estar
3.75,4.22,4.44,1.38,4.5,s2342,estar
3.75,4.22,4.44,1.38,4.5,s2702,estar
3.75,4.22,4.44,1.38,4.5,s2702,estar
3.75,4.22,4.44,1.38,4.5,s2702,estar
3.75,4.22,4.44,1.38,4.5,s2448,ter
3.75,4.22,4.44,1.38,4.5,s2448,ter
3.75,4.22,4.44,1.38,4.5,s2448,ter
3.75,4.22,4.44,1.38,4.5,s2448,ter
3.75,4.22,4.44,1.38,4.5,s3118,ter
3.75,4.22,4.44,1.38,4.5,s3118,ter
3.75,4.22,4.44,1.38,4.5,s3118,ter
3.75,4.22,4.44,1.38,4.5,s3118,ter
3.75,4.22,4.44,1.38,4.5,s2342,ser
3.75,4.22,4.44,1.38,4.5,s2501,ser
3.75,4.22,4.44,1.38,4.5,s3022,ser
3.75,4.22,4.44,1.38,4.5,s341,prender
3.75,4.22,4.44,1.38,4.5,s1457,prender
3.75,4.22,4.44,1.38,4.5,s2890,prender
3.75,4.22,4.44,1.38,4.5,s3005,prender
3.75,4.22,4.44,1.38,4.5,s3108,prender
3.75,4.22,4.44,1.38,4.5,s3239,prender
3.75,4.22,4.44,1.38,4.5,s3823,prender
2.88,3.44,2.56,2.13,4.1,s1777,vestir
2.88,3.44,2.56,2.13,4.1,s1777,vestir
2.88,3.44,2.56,2.13,4.1,s3504,vestir
2.88,3.44,2.56,2.13,4.1,s3504,vestir
2.88,3.44,2.56,2.13,4.1,s3819,vestir
2.88,3.44,2.56,2.13,4.1,s3819,vestir
2.88,3.44,2.56,2.13,4.1,s2441,abraçar
2.88,3.44,2.56,2.13,4.1,s2464,abraçar
2.88,3.44,2.56,2.13,4.1,s3953,abraçar
2.88,3.44,2.56,2.13,4.1,s2860,usar
2.88,3.44,2.56,2.13,4.1,s2342,ser
2.88,3.44,2.56,2.13,4.1,s2342,ser
2.88,3.44,2.56,2.13,4.1,s2342,ser
2.88,3.44,2.56,2.13,4.1,s2501,ser
2.88,3.44,2.56,2.13,4.1,s2501,ser
2.88,3.44,2.56,2.13,4.1,s2501,ser
2.88,3.44,2.56,2.13,4.1,s3022,ser
2.88,3.44,2.56,2.13,4.1,s3022,ser
2.88,3.44,2.56,2.13,4.1,s3022,ser
2.88,3.44,2.56,2.13,4.1,s2448,ter
2.88,3.44,2.56,2.13,4.1,s3118,ter
2.88,3.44,2.56,2.13,4.1,s2342,estar
2.88,3.44,2.56,2.13,4.1,s2342,estar
2.88,3.44,2.56,2.13,4.1,s2342,estar
2.88,3.44,2.56,2.13,4.1,s2702,estar
2.88,3.44,2.56,2.13,4.1,s2702,estar
2.88,3.44,2.56,2.13,4.1,s2702,estar
2.88,3.44,2.56,2.13,4.1,s969,ver
2.88,3.44,2.56,2.13,4.1,s969,ver
2.88,3.44,2.56,2.13,4.1,s3434,ver
2.88,3.44,2.56,2.13,4.1,s3434,ver
2.88,3.44,2.56,2.13,4.1,s3756,ver
2.88,3.44,2.56,2.13,4.1,s3756,ver
3.88,3.33,3.44,2.5,3.8,s2448,ter
3.88,3.33,3.44,2.5,3.8,s3118,ter
3.88,3.33,3.44,2.5,3.8,s1783,olhar
3.88,3.33,3.44,2.5,3.8,s3625,olhar
3.88,3.33,3.44,2.5,3.8,s2342,estar
3.88,3.33,3.44,2.5,3.8,s2702,estar
3.88,3.33,3.44,2.5,3.8,s3953,cercar
2.13,3.56,2.89,2.25,3.5,s798,calçar
2.13,3.56,2.89,2.25,3.5,s840,calçar
2.13,3.56,2.89,2.25,3.5,s840,pavimentar
2.13,3.56,2.89,2.25,3.5,s2441,abraçar
2.13,3.56,2.89,2.25,3.5,s2464,abraçar
2.13,3.56,2.89,2.25,3.5,s3953,abraçar
2.13,3.56,2.89,2.25,3.5,s3118,incluir
2.13,3.56,2.89,2.25,3.5,s680,quebrar
2.13,3.56,2.89,2.25,3.5,s2281,quebrar
2.13,3.56,2.89,2.25,3.5,s2938,quebrar
2.13,3.56,2.89,2.25,3.5,s3852,quebrar
2.13,3.56,2.89,2.25,3.5,s1365,consolar
2.13,3.56,2.89,2.25,3.5,s1505,consolar
4.63,4.33,4.0,1.75,4.1,s2342,haver
4.63,4.33,4.0,1.75,4.1,s2342,haver
4.63,4.33,4.0,1.75,4.1,s1783,olhar
4.63,4.33,4.0,1.75,4.1,s3625,olhar
4.63,4.33,4.0,1.75,4.1,s341,segurar
4.63,4.33,4.0,1.75,4.1,s3005,segurar
4.63,4.33,4.0,1.75,4.1,s4043,segurar
4.63,4.33,4.0,1.75,4.1,s2342,estar
4.63,4.33,4.0,1.75,4.1,s2702,estar
4.63,4.33,4.0,1.75,4.1,s341,prender
4.63,4.33,4.0,1.75,4.1,s1457,prender
4.63,4.33,4.0,1.75,4.1,s2890,prender
4.63,4.33,4.0,1.75,4.1,s3005,prender
4.63,4.33,4.0,1.75,4.1,s3108,prender
4.63,4.33,4.0,1.75,4.1,s3239,prender
4.63,4.33,4.0,1.75,4.1,s3823,prender
4.63,4.33,4.0,1.75,4.1,s4026,espalhar
2.25,3.78,3.0,2.38,4.0,s2342,haver
2.25,3.78,3.0,2.38,4.0,s2342,haver
2.25,3.78,3.0,2.38,4.0,s2441,abraçar
2.25,3.78,3.0,2.38,4.0,s2464,abraçar
2.25,3.78,3.0,2.38,4.0,s3953,abraçar
2.25,3.78,3.0,2.38,4.0,s2342,estar
2.25,3.78,3.0,2.38,4.0,s2702,estar
2.25,3.78,3.0,2.38,4.0,s4026,espalhar
2.25,3.78,3.0,2.38,4.0,s1777,vestir
2.25,3.78,3.0,2.38,4.0,s3504,vestir
2.25,3.78,3.0,2.38,4.0,s3819,vestir
2.5,4.33,4.33,2.25,3.9,s341,segurar
2.5,4.33,4.33,2.25,3.9,s3005,segurar
2.5,4.33,4.33,2.25,3.9,s4043,segurar
2.5,4.33,4.33,2.25,3.9,s2342,ser
2.5,4.33,4.33,2.25,3.9,s2501,ser
2.5,4.33,4.33,2.25,3.9,s3022,ser
2.5,4.33,4.33,2.25,3.9,s2342,estar
2.5,4.33,4.33,2.25,3.9,s2342,estar
2.5,4.33,4.33,2.25,3.9,s2342,estar
2.5,4.33,4.33,2.25,3.9,s2702,estar
2.5,4.33,4.33,2.25,3.9,s2702,estar
2.5,4.33,4.33,2.25,3.9,s2702,estar
2.5,4.33,4.33,2.25,3.9,s3953,rodear
3.5,2.78,3.33,3.38,4.1,s2778,retratar
3.5,2.78,3.33,3.38,4.1,s2342,ser
3.5,2.78,3.33,3.38,4.1,s2501,ser
3.5,2.78,3.33,3.38,4.1,s3022,ser
3.5,2.78,3.33,3.38,4.1,s2441,abraçar
3.5,2.78,3.33,3.38,4.1,s2464,abraçar
3.5,2.78,3.33,3.38,4.1,s3953,abraçar
3.5,2.78,3.33,3.38,4.1,s180,proteger
3.5,2.78,3.33,3.38,4.1,s2868,proteger
2.88,3.89,3.78,1.5,4.0,s2342,estar
2.88,3.89,3.78,1.5,4.0,s2342,estar
2.88,3.89,3.78,1.5,4.0,s2342,estar
2.88,3.89,3.78,1.5,4.0,s2702,estar
2.88,3.89,3.78,1.5,4.0,s2702,estar
2.88,3.89,3.78,1.5,4.0,s2702,estar
2.88,3.89,3.78,1.5,4.0,s727,ir
2.88,3.89,3.78,1.5,4.0,s1892,ir
2.88,3.89,3.78,1.5,4.0,s2099,ir
2.75,3.0,4.11,2.63,4.0,s2342,estar
2.75,3.0,4.11,2.63,4.0,s2342,estar
2.75,3.0,4.11,2.63,4.0,s2342,estar
2.75,3.0,4.11,2.63,4.0,s2702,estar
2.75,3.0,4.11,2.63,4.0,s2702,estar
2.75,3.0,4.11,2.63,4.0,s2702,estar
2.75,3.0,4.11,2.63,4.0,s2441,abraçar
2.75,3.0,4.11,2.63,4.0,s2464,abraçar
2.75,3.0,4.11,2.63,4.0,s3953,abraçar
4.25,4.0,3.67,3.13,3.6,s2342,estar
4.25,4.0,3.67,3.13,3.6,s2342,estar
4.25,4.0,3.67,3.13,3.6,s2342,estar
4.25,4.0,3.67,3.13,3.6,s2702,estar
4.25,4.0,3.67,3.13,3.6,s2702,estar
4.25,4.0,3.67,3.13,3.6,s2702,estar
4.25,4.0,3.67,3.13,3.6,s2342,ser
4.25,4.0,3.67,3.13,3.6,s2501,ser
4.25,4.0,3.67,3.13,3.6,s3022,ser
4.25,4.0,3.67,3.13,3.6,s2342,haver
4.25,4.0,3.67,3.13,3.6,s4026,espalhar
1.38,3.56,3.22,1.5,3.25,s2441,abraçar
1.38,3.56,3.22,1.5,3.25,s2464,abraçar
1.38,3.56,3.22,1.5,3.25,s3953,abraçar
1.38,3.56,3.22,1.5,3.25,s3141,abrir
1.38,3.56,3.22,1.5,3.25,s3279,abrir
1.38,3.56,3.22,1.5,3.25,s2342,estar
1.38,3.56,3.22,1.5,3.25,s2342,estar
1.38,3.56,3.22,1.5,3.25,s2342,estar
1.38,3.56,3.22,1.5,3.25,s2702,estar
1.38,3.56,3.22,1.5,3.25,s2702,estar
1.38,3.56,3.22,1.5,3.25,s2702,estar
1.38,3.56,3.22,1.5,3.25,s2448,possuir
1.38,3.56,3.22,1.5,3.25,s3118,possuir
2.13,4.0,1.78,3.25,4.3,s341,segurar
2.13,4.0,1.78,3.25,4.3,s3005,segurar
2.13,4.0,1.78,3.25,4.3,s4043,segurar
2.13,4.0,1.78,3.25,4.3,s2342,haver
2.13,4.0,1.78,3.25,4.3,s2342,estar
2.13,4.0,1.78,3.25,4.3,s2342,estar
2.13,4.0,1.78,3.25,4.3,s2342,estar
2.13,4.0,1.78,3.25,4.3,s2702,estar
2.13,4.0,1.78,3.25,4.3,s2702,estar
2.13,4.0,1.78,3.25,4.3,s2702,estar
2.13,4.0,1.78,3.25,4.3,s2342,ser
2.13,4.0,1.78,3.25,4.3,s2342,ser
2.13,4.0,1.78,3.25,4.3,s2501,ser
2.13,4.0,1.78,3.25,4.3,s2501,ser
2.13,4.0,1.78,3.25,4.3,s3022,ser
2.13,4.0,1.78,3.25,4.3,s3022,ser
2.13,4.0,1.78,3.25,4.3,s3964,explicar
2.13,4.0,1.78,3.25,4.3,s416,tirar
2.13,4.0,1.78,3.25,4.3,s1208,tirar
2.13,4.0,1.78,3.25,4.3,s1617,tirar
2.13,4.0,1.78,3.25,4.3,s2227,tirar
2.13,4.0,1.78,3.25,4.3,s3031,tirar
2.13,4.0,1.78,3.25,4.3,s3643,tirar
2.13,4.0,1.78,3.25,4.3,s1783,olhar
2.13,4.0,1.78,3.25,4.3,s3625,olhar
2.13,4.0,1.78,3.25,4.3,s3055,preocupar
2.13,4.0,1.78,3.25,4.3,s475,aparecer
2.13,4.0,1.78,3.25,4.3,s2143,aparecer
2.13,4.0,1.78,3.25,4.3,s853,sorrir
2.13,4.0,1.78,3.25,4.3,s2868,sorrir
4.38,4.0,3.22,1.5,4.5,s2441,abraçar
4.38,4.0,3.22,1.5,4.5,s2464,abraçar
4.38,4.0,3.22,1.5,4.5,s3953,abraçar
4.38,4.0,3.22,1.5,4.5,s3055,preocupar
4.38,4.0,3.22,1.5,4.5,s2342,estar
4.38,4.0,3.22,1.5,4.5,s2702,estar
2.63,3.44,2.67,2.25,3.6,s1579,encontrar
2.63,3.44,2.67,2.25,3.6,s1579,encontrar
2.63,3.44,2.67,2.25,3.6,s1579,encontrar
2.63,3.44,2.67,2.25,3.6,s2441,abraçar
2.63,3.44,2.67,2.25,3.6,s2464,abraçar
2.63,3.44,2.67,2.25,3.6,s3953,abraçar
2.63,3.44,2.67,2.25,3.6,s3716,mostrar
2.63,3.44,2.67,2.25,3.6,s3717,mostrar
2.63,3.44,2.67,2.25,3.6,s4026,espalhar
3.13,3.33,3.0,3.25,3.2,s2342,haver
3.13,3.33,3.0,3.25,3.2,s2342,haver
3.13,3.33,3.0,3.25,3.2,s2441,abraçar
3.13,3.33,3.0,3.25,3.2,s2464,abraçar
3.13,3.33,3.0,3.25,3.2,s3953,abraçar
3.13,3.33,3.0,3.25,3.2,s2448,ter
3.13,3.33,3.0,3.25,3.2,s2448,ter
3.13,3.33,3.0,3.25,3.2,s2448,ter
3.13,3.33,3.0,3.25,3.2,s3118,ter
3.13,3.33,3.0,3.25,3.2,s3118,ter
3.13,3.33,3.0,3.25,3.2,s3118,ter
3.13,3.33,3.0,3.25,3.2,s1777,vestir
3.13,3.33,3.0,3.25,3.2,s3504,vestir
3.13,3.33,3.0,3.25,3.2,s3819,vestir
3.13,3.33,3.0,3.25,3.2,s2860,usar
3.13,3.33,3.0,3.25,3.2,s4026,espalhar
3.13,3.33,3.0,3.25,3.2,s2342,estar
3.13,3.33,3.0,3.25,3.2,s2702,estar
3.0,3.67,4.78,3.38,3.8,s2342,haver
3.0,3.67,4.78,3.38,3.8,s2342,haver
3.0,3.67,4.78,3.38,3.8,s2342,haver
3.0,3.67,4.78,3.38,3.8,s2342,estar
3.0,3.67,4.78,3.38,3.8,s2702,estar
3.0,3.67,4.78,3.38,3.8,s3006,agasalhar
3.0,3.67,4.78,3.38,3.8,s3007,agasalhar
3.0,3.67,4.78,3.38,3.8,s3008,agasalhar
3.0,4.11,3.33,2.0,4.2,s2342,estar
3.0,4.11,3.33,2.0,4.2,s2342,estar
3.0,4.11,3.33,2.0,4.2,s2342,estar
3.0,4.11,3.33,2.0,4.2,s2702,estar
3.0,4.11,3.33,2.0,4.2,s2702,estar
3.0,4.11,3.33,2.0,4.2,s2702,estar
3.0,4.11,3.33,2.0,4.2,s1897,envolver
3.0,4.11,3.33,2.0,4.2,s3445,envolver
3.0,4.11,3.33,2.0,4.2,s3953,envolver
3.0,4.11,3.33,2.0,4.2,s2342,ser
3.0,4.11,3.33,2.0,4.2,s2501,ser
3.0,4.11,3.33,2.0,4.2,s3022,ser
3.0,4.11,3.33,2.0,4.2,s828,ficar
3.0,4.11,3.33,2.0,4.2,s3625,cuidar
3.0,4.11,3.33,2.0,4.2,s3151,dar
3.0,4.11,3.33,2.0,4.2,s3716,dar
3.0,4.11,3.33,2.0,4.2,s4026,dar
4.5,3.22,4.33,4.63,3.6,s341,segurar
4.5,3.22,4.33,4.63,3.6,s3005,segurar
4.5,3.22,4.33,4.63,3.6,s4043,segurar
4.5,3.22,4.33,4.63,3.6,s2342,ser
4.5,3.22,4.33,4.63,3.6,s2342,ser
4.5,3.22,4.33,4.63,3.6,s2342,ser
4.5,3.22,4.33,4.63,3.6,s2342,ser
4.5,3.22,4.33,4.63,3.6,s2501,ser
4.5,3.22,4.33,4.63,3.6,s2501,ser
4.5,3.22,4.33,4.63,3.6,s2501,ser
4.5,3.22,4.33,4.63,3.6,s2501,ser
4.5,3.22,4.33,4.63,3.6,s3022,ser
4.5,3.22,4.33,4.63,3.6,s3022,ser
4.5,3.22,4.33,4.63,3.6,s3022,ser
4.5,3.22,4.33,4.63,3.6,s3022,ser
4.5,3.22,4.33,4.63,3.6,s2342,estar
4.5,3.22,4.33,4.63,3.6,s2342,estar
4.5,3.22,4.33,4.63,3.6,s2342,estar
4.5,3.22,4.33,4.63,3.6,s2702,estar
4.5,3.22,4.33,4.63,3.6,s2702,estar
4.5,3.22,4.33,4.63,3.6,s2702,estar
4.5,3.22,4.33,4.63,3.6,s2270,cruzar
4.5,3.22,4.33,4.63,3.6,s969,ver
4.5,3.22,4.33,4.63,3.6,s3434,ver
4.5,3.22,4.33,4.63,3.6,s3756,ver
3.75,4.0,4.56,2.38,4.4,s2342,estar
3.75,4.0,4.56,2.38,4.4,s2342,estar
3.75,4.0,4.56,2.38,4.4,s2342,estar
3.75,4.0,4.56,2.38,4.4,s2342,estar
3.75,4.0,4.56,2.38,4.4,s2702,estar
3.75,4.0,4.56,2.38,4.4,s2702,estar
3.75,4.0,4.56,2.38,4.4,s2702,estar
3.75,4.0,4.56,2.38,4.4,s2702,estar
3.75,4.0,4.56,2.38,4.4,s2778,retratar
3.75,4.0,4.56,2.38,4.4,s3953,rodear
3.75,4.0,4.56,2.38,4.4,s4026,espalhar
3.75,4.0,4.56,2.38,4.4,s2448,ter
3.75,4.0,4.56,2.38,4.4,s3118,ter
3.75,4.0,4.56,2.38,4.4,s3141,abrir
3.75,4.0,4.56,2.38,4.4,s3279,abrir
2.13,3.0,2.56,3.75,3.7,s3716,mostrar
2.13,3.0,2.56,3.75,3.7,s3717,mostrar
2.13,3.0,2.56,3.75,3.7,s2342,ser
2.13,3.0,2.56,3.75,3.7,s2501,ser
2.13,3.0,2.56,3.75,3.7,s3022,ser
2.13,3.0,2.56,3.75,3.7,s2441,abraçar
2.13,3.0,2.56,3.75,3.7,s2464,abraçar
2.13,3.0,2.56,3.75,3.7,s3953,abraçar
2.13,3.0,2.56,3.75,3.7,s2448,ter
2.13,3.0,2.56,3.75,3.7,s3118,ter
2.13,3.0,2.56,3.75,3.7,s2342,estar
2.13,3.0,2.56,3.75,3.7,s2342,estar
2.13,3.0,2.56,3.75,3.7,s2702,estar
2.13,3.0,2.56,3.75,3.7,s2702,estar
1.88,3.11,2.44,3.63,4.3,s2342,haver
1.88,3.11,2.44,3.63,4.3,s1531,carregar
1.88,3.11,2.44,3.63,4.3,s2177,carregar
1.88,3.11,2.44,3.63,4.3,s3555,carregar
1.88,3.11,2.44,3.63,4.3,s3842,carregar
1.88,3.11,2.44,3.63,4.3,s2342,ser
1.88,3.11,2.44,3.63,4.3,s2501,ser
1.88,3.11,2.44,3.63,4.3,s3022,ser
1.88,3.11,2.44,3.63,4.3,s2342,estar
1.88,3.11,2.44,3.63,4.3,s2342,estar
1.88,3.11,2.44,3.63,4.3,s2702,estar
1.88,3.11,2.44,3.63,4.3,s2702,estar
1.88,3.11,2.44,3.63,4.3,s1783,olhar
1.88,3.11,2.44,3.63,4.3,s3625,olhar
1.88,3.11,2.44,3.63,4.3,s341,fixar
1.88,3.11,2.44,3.63,4.3,s3108,fixar
1.88,3.11,2.44,3.63,4.3,s3448,fixar
1.88,3.11,2.44,3.63,4.3,s3716,demonstrar
1.88,3.11,2.44,3.63,4.3,s4026,espalhar
3.63,3.44,3.11,2.63,3.5,s2441,abraçar
3.63,3.44,3.11,2.63,3.5,s2464,abraçar
3.63,3.44,3.11,2.63,3.5,s3953,abraçar
3.63,3.44,3.11,2.63,3.5,s727,ir
3.63,3.44,3.11,2.63,3.5,s1892,ir
3.63,3.44,3.11,2.63,3.5,s2099,ir
3.63,3.44,3.11,2.63,3.5,s3896,notar
3.63,3.44,3.11,2.63,3.5,s2342,estar
3.63,3.44,3.11,2.63,3.5,s2702,estar
3.63,3.44,3.11,2.63,3.5,s1579,encontrar
3.63,3.44,3.11,2.63,3.5,s2342,ser
3.63,3.44,3.11,2.63,3.5,s2501,ser
3.63,3.44,3.11,2.63,3.5,s3022,ser
3.63,3.44,3.11,2.63,3.5,s840,pavimentar
3.75,3.89,3.33,2.38,3.9,s2342,haver
3.75,3.89,3.33,2.38,3.9,s2342,estar
3.75,3.89,3.33,2.38,3.9,s2702,estar
3.25,3.33,2.78,3.13,3.8,s2342,estar
3.25,3.33,2.78,3.13,3.8,s2342,estar
3.25,3.33,2.78,3.13,3.8,s2702,estar
3.25,3.33,2.78,3.13,3.8,s2702,estar
3.25,3.33,2.78,3.13,3.8,s2448,ter
3.25,3.33,2.78,3.13,3.8,s2448,ter
3.25,3.33,2.78,3.13,3.8,s2448,ter
3.25,3.33,2.78,3.13,3.8,s3118,ter
3.25,3.33,2.78,3.13,3.8,s3118,ter
3.25,3.33,2.78,3.13,3.8,s3118,ter
3.25,3.33,2.78,3.13,3.8,s2342,ser
3.25,3.33,2.78,3.13,3.8,s2342,ser
3.25,3.33,2.78,3.13,3.8,s2501,ser
3.25,3.33,2.78,3.13,3.8,s2501,ser
3.25,3.33,2.78,3.13,3.8,s3022,ser
3.25,3.33,2.78,3.13,3.8,s3022,ser
3.25,3.33,2.78,3.13,3.8,s1783,olhar
3.25,3.33,2.78,3.13,3.8,s3625,olhar
3.25,3.33,2.78,3.13,3.8,s1777,vestir
3.25,3.33,2.78,3.13,3.8,s1777,vestir
3.25,3.33,2.78,3.13,3.8,s1777,vestir
3.25,3.33,2.78,3.13,3.8,s3504,vestir
3.25,3.33,2.78,3.13,3.8,s3504,vestir
3.25,3.33,2.78,3.13,3.8,s3504,vestir
3.25,3.33,2.78,3.13,3.8,s3819,vestir
3.25,3.33,2.78,3.13,3.8,s3819,vestir
3.25,3.33,2.78,3.13,3.8,s3819,vestir
3.25,3.33,2.78,3.13,3.8,s3239,amarrar
3.25,3.33,2.78,3.13,3.8,s1531,carregar
3.25,3.33,2.78,3.13,3.8,s2177,carregar
3.25,3.33,2.78,3.13,3.8,s3555,carregar
3.25,3.33,2.78,3.13,3.8,s3842,carregar
3.25,3.33,2.78,3.13,3.8,s3733,repousar
3.25,3.33,2.78,3.13,3.8,s4124,repousar
1.75,3.56,2.78,2.5,4.3,s2342,estar
1.75,3.56,2.78,2.5,4.3,s2342,estar
1.75,3.56,2.78,2.5,4.3,s2342,estar
1.75,3.56,2.78,2.5,4.3,s2342,estar
1.75,3.56,2.78,2.5,4.3,s2702,estar
1.75,3.56,2.78,2.5,4.3,s2702,estar
1.75,3.56,2.78,2.5,4.3,s2702,estar
1.75,3.56,2.78,2.5,4.3,s2702,estar
1.75,3.56,2.78,2.5,4.3,s2441,abraçar
1.75,3.56,2.78,2.5,4.3,s2464,abraçar
1.75,3.56,2.78,2.5,4.3,s3953,abraçar
1.75,3.56,2.78,2.5,4.3,s2448,possuir
1.75,3.56,2.78,2.5,4.3,s3118,possuir
1.75,3.56,2.78,2.5,4.3,s2448,ter
1.75,3.56,2.78,2.5,4.3,s3118,ter
3.75,3.44,2.78,3.25,3.9,s2448,ter
3.75,3.44,2.78,3.25,3.9,s3118,ter
3.75,3.44,2.78,3.25,3.9,s2342,haver
3.75,3.44,2.78,3.25,3.9,s2177,levar
3.75,3.44,2.78,3.25,3.9,s345,acreditar
3.75,3.44,2.78,3.25,3.9,s2342,ser
3.75,3.44,2.78,3.25,3.9,s2342,ser
3.75,3.44,2.78,3.25,3.9,s2501,ser
3.75,3.44,2.78,3.25,3.9,s2501,ser
3.75,3.44,2.78,3.25,3.9,s3022,ser
3.75,3.44,2.78,3.25,3.9,s3022,ser
3.75,3.44,2.78,3.25,3.9,s1134,expulsar
3.75,3.44,2.78,3.25,3.9,s2448,viver
3.75,3.44,2.78,3.25,3.9,s727,sair
3.75,3.44,2.78,3.25,3.9,s4091,sair
3.75,3.44,2.78,3.25,3.9,s2342,estar
3.75,3.44,2.78,3.25,3.9,s2702,estar
3.75,3.44,2.78,3.25,3.9,s2869,fazer
3.75,3.44,2.78,3.25,3.9,s2873,fazer
3.38,4.89,4.78,2.13,4.6,s1579,encontrar
3.38,4.89,4.78,2.13,4.6,s1579,encontrar
3.38,4.89,4.78,2.13,4.6,s2215,colocar
3.38,4.89,4.78,2.13,4.6,s3933,colocar
3.38,4.89,4.78,2.13,4.6,s2342,estar
3.38,4.89,4.78,2.13,4.6,s2702,estar
3.38,4.89,4.78,2.13,4.6,s3953,cercar
3.38,4.89,4.78,2.13,4.6,s969,perceber
3.38,4.89,4.78,2.13,4.6,s3756,perceber
3.38,4.89,4.78,2.13,4.6,s2448,ter
3.38,4.89,4.78,2.13,4.6,s3118,ter
2.88,3.44,4.0,4.63,3.1,s2342,ser
2.88,3.44,4.0,4.63,3.1,s2501,ser
2.88,3.44,4.0,4.63,3.1,s3022,ser
2.88,3.44,4.0,4.63,3.1,s2342,estar
2.88,3.44,4.0,4.63,3.1,s2342,estar
2.88,3.44,4.0,4.63,3.1,s2342,estar
2.88,3.44,4.0,4.63,3.1,s2702,estar
2.88,3.44,4.0,4.63,3.1,s2702,estar
2.88,3.44,4.0,4.63,3.1,s2702,estar
2.88,3.44,4.0,4.63,3.1,s2448,ter
2.88,3.44,4.0,4.63,3.1,s3118,ter
2.88,3.44,4.0,4.63,3.1,s1365,consolar
2.88,3.44,4.0,4.63,3.1,s1505,consolar
4.88,4.33,3.78,1.75,4.0,s2342,estar
4.88,4.33,3.78,1.75,4.0,s2342,estar
4.88,4.33,3.78,1.75,4.0,s2342,estar
4.88,4.33,3.78,1.75,4.0,s2702,estar
4.88,4.33,3.78,1.75,4.0,s2702,estar
4.88,4.33,3.78,1.75,4.0,s2702,estar
4.88,4.33,3.78,1.75,4.0,s2448,ter
4.88,4.33,3.78,1.75,4.0,s3118,ter
4.88,4.33,3.78,1.75,4.0,s2441,abraçar
4.88,4.33,3.78,1.75,4.0,s2464,abraçar
4.88,4.33,3.78,1.75,4.0,s3953,abraçar
3.88,4.33,4.78,2.25,3.3,s2342,estar
3.88,4.33,4.78,2.25,3.3,s2702,estar
3.75,3.67,2.56,3.13,3.8,s2342,estar
3.75,3.67,2.56,3.13,3.8,s2342,estar
3.75,3.67,2.56,3.13,3.8,s2342,estar
3.75,3.67,2.56,3.13,3.8,s2702,estar
3.75,3.67,2.56,3.13,3.8,s2702,estar
3.75,3.67,2.56,3.13,3.8,s2702,estar
3.75,3.67,2.56,3.13,3.8,s2342,ser
3.75,3.67,2.56,3.13,3.8,s2501,ser
3.75,3.67,2.56,3.13,3.8,s3022,ser
3.75,3.67,2.56,3.13,3.8,s341,segurar
3.75,3.67,2.56,3.13,3.8,s3005,segurar
3.75,3.67,2.56,3.13,3.8,s4043,segurar
3.75,3.67,2.56,3.13,3.8,s2342,haver
3.75,3.67,2.56,3.13,3.8,s4026,espalhar
3.63,3.22,3.22,2.38,3.4,s2441,abraçar
3.63,3.22,3.22,2.38,3.4,s2464,abraçar
3.63,3.22,3.22,2.38,3.4,s3953,abraçar
3.63,3.22,3.22,2.38,3.4,s2342,estar
3.63,3.22,3.22,2.38,3.4,s2702,estar
3.63,3.22,3.22,2.38,3.4,s3022,causar
3.63,3.22,3.22,2.38,3.4,s3022,trazer
2.63,3.33,3.0,3.75,3.2,s2342,haver
2.63,3.33,3.0,3.75,3.2,s2342,estar
2.63,3.33,3.0,3.75,3.2,s2342,estar
2.63,3.33,3.0,3.75,3.2,s2342,estar
2.63,3.33,3.0,3.75,3.2,s2702,estar
2.63,3.33,3.0,3.75,3.2,s2702,estar
2.63,3.33,3.0,3.75,3.2,s2702,estar
2.63,3.33,3.0,3.75,3.2,s2342,ser
2.63,3.33,3.0,3.75,3.2,s2342,ser
2.63,3.33,3.0,3.75,3.2,s2342,ser
2.63,3.33,3.0,3.75,3.2,s2501,ser
2.63,3.33,3.0,3.75,3.2,s2501,ser
2.63,3.33,3.0,3.75,3.2,s2501,ser
2.63,3.33,3.0,3.75,3.2,s3022,ser
2.63,3.33,3.0,3.75,3.2,s3022,ser
2.63,3.33,3.0,3.75,3.2,s3022,ser
2.63,3.33,3.0,3.75,3.2,s1783,olhar
2.63,3.33,3.0,3.75,3.2,s3625,olhar
4.25,4.22,3.67,2.63,4.5,s828,ficar
4.25,4.22,3.67,2.63,4.5,s1108,abandonar
4.25,4.22,3.67,2.63,4.5,s2342,estar
4.25,4.22,3.67,2.63,4.5,s2342,estar
4.25,4.22,3.67,2.63,4.5,s2702,estar
4.25,4.22,3.67,2.63,4.5,s2702,estar
4.25,4.22,3.67,2.63,4.5,s968,saber
4.25,4.22,3.67,2.63,4.5,s969,saber
4.25,4.22,3.67,2.63,4.5,s727,ir
4.25,4.22,3.67,2.63,4.5,s1892,ir
4.25,4.22,3.67,2.63,4.5,s2099,ir
4.25,4.22,3.67,2.63,4.5,s475,vir
4.25,4.22,3.67,2.63,4.5,s590,vir
4.38,3.78,3.56,3.0,4.0,s2342,estar
4.38,3.78,3.56,3.0,4.0,s2342,estar
4.38,3.78,3.56,3.0,4.0,s2702,estar
4.38,3.78,3.56,3.0,4.0,s2702,estar
4.38,3.78,3.56,3.0,4.0,s2371,juntar
4.38,3.78,3.56,3.0,4.0,s2464,juntar
4.38,3.78,3.56,3.0,4.0,s2598,juntar
4.38,3.78,3.56,3.0,4.0,s2677,juntar
4.38,3.78,3.56,3.0,4.0,s3061,juntar
4.38,3.78,3.56,3.0,4.0,s3189,juntar
4.38,3.78,3.56,3.0,4.0,s2342,ser
4.38,3.78,3.56,3.0,4.0,s2342,ser
4.38,3.78,3.56,3.0,4.0,s2501,ser
4.38,3.78,3.56,3.0,4.0,s2501,ser
4.38,3.78,3.56,3.0,4.0,s3022,ser
4.38,3.78,3.56,3.0,4.0,s3022,ser
4.38,3.11,3.67,2.75,3.7,s2448,ter
4.38,3.11,3.67,2.75,3.7,s2448,ter
4.38,3.11,3.67,2.75,3.7,s2448,ter
4.38,3.11,3.67,2.75,3.7,s3118,ter
4.38,3.11,3.67,2.75,3.7,s3118,ter
4.38,3.11,3.67,2.75,3.7,s3118,ter
4.38,3.11,3.67,2.75,3.7,s2441,abraçar
4.38,3.11,3.67,2.75,3.7,s2464,abraçar
4.38,3.11,3.67,2.75,3.7,s3953,abraçar
4.38,3.11,3.67,2.75,3.7,s2342,estar
4.38,3.11,3.67,2.75,3.7,s2342,estar
4.38,3.11,3.67,2.75,3.7,s2702,estar
4.38,3.11,3.67,2.75,3.7,s2702,estar
4.38,3.11,3.67,2.75,3.7,s2342,ser
4.38,3.11,3.67,2.75,3.7,s2342,ser
4.38,3.11,3.67,2.75,3.7,s2501,ser
4.38,3.11,3.67,2.75,3.7,s2501,ser
4.38,3.11,3.67,2.75,3.7,s3022,ser
4.38,3.11,3.67,2.75,3.7,s3022,ser
4.38,3.11,3.67,2.75,3.7,s1365,consolar
4.38,3.11,3.67,2.75,3.7,s1505,consolar
4.38,3.11,3.67,2.75,3.7,s727,sair
4.38,3.11,3.67,2.75,3.7,s4091,sair
4.38,3.11,3.67,2.75,3.7,s597,deixar
4.38,3.11,3.67,2.75,3.7,s3151,deixar
4.38,3.11,3.67,2.75,3.7,s3201,deixar
2.25,3.78,2.67,3.0,3.4,s969,ver
2.25,3.78,2.67,3.0,3.4,s3434,ver
2.25,3.78,2.67,3.0,3.4,s3756,ver
2.25,3.78,2.67,3.0,3.4,s2342,ser
2.25,3.78,2.67,3.0,3.4,s2342,ser
2.25,3.78,2.67,3.0,3.4,s2501,ser
2.25,3.78,2.67,3.0,3.4,s2501,ser
2.25,3.78,2.67,3.0,3.4,s3022,ser
2.25,3.78,2.67,3.0,3.4,s3022,ser
2.25,3.78,2.67,3.0,3.4,s2342,estar
2.25,3.78,2.67,3.0,3.4,s2342,estar
2.25,3.78,2.67,3.0,3.4,s2702,estar
2.25,3.78,2.67,3.0,3.4,s2702,estar
2.25,3.78,2.67,3.0,3.4,s2448,ter
2.25,3.78,2.67,3.0,3.4,s3118,ter
3.38,4.44,3.44,3.0,3.6,s4026,espalhar
3.38,4.44,3.44,3.0,3.6,s2342,estar
3.38,4.44,3.44,3.0,3.6,s2342,estar
3.38,4.44,3.44,3.0,3.6,s2702,estar
3.38,4.44,3.44,3.0,3.6,s2702,estar
3.38,4.44,3.44,3.0,3.6,s1777,vestir
3.38,4.44,3.44,3.0,3.6,s3504,vestir
3.38,4.44,3.44,3.0,3.6,s3819,vestir
3.25,3.89,2.67,3.13,3.6,s2342,estar
3.25,3.89,2.67,3.13,3.6,s2342,estar
3.25,3.89,2.67,3.13,3.6,s2702,estar
3.25,3.89,2.67,3.13,3.6,s2702,estar
3.25,3.89,2.67,3.13,3.6,s2342,ser
3.25,3.89,2.67,3.13,3.6,s2342,ser
3.25,3.89,2.67,3.13,3.6,s2501,ser
3.25,3.89,2.67,3.13,3.6,s2501,ser
3.25,3.89,2.67,3.13,3.6,s3022,ser
3.25,3.89,2.67,3.13,3.6,s3022,ser
3.25,3.89,2.67,3.13,3.6,s2448,possuir
3.25,3.89,2.67,3.13,3.6,s3118,possuir
4.13,3.33,3.0,3.88,3.9,s3716,mostrar
4.13,3.33,3.0,3.88,3.9,s3717,mostrar
4.13,3.33,3.0,3.88,3.9,s2342,estar
4.13,3.33,3.0,3.88,3.9,s2342,estar
4.13,3.33,3.0,3.88,3.9,s2702,estar
4.13,3.33,3.0,3.88,3.9,s2702,estar
4.13,3.33,3.0,3.88,3.9,s4026,espalhar
3.75,4.11,3.33,3.88,4.9,s2342,haver
3.75,4.11,3.33,3.88,4.9,s2342,haver
3.75,4.11,3.33,3.88,4.9,s2342,ser
3.75,4.11,3.33,3.88,4.9,s2501,ser
3.75,4.11,3.33,3.88,4.9,s3022,ser
3.75,4.11,3.33,3.88,4.9,s2342,estar
3.75,4.11,3.33,3.88,4.9,s2342,estar
3.75,4.11,3.33,3.88,4.9,s2702,estar
3.75,4.11,3.33,3.88,4.9,s2702,estar
3.75,4.11,3.33,3.88,4.9,s3006,agasalhar
3.75,4.11,3.33,3.88,4.9,s3007,agasalhar
3.75,4.11,3.33,3.88,4.9,s3008,agasalhar
3.75,4.11,3.33,3.88,4.9,s2448,possuir
3.75,4.11,3.33,3.88,4.9,s3118,possuir
1.13,3.33,2.89,4.25,2.8,s2441,abraçar
1.13,3.33,2.89,4.25,2.8,s2464,abraçar
1.13,3.33,2.89,4.25,2.8,s3953,abraçar
1.13,3.33,2.89,4.25,2.8,s2342,estar
1.13,3.33,2.89,4.25,2.8,s2342,estar
1.13,3.33,2.89,4.25,2.8,s2702,estar
1.13,3.33,2.89,4.25,2.8,s2702,estar
1.13,3.33,2.89,4.25,2.8,s3733,acalmar
1.13,3.33,2.89,4.25,2.8,s3852,acalmar
1.13,3.33,2.89,4.25,2.8,s1579,encontrar
1.13,3.33,2.89,4.25,2.8,s1579,encontrar
1.13,3.33,2.89,4.25,2.8,s3953,rodear
2.63,3.11,3.89,2.5,3.3,s2342,estar
2.63,3.11,3.89,2.5,3.3,s2342,estar
2.63,3.11,3.89,2.5,3.3,s2702,estar
2.63,3.11,3.89,2.5,3.3,s2702,estar
2.63,3.11,3.89,2.5,3.3,s2342,haver
2.63,3.11,3.89,2.5,3.3,s3022,trazer
3.0,2.56,2.67,2.88,2.5,s3716,mostrar
3.0,2.56,2.67,2.88,2.5,s3716,mostrar
3.0,2.56,2.67,2.88,2.5,s3717,mostrar
3.0,2.56,2.67,2.88,2.5,s3717,mostrar
3.0,2.56,2.67,2.88,2.5,s2342,estar
3.0,2.56,2.67,2.88,2.5,s2342,estar
3.0,2.56,2.67,2.88,2.5,s2702,estar
3.0,2.56,2.67,2.88,2.5,s2702,estar
3.0,2.56,2.67,2.88,2.5,s2342,ser
3.0,2.56,2.67,2.88,2.5,s2501,ser
3.0,2.56,2.67,2.88,2.5,s3022,ser
3.0,2.56,2.67,2.88,2.5,s1134,despejar
3.0,2.56,2.67,2.88,2.5,s3279,despejar
3.63,3.78,2.89,4.13,3.3,s2441,abraçar
3.63,3.78,2.89,4.13,3.3,s2464,abraçar
3.63,3.78,2.89,4.13,3.3,s3953,abraçar
3.63,3.78,2.89,4.13,3.3,s2342,estar
3.63,3.78,2.89,4.13,3.3,s2702,estar
3.63,3.78,2.89,4.13,3.3,s1365,consolar
3.63,3.78,2.89,4.13,3.3,s1505,consolar
3.63,3.78,2.89,4.13,3.3,s969,perceber
3.63,3.78,2.89,4.13,3.3,s3756,perceber
3.63,3.78,2.89,4.13,3.3,s345,acreditar
3.63,3.78,2.89,4.13,3.3,s2342,ser
3.63,3.78,2.89,4.13,3.3,s2501,ser
3.63,3.78,2.89,4.13,3.3,s3022,ser
3.63,3.78,2.89,4.13,3.3,s1134,despejar
3.63,3.78,2.89,4.13,3.3,s3279,despejar
3.63,3.78,2.89,4.13,3.3,s2448,ter
3.63,3.78,2.89,4.13,3.3,s3118,ter
3.63,3.78,2.89,4.13,3.3,s1568,destruir
3.63,3.78,2.89,4.13,3.3,s2946,destruir
4.63,3.44,3.11,4.25,4.4,s2342,ser
4.63,3.44,3.11,4.25,4.4,s2501,ser
4.63,3.44,3.11,4.25,4.4,s3022,ser
4.63,3.44,3.11,4.25,4.4,s2342,estar
4.63,3.44,3.11,4.25,4.4,s2342,estar
4.63,3.44,3.11,4.25,4.4,s2702,estar
4.63,3.44,3.11,4.25,4.4,s2702,estar
4.63,3.44,3.11,4.25,4.4,s4026,espalhar
3.88,4.33,4.0,3.5,3.9,s2342,haver
3.88,4.33,4.0,3.5,3.9,s2342,haver
3.88,4.33,4.0,3.5,3.9,s2342,ser
3.88,4.33,4.0,3.5,3.9,s2501,ser
3.88,4.33,4.0,3.5,3.9,s3022,ser
3.88,4.33,4.0,3.5,3.9,s341,segurar
3.88,4.33,4.0,3.5,3.9,s3005,segurar
3.88,4.33,4.0,3.5,3.9,s4043,segurar
3.88,4.33,4.0,3.5,3.9,s180,proteger
3.88,4.33,4.0,3.5,3.9,s2868,proteger
3.88,4.33,4.0,3.5,3.9,s4026,espalhar
3.88,4.33,4.0,3.5,3.9,s2342,estar
3.88,4.33,4.0,3.5,3.9,s2702,estar
3.75,3.44,3.11,4.13,3.7,s2342,estar
3.75,3.44,3.11,4.13,3.7,s2342,estar
3.75,3.44,3.11,4.13,3.7,s2342,estar
3.75,3.44,3.11,4.13,3.7,s2702,estar
3.75,3.44,3.11,4.13,3.7,s2702,estar
3.75,3.44,3.11,4.13,3.7,s2702,estar
3.75,3.44,3.11,4.13,3.7,s2448,ter
3.75,3.44,3.11,4.13,3.7,s3118,ter
3.75,3.44,3.11,4.13,3.7,s3055,preocupar
1.38,3.67,2.78,2.88,2.9,s2342,estar
1.38,3.67,2.78,2.88,2.9,s2342,estar
1.38,3.67,2.78,2.88,2.9,s2702,estar
1.38,3.67,2.78,2.88,2.9,s2702,estar
1.38,3.67,2.78,2.88,2.9,s2441,abraçar
1.38,3.67,2.78,2.88,2.9,s2464,abraçar
1.38,3.67,2.78,2.88,2.9,s3953,abraçar
1.38,3.67,2.78,2.88,2.9,s969,ver
1.38,3.67,2.78,2.88,2.9,s3434,ver
1.38,3.67,2.78,2.88,2.9,s3756,ver
1.38,3.67,2.78,2.88,2.9,s2448,ter
1.38,3.67,2.78,2.88,2.9,s3118,ter
1.38,3.67,2.78,2.88,2.9,s3767,perder
3.25,3.67,2.89,2.5,3.4,s2342,haver
3.25,3.67,2.89,2.5,3.4,s2342,haver
3.25,3.67,2.89,2.5,3.4,s2342,estar
3.25,3.67,2.89,2.5,3.4,s2342,estar
3.25,3.67,2.89,2.5,3.4,s2342,estar
3.25,3.67,2.89,2.5,3.4,s2702,estar
3.25,3.67,2.89,2.5,3.4,s2702,estar
3.25,3.67,2.89,2.5,3.4,s2702,estar
3.25,3.67,2.89,2.5,3.4,s1783,olhar
3.25,3.67,2.89,2.5,3.4,s3625,olhar
3.25,3.67,2.89,2.5,3.4,s4026,espalhar
3.25,3.67,2.89,2.5,3.4,s2342,ser
3.25,3.67,2.89,2.5,3.4,s2501,ser
3.25,3.67,2.89,2.5,3.4,s3022,ser
3.25,3.67,2.89,2.5,3.4,s1956,iluminar
3.25,3.67,2.89,2.5,3.4,s3289,iluminar
3.25,3.67,2.89,2.5,3.4,s3022,causar
3.88,3.44,3.89,3.5,3.7,s3716,mostrar
3.88,3.44,3.89,3.5,3.7,s3717,mostrar
3.88,3.44,3.89,3.5,3.7,s2342,ser
3.88,3.44,3.89,3.5,3.7,s2501,ser
3.88,3.44,3.89,3.5,3.7,s3022,ser
3.88,3.44,3.89,3.5,3.7,s2342,estar
3.88,3.44,3.89,3.5,3.7,s2342,estar
3.88,3.44,3.89,3.5,3.7,s2702,estar
3.88,3.44,3.89,3.5,3.7,s2702,estar
3.88,3.44,3.89,3.5,3.7,s2448,ter
3.88,3.44,3.89,3.5,3.7,s3118,ter
3.63,3.56,2.44,4.0,4.1,s2448,ter
3.63,3.56,2.44,4.0,4.1,s2448,ter
3.63,3.56,2.44,4.0,4.1,s3118,ter
3.63,3.56,2.44,4.0,4.1,s3118,ter
3.63,3.56,2.44,4.0,4.1,s2342,estar
3.63,3.56,2.44,4.0,4.1,s2702,estar
3.63,3.56,2.44,4.0,4.1,s1777,vestir
3.63,3.56,2.44,4.0,4.1,s3504,vestir
3.63,3.56,2.44,4.0,4.1,s3819,vestir
3.63,3.56,2.44,4.0,4.1,s2342,haver
3.63,3.56,2.44,4.0,4.1,s2342,haver
3.63,3.56,2.44,4.0,4.1,s4026,espalhar
3.63,3.56,2.44,4.0,4.1,s969,ver
3.63,3.56,2.44,4.0,4.1,s3434,ver
3.63,3.56,2.44,4.0,4.1,s3756,ver
3.63,3.56,2.44,4.0,4.1,s2342,ser
3.63,3.56,2.44,4.0,4.1,s2501,ser
3.63,3.56,2.44,4.0,4.1,s3022,ser
3.63,3.56,2.44,4.0,4.1,s3448,bater
2.63,3.56,4.22,3.38,3.8,s2342,estar
2.63,3.56,4.22,3.38,3.8,s2342,estar
2.63,3.56,4.22,3.38,3.8,s2342,estar
2.63,3.56,4.22,3.38,3.8,s2342,estar
2.63,3.56,4.22,3.38,3.8,s2702,estar
2.63,3.56,4.22,3.38,3.8,s2702,estar
2.63,3.56,4.22,3.38,3.8,s2702,estar
2.63,3.56,4.22,3.38,3.8,s2702,estar
2.63,3.56,4.22,3.38,3.8,s1897,envolver
2.63,3.56,4.22,3.38,3.8,s3445,envolver
2.63,3.56,4.22,3.38,3.8,s3953,envolver
2.63,3.56,4.22,3.38,3.8,s4026,espalhar
2.63,3.56,4.22,3.38,3.8,s3716,demonstrar
2.63,3.56,4.22,3.38,3.8,s2441,abraçar
2.63,3.56,4.22,3.38,3.8,s2464,abraçar
2.63,3.56,4.22,3.38,3.8,s3953,abraçar
2.63,3.56,4.22,3.38,3.8,s2342,ser
2.63,3.56,4.22,3.38,3.8,s2501,ser
2.63,3.56,4.22,3.38,3.8,s3022,ser
2.63,3.56,4.22,3.38,3.8,s2342,haver
2.63,3.56,4.22,3.38,3.8,s116,receber
2.63,3.56,4.22,3.38,3.8,s3007,receber
3.63,4.22,3.56,2.38,4.0,s2448,ter
3.63,4.22,3.56,2.38,4.0,s2448,ter
3.63,4.22,3.56,2.38,4.0,s2448,ter
3.63,4.22,3.56,2.38,4.0,s2448,ter
3.63,4.22,3.56,2.38,4.0,s3118,ter
3.63,4.22,3.56,2.38,4.0,s3118,ter
3.63,4.22,3.56,2.38,4.0,s3118,ter
3.63,4.22,3.56,2.38,4.0,s3118,ter
3.63,4.22,3.56,2.38,4.0,s2342,estar
3.63,4.22,3.56,2.38,4.0,s2342,estar
3.63,4.22,3.56,2.38,4.0,s2342,estar
3.63,4.22,3.56,2.38,4.0,s2702,estar
3.63,4.22,3.56,2.38,4.0,s2702,estar
3.63,4.22,3.56,2.38,4.0,s2702,estar
3.63,4.22,3.56,2.38,4.0,s2441,abraçar
3.63,4.22,3.56,2.38,4.0,s2464,abraçar
3.63,4.22,3.56,2.38,4.0,s3953,abraçar
3.63,4.22,3.56,2.38,4.0,s798,calçar
3.63,4.22,3.56,2.38,4.0,s840,calçar
3.63,4.22,3.56,2.38,4.0,s416,puxar
3.63,4.22,3.56,2.38,4.0,s3022,puxar
3.63,4.22,3.56,2.38,4.0,s3075,puxar
3.63,4.22,3.56,2.38,4.0,s3141,puxar
3.63,4.22,3.56,2.38,4.0,s4077,puxar
3.63,4.22,3.56,2.38,4.0,s2342,haver
3.63,4.22,3.56,2.38,4.0,s2342,haver
3.75,3.89,3.33,3.63,3.8,s168,observar
3.75,3.89,3.33,3.63,3.8,s3369,observar
3.75,3.89,3.33,3.63,3.8,s2441,abraçar
3.75,3.89,3.33,3.63,3.8,s2441,abraçar
3.75,3.89,3.33,3.63,3.8,s2464,abraçar
3.75,3.89,3.33,3.63,3.8,s2464,abraçar
3.75,3.89,3.33,3.63,3.8,s3953,abraçar
3.75,3.89,3.33,3.63,3.8,s3953,abraçar
3.75,3.89,3.33,3.63,3.8,s2342,ser
3.75,3.89,3.33,3.63,3.8,s2342,ser
3.75,3.89,3.33,3.63,3.8,s2501,ser
3.75,3.89,3.33,3.63,3.8,s2501,ser
3.75,3.89,3.33,3.63,3.8,s3022,ser
3.75,3.89,3.33,3.63,3.8,s3022,ser
3.75,3.89,3.33,3.63,3.8,s2342,existir
3.75,3.89,3.33,3.63,3.8,s2342,estar
3.75,3.89,3.33,3.63,3.8,s2342,estar
3.75,3.89,3.33,3.63,3.8,s2702,estar
3.75,3.89,3.33,3.63,3.8,s2702,estar
3.75,3.89,3.33,3.63,3.8,s2448,ter
3.75,3.89,3.33,3.63,3.8,s3118,ter
3.75,3.89,3.33,3.63,3.8,s1854,brigar
3.75,3.89,3.33,3.63,3.8,s1446,separar
3.75,3.89,3.33,3.63,3.8,s1604,separar
3.75,3.89,3.33,3.63,3.8,s2076,separar
3.75,3.89,3.33,3.63,3.8,s2227,separar
3.75,3.89,3.33,3.63,3.8,s2653,separar
3.75,3.89,3.33,3.63,3.8,s2869,fazer
3.75,3.89,3.33,3.63,3.8,s2873,fazer
3.88,3.11,3.22,3.13,4.1,s3141,abrir
3.88,3.11,3.22,3.13,4.1,s3279,abrir
3.88,3.11,3.22,3.13,4.1,s2342,existir
3.88,3.11,3.22,3.13,4.1,s4026,espalhar
3.88,3.11,3.22,3.13,4.1,s2342,estar
3.88,3.11,3.22,3.13,4.1,s2342,estar
3.88,3.11,3.22,3.13,4.1,s2702,estar
3.88,3.11,3.22,3.13,4.1,s2702,estar
3.88,3.11,3.22,3.13,4.1,s341,prender
3.88,3.11,3.22,3.13,4.1,s1457,prender
3.88,3.11,3.22,3.13,4.1,s2890,prender
3.88,3.11,3.22,3.13,4.1,s3005,prender
3.88,3.11,3.22,3.13,4.1,s3108,prender
3.88,3.11,3.22,3.13,4.1,s3239,prender
3.88,3.11,3.22,3.13,4.1,s3823,prender
3.88,3.11,3.22,3.13,4.1,s1777,vestir
3.88,3.11,3.22,3.13,4.1,s1777,vestir
3.88,3.11,3.22,3.13,4.1,s3504,vestir
3.88,3.11,3.22,3.13,4.1,s3504,vestir
3.88,3.11,3.22,3.13,4.1,s3819,vestir
3.88,3.11,3.22,3.13,4.1,s3819,vestir
3.88,3.11,3.22,3.13,4.1,s3716,expressar
3.88,3.11,3.22,3.13,4.1,s4115,desolar
1.88,4.11,3.11,2.88,2.7,s2448,ter
1.88,4.11,3.11,2.88,2.7,s3118,ter
1.88,4.11,3.11,2.88,2.7,s2342,estar
1.88,4.11,3.11,2.88,2.7,s2702,estar
1.88,4.11,3.11,2.88,2.7,s341,prender
1.88,4.11,3.11,2.88,2.7,s1457,prender
1.88,4.11,3.11,2.88,2.7,s2890,prender
1.88,4.11,3.11,2.88,2.7,s3005,prender
1.88,4.11,3.11,2.88,2.7,s3108,prender
1.88,4.11,3.11,2.88,2.7,s3239,prender
1.88,4.11,3.11,2.88,2.7,s3823,prender
2.88,4.44,3.78,1.63,4.1,s2342,estar
2.88,4.44,3.78,1.63,4.1,s2702,estar
2.88,4.44,3.78,1.63,4.1,s2860,usar
2.88,4.44,3.78,1.63,4.1,s2342,ser
2.88,4.44,3.78,1.63,4.1,s2501,ser
2.88,4.44,3.78,1.63,4.1,s3022,ser
2.88,4.44,3.78,1.63,4.1,s2342,haver
3.63,3.56,3.56,3.63,5.0,s2441,abraçar
3.63,3.56,3.56,3.63,5.0,s2464,abraçar
3.63,3.56,3.56,3.63,5.0,s3953,abraçar
3.63,3.56,3.56,3.63,5.0,s2448,ter
3.63,3.56,3.56,3.63,5.0,s3118,ter
3.63,3.56,3.56,3.63,5.0,s2448,possuir
3.63,3.56,3.56,3.63,5.0,s3118,possuir
3.63,3.56,3.56,3.63,5.0,s1841,dispor
3.63,3.56,3.56,3.63,5.0,s1884,dispor
3.63,3.56,3.56,3.63,5.0,s2384,dispor
3.63,3.56,3.56,3.63,5.0,s3734,dispor
3.63,3.56,3.56,3.63,5.0,s2342,ser
3.63,3.56,3.56,3.63,5.0,s2342,ser
3.63,3.56,3.56,3.63,5.0,s2501,ser
3.63,3.56,3.56,3.63,5.0,s2501,ser
3.63,3.56,3.56,3.63,5.0,s3022,ser
3.63,3.56,3.56,3.63,5.0,s3022,ser
3.25,4.78,3.33,3.5,2.4,s2448,ter
3.25,4.78,3.33,3.5,2.4,s2448,ter
3.25,4.78,3.33,3.5,2.4,s2448,ter
3.25,4.78,3.33,3.5,2.4,s3118,ter
3.25,4.78,3.33,3.5,2.4,s3118,ter
3.25,4.78,3.33,3.5,2.4,s3118,ter
3.25,4.78,3.33,3.5,2.4,s2441,abraçar
3.25,4.78,3.33,3.5,2.4,s2464,abraçar
3.25,4.78,3.33,3.5,2.4,s3953,abraçar
3.25,4.78,3.33,3.5,2.4,s2352,encurvar
3.25,4.78,3.33,3.5,2.4,s2342,estar
3.25,4.78,3.33,3.5,2.4,s2342,estar
3.25,4.78,3.33,3.5,2.4,s2342,estar
3.25,4.78,3.33,3.5,2.4,s2342,estar
3.25,4.78,3.33,3.5,2.4,s2342,estar
3.25,4.78,3.33,3.5,2.4,s2702,estar
3.25,4.78,3.33,3.5,2.4,s2702,estar
3.25,4.78,3.33,3.5,2.4,s2702,estar
3.25,4.78,3.33,3.5,2.4,s2702,estar
3.25,4.78,3.33,3.5,2.4,s2702,estar
3.25,4.78,3.33,3.5,2.4,s4026,espalhar
3.25,4.78,3.33,3.5,2.4,s2342,ser
3.25,4.78,3.33,3.5,2.4,s2501,ser
3.25,4.78,3.33,3.5,2.4,s3022,ser
3.25,4.78,3.33,3.5,2.4,s1956,iluminar
3.25,4.78,3.33,3.5,2.4,s3289,iluminar
3.88,3.89,3.33,2.5,4.5,s2342,estar
3.88,3.89,3.33,2.5,4.5,s2342,estar
3.88,3.89,3.33,2.5,4.5,s2342,estar
3.88,3.89,3.33,2.5,4.5,s2702,estar
3.88,3.89,3.33,2.5,4.5,s2702,estar
3.88,3.89,3.33,2.5,4.5,s2702,estar
3.88,3.89,3.33,2.5,4.5,s2441,abraçar
3.88,3.89,3.33,2.5,4.5,s2464,abraçar
3.88,3.89,3.33,2.5,4.5,s3953,abraçar
3.88,3.89,3.33,2.5,4.5,s4026,espalhar
1.88,3.0,2.78,3.5,3.4,s2342,haver
1.88,3.0,2.78,3.5,3.4,s2342,haver
1.88,3.0,2.78,3.5,3.4,s2342,haver
1.88,3.0,2.78,3.5,3.4,s154,tratar
1.88,3.0,2.78,3.5,3.4,s2429,tratar
1.88,3.0,2.78,3.5,3.4,s3006,tratar
1.88,3.0,2.78,3.5,3.4,s3250,tratar
1.88,3.0,2.78,3.5,3.4,s2448,possuir
1.88,3.0,2.78,3.5,3.4,s2448,possuir
1.88,3.0,2.78,3.5,3.4,s3118,possuir
1.88,3.0,2.78,3.5,3.4,s3118,possuir
1.88,3.0,2.78,3.5,3.4,s341,prender
1.88,3.0,2.78,3.5,3.4,s1457,prender
1.88,3.0,2.78,3.5,3.4,s2890,prender
1.88,3.0,2.78,3.5,3.4,s3005,prender
1.88,3.0,2.78,3.5,3.4,s3108,prender
1.88,3.0,2.78,3.5,3.4,s3239,prender
1.88,3.0,2.78,3.5,3.4,s3823,prender
1.88,3.0,2.78,3.5,3.4,s2860,usar
1.88,3.0,2.78,3.5,3.4,s2441,abraçar
1.88,3.0,2.78,3.5,3.4,s2464,abraçar
1.88,3.0,2.78,3.5,3.4,s3953,abraçar
1.88,3.0,2.78,3.5,3.4,s2342,estar
1.88,3.0,2.78,3.5,3.4,s2342,estar
1.88,3.0,2.78,3.5,3.4,s2342,estar
1.88,3.0,2.78,3.5,3.4,s2702,estar
1.88,3.0,2.78,3.5,3.4,s2702,estar
1.88,3.0,2.78,3.5,3.4,s2702,estar
1.88,3.0,2.78,3.5,3.4,s4026,espalhar
2.0,3.56,3.0,2.75,3.4,s2342,estar
2.0,3.56,3.0,2.75,3.4,s2702,estar
2.0,3.56,3.0,2.75,3.4,s2342,ser
2.0,3.56,3.0,2.75,3.4,s2342,ser
2.0,3.56,3.0,2.75,3.4,s2501,ser
2.0,3.56,3.0,2.75,3.4,s2501,ser
2.0,3.56,3.0,2.75,3.4,s3022,ser
2.0,3.56,3.0,2.75,3.4,s3022,ser
2.0,3.56,3.0,2.75,3.4,s3842,pisar
2.0,3.56,3.0,2.75,3.4,s2448,ter
2.0,3.56,3.0,2.75,3.4,s2448,ter
2.0,3.56,3.0,2.75,3.4,s3118,ter
2.0,3.56,3.0,2.75,3.4,s3118,ter
2.38,3.22,3.56,3.63,2.7,s2342,estar
2.38,3.22,3.56,3.63,2.7,s2342,estar
2.38,3.22,3.56,3.63,2.7,s2702,estar
2.38,3.22,3.56,3.63,2.7,s2702,estar
2.38,3.22,3.56,3.63,2.7,s2342,ser
2.38,3.22,3.56,3.63,2.7,s2501,ser
2.38,3.22,3.56,3.63,2.7,s3022,ser
2.38,3.22,3.56,3.63,2.7,s1777,vestir
2.38,3.22,3.56,3.63,2.7,s3504,vestir
2.38,3.22,3.56,3.63,2.7,s3819,vestir
3.25,4.11,3.56,2.5,4.5,s2342,estar
3.25,4.11,3.56,2.5,4.5,s2702,estar
3.25,4.11,3.56,2.5,4.5,s2342,haver
4.0,4.11,3.44,3.38,3.4,s3716,mostrar
4.0,4.11,3.44,3.38,3.4,s3717,mostrar
4.0,4.11,3.44,3.38,3.4,s1783,olhar
4.0,4.11,3.44,3.38,3.4,s1783,olhar
4.0,4.11,3.44,3.38,3.4,s3625,olhar
4.0,4.11,3.44,3.38,3.4,s3625,olhar
4.0,4.11,3.44,3.38,3.4,s2441,abraçar
4.0,4.11,3.44,3.38,3.4,s2464,abraçar
4.0,4.11,3.44,3.38,3.4,s3953,abraçar
4.0,4.11,3.44,3.38,3.4,s2702,querer
4.0,4.11,3.44,3.38,3.4,s3659,querer
4.0,4.11,3.44,3.38,3.4,s1365,consolar
4.0,4.11,3.44,3.38,3.4,s1365,consolar
4.0,4.11,3.44,3.38,3.4,s1505,consolar
4.0,4.11,3.44,3.38,3.4,s1505,consolar
4.0,4.11,3.44,3.38,3.4,s2342,estar
4.0,4.11,3.44,3.38,3.4,s2702,estar
4.0,4.11,3.44,3.38,3.4,s2342,haver
4.0,4.11,3.44,3.38,3.4,s86,montar
4.0,4.11,3.44,3.38,3.4,s661,montar
4.0,4.11,3.44,3.38,3.4,s727,ir
4.0,4.11,3.44,3.38,3.4,s1892,ir
4.0,4.11,3.44,3.38,3.4,s2099,ir
4.0,4.11,3.44,3.38,3.4,s2868,ajudar
3.88,3.44,2.78,2.5,3.3,s3716,mostrar
3.88,3.44,2.78,2.5,3.3,s3717,mostrar
3.88,3.44,2.78,2.5,3.3,s2441,abraçar
3.88,3.44,2.78,2.5,3.3,s2464,abraçar
3.88,3.44,2.78,2.5,3.3,s3953,abraçar
2.63,3.89,2.89,3.38,3.6,s2342,ser
2.63,3.89,2.89,3.38,3.6,s2342,ser
2.63,3.89,2.89,3.38,3.6,s2501,ser
2.63,3.89,2.89,3.38,3.6,s2501,ser
2.63,3.89,2.89,3.38,3.6,s3022,ser
2.63,3.89,2.89,3.38,3.6,s3022,ser
2.63,3.89,2.89,3.38,3.6,s969,ver
2.63,3.89,2.89,3.38,3.6,s3434,ver
2.63,3.89,2.89,3.38,3.6,s3756,ver
2.63,3.89,2.89,3.38,3.6,s2342,estar
2.63,3.89,2.89,3.38,3.6,s2342,estar
2.63,3.89,2.89,3.38,3.6,s2342,estar
2.63,3.89,2.89,3.38,3.6,s2342,estar
2.63,3.89,2.89,3.38,3.6,s2702,estar
2.63,3.89,2.89,3.38,3.6,s2702,estar
2.63,3.89,2.89,3.38,3.6,s2702,estar
2.63,3.89,2.89,3.38,3.6,s2702,estar
2.63,3.89,2.89,3.38,3.6,s2441,abraçar
2.63,3.89,2.89,3.38,3.6,s2464,abraçar
2.63,3.89,2.89,3.38,3.6,s3953,abraçar
2.63,3.89,2.89,3.38,3.6,s2342,haver
2.63,3.89,2.89,3.38,3.6,s1783,olhar
2.63,3.89,2.89,3.38,3.6,s3625,olhar
3.75,3.44,2.89,2.13,4.3,s2441,abraçar
3.75,3.44,2.89,2.13,4.3,s2464,abraçar
3.75,3.44,2.89,2.13,4.3,s3953,abraçar
3.75,3.44,2.89,2.13,4.3,s1783,olhar
3.75,3.44,2.89,2.13,4.3,s1783,olhar
3.75,3.44,2.89,2.13,4.3,s3625,olhar
3.75,3.44,2.89,2.13,4.3,s3625,olhar
3.75,3.44,2.89,2.13,4.3,s2342,estar
3.75,3.44,2.89,2.13,4.3,s2702,estar
3.75,3.44,2.89,2.13,4.3,s4026,espalhar
3.75,3.44,2.89,2.13,4.3,s2342,existir
3.75,3.56,2.33,3.88,4.1,s2342,haver
3.75,3.56,2.33,3.88,4.1,s2342,haver
3.75,3.56,2.33,3.88,4.1,s2342,haver
3.75,3.56,2.33,3.88,4.1,s2342,estar
3.75,3.56,2.33,3.88,4.1,s2342,estar
3.75,3.56,2.33,3.88,4.1,s2702,estar
3.75,3.56,2.33,3.88,4.1,s2702,estar
3.75,3.56,2.33,3.88,4.1,s2177,levar
2.63,4.0,4.11,2.5,4.7,s2448,ter
2.63,4.0,4.11,2.5,4.7,s2448,ter
2.63,4.0,4.11,2.5,4.7,s3118,ter
2.63,4.0,4.11,2.5,4.7,s3118,ter
2.63,4.0,4.11,2.5,4.7,s2441,abraçar
2.63,4.0,4.11,2.5,4.7,s2464,abraçar
2.63,4.0,4.11,2.5,4.7,s3953,abraçar
2.63,4.0,4.11,2.5,4.7,s2342,ser
2.63,4.0,4.11,2.5,4.7,s2342,ser
2.63,4.0,4.11,2.5,4.7,s2501,ser
2.63,4.0,4.11,2.5,4.7,s2501,ser
2.63,4.0,4.11,2.5,4.7,s3022,ser
2.63,4.0,4.11,2.5,4.7,s3022,ser
2.5,4.56,3.0,2.38,2.8,s2342,estar
2.5,4.56,3.0,2.38,2.8,s2342,estar
2.5,4.56,3.0,2.38,2.8,s2702,estar
2.5,4.56,3.0,2.38,2.8,s2702,estar
2.5,4.56,3.0,2.38,2.8,s2860,usar
2.5,4.56,3.0,2.38,2.8,s2860,usar
2.5,4.56,3.0,2.38,2.8,s2860,usar
3.13,3.56,3.89,3.75,3.5,s3716,mostrar
3.13,3.56,3.89,3.75,3.5,s3717,mostrar
3.13,3.56,3.89,3.75,3.5,s1213,encostar
3.13,3.56,3.89,3.75,3.5,s3102,encostar
3.13,3.56,3.89,3.75,3.5,s2342,estar
3.13,3.56,3.89,3.75,3.5,s2342,estar
3.13,3.56,3.89,3.75,3.5,s2702,estar
3.13,3.56,3.89,3.75,3.5,s2702,estar
3.13,3.56,3.89,3.75,3.5,s3055,preocupar
3.13,3.56,3.89,3.75,3.5,s2342,haver
3.5,4.56,2.67,1.88,3.7,s2448,ter
3.5,4.56,2.67,1.88,3.7,s3118,ter
3.5,4.56,2.67,1.88,3.7,s2441,abraçar
3.5,4.56,2.67,1.88,3.7,s2464,abraçar
3.5,4.56,2.67,1.88,3.7,s3953,abraçar
3.5,4.56,2.67,1.88,3.7,s2342,ser
3.5,4.56,2.67,1.88,3.7,s2501,ser
3.5,4.56,2.67,1.88,3.7,s3022,ser
3.5,4.56,2.67,1.88,3.7,s2342,estar
3.5,4.56,2.67,1.88,3.7,s2702,estar
3.5,4.56,2.67,1.88,3.7,s2342,existir
2.38,3.11,2.67,2.5,3.8,s2342,estar
2.38,3.11,2.67,2.5,3.8,s2342,estar
2.38,3.11,2.67,2.5,3.8,s2702,estar
2.38,3.11,2.67,2.5,3.8,s2702,estar
2.38,3.11,2.67,2.5,3.8,s3022,sugerir
4.88,3.89,4.33,3.25,4.4,s2342,estar
4.88,3.89,4.33,3.25,4.4,s2342,estar
4.88,3.89,4.33,3.25,4.4,s2702,estar
4.88,3.89,4.33,3.25,4.4,s2702,estar
4.88,3.89,4.33,3.25,4.4,s2441,abraçar
4.88,3.89,4.33,3.25,4.4,s2464,abraçar
4.88,3.89,4.33,3.25,4.4,s3953,abraçar
4.88,3.89,4.33,3.25,4.4,s2342,haver
3.5,2.67,4.0,1.88,4.0,s341,segurar
3.5,2.67,4.0,1.88,4.0,s3005,segurar
3.5,2.67,4.0,1.88,4.0,s4043,segurar
3.5,2.67,4.0,1.88,4.0,s2342,estar
3.5,2.67,4.0,1.88,4.0,s2702,estar
3.5,2.67,4.0,1.88,4.0,s2342,haver
3.5,2.67,4.0,1.88,4.0,s4115,desolar
4.88,3.78,2.44,3.63,4.4,s2448,ter
4.88,3.78,2.44,3.63,4.4,s3118,ter
4.88,3.78,2.44,3.63,4.4,s2342,haver
4.88,3.78,2.44,3.63,4.4,s2342,ser
4.88,3.78,2.44,3.63,4.4,s2342,ser
4.88,3.78,2.44,3.63,4.4,s2501,ser
4.88,3.78,2.44,3.63,4.4,s2501,ser
4.88,3.78,2.44,3.63,4.4,s3022,ser
4.88,3.78,2.44,3.63,4.4,s3022,ser
4.88,3.78,2.44,3.63,4.4,s2342,estar
4.88,3.78,2.44,3.63,4.4,s2342,estar
4.88,3.78,2.44,3.63,4.4,s2702,estar
4.88,3.78,2.44,3.63,4.4,s2702,estar
4.88,3.78,2.44,3.63,4.4,s1777,vestir
4.88,3.78,2.44,3.63,4.4,s3504,vestir
4.88,3.78,2.44,3.63,4.4,s3819,vestir
4.88,3.78,2.44,3.63,4.4,s3006,agasalhar
4.88,3.78,2.44,3.63,4.4,s3007,agasalhar
4.88,3.78,2.44,3.63,4.4,s3008,agasalhar
3.63,3.78,3.67,3.0,4.5,s341,segurar
3.63,3.78,3.67,3.0,4.5,s3005,segurar
3.63,3.78,3.67,3.0,4.5,s4043,segurar
3.63,3.78,3.67,3.0,4.5,s2342,estar
3.63,3.78,3.67,3.0,4.5,s2342,estar
3.63,3.78,3.67,3.0,4.5,s2342,estar
3.63,3.78,3.67,3.0,4.5,s2342,estar
3.63,3.78,3.67,3.0,4.5,s2342,estar
3.63,3.78,3.67,3.0,4.5,s2702,estar
3.63,3.78,3.67,3.0,4.5,s2702,estar
3.63,3.78,3.67,3.0,4.5,s2702,estar
3.63,3.78,3.67,3.0,4.5,s2702,estar
3.63,3.78,3.67,3.0,4.5,s2702,estar
3.63,3.78,3.67,3.0,4.5,s3953,rodear
3.63,3.78,3.67,3.0,4.5,s2860,usar
4.13,3.67,4.0,3.13,3.9,s180,proteger
4.13,3.67,4.0,3.13,3.9,s180,proteger
4.13,3.67,4.0,3.13,3.9,s2868,proteger
4.13,3.67,4.0,3.13,3.9,s2868,proteger
4.13,3.67,4.0,3.13,3.9,s2448,ter
4.13,3.67,4.0,3.13,3.9,s3118,ter
4.13,3.67,4.0,3.13,3.9,s3055,preocupar
4.13,3.67,4.0,3.13,3.9,s2391,temer
2.38,3.33,3.67,3.88,3.3,s3716,mostrar
2.38,3.33,3.67,3.88,3.3,s3717,mostrar
2.38,3.33,3.67,3.88,3.3,s2342,estar
2.38,3.33,3.67,3.88,3.3,s2342,estar
2.38,3.33,3.67,3.88,3.3,s2342,estar
2.38,3.33,3.67,3.88,3.3,s2342,estar
2.38,3.33,3.67,3.88,3.3,s2342,estar
2.38,3.33,3.67,3.88,3.3,s2702,estar
2.38,3.33,3.67,3.88,3.3,s2702,estar
2.38,3.33,3.67,3.88,3.3,s2702,estar
2.38,3.33,3.67,3.88,3.3,s2702,estar
2.38,3.33,3.67,3.88,3.3,s2702,estar
2.38,3.33,3.67,3.88,3.3,s2448,ter
2.38,3.33,3.67,3.88,3.3,s3118,ter
2.5,3.33,2.89,2.75,4.6,s3716,mostrar
2.5,3.33,2.89,2.75,4.6,s3717,mostrar
2.5,3.33,2.89,2.75,4.6,s2448,ter
2.5,3.33,2.89,2.75,4.6,s2448,ter
2.5,3.33,2.89,2.75,4.6,s3118,ter
2.5,3.33,2.89,2.75,4.6,s3118,ter
2.5,3.33,2.89,2.75,4.6,s3767,perder
2.5,3.33,2.89,2.75,4.6,s3716,demonstrar
2.5,3.33,2.89,2.75,4.6,s180,proteger
2.5,3.33,2.89,2.75,4.6,s2868,proteger
2.5,3.33,2.89,2.75,4.6,s969,ver
2.5,3.33,2.89,2.75,4.6,s3434,ver
2.5,3.33,2.89,2.75,4.6,s3756,ver
2.5,3.33,2.89,2.75,4.6,s4115,despedaçar
2.25,3.78,2.22,1.5,3.2,s3006,agasalhar
2.25,3.78,2.22,1.5,3.2,s3007,agasalhar
2.25,3.78,2.22,1.5,3.2,s3008,agasalhar
2.25,3.78,2.22,1.5,3.2,s2441,apertar
2.25,3.78,2.22,1.5,3.2,s2943,apertar
2.25,3.78,2.22,1.5,3.2,s3992,apertar
2.25,3.78,2.22,1.5,3.2,s3141,abrir
2.25,3.78,2.22,1.5,3.2,s3279,abrir
2.25,3.78,2.22,1.5,3.2,s3953,rodear
3.0,4.67,4.0,2.5,3.3,s1401,desesperar
3.0,4.67,4.0,2.5,3.3,s2943,desesperar
3.0,4.67,4.0,2.5,3.3,s2448,ter
3.0,4.67,4.0,2.5,3.3,s3118,ter
3.0,4.67,4.0,2.5,3.3,s3445,comprometer
3.0,4.67,4.0,2.5,3.3,s3716,mostrar
3.0,4.67,4.0,2.5,3.3,s3717,mostrar
3.0,4.67,4.0,2.5,3.3,s2677,recolher
3.0,4.67,4.0,2.5,3.3,s3006,recolher
3.0,4.67,4.0,2.5,3.3,s3369,aguardar
3.13,3.89,3.44,3.75,3.6,s2342,estar
3.13,3.89,3.44,3.75,3.6,s2342,estar
3.13,3.89,3.44,3.75,3.6,s2342,estar
3.13,3.89,3.44,3.75,3.6,s2342,estar
3.13,3.89,3.44,3.75,3.6,s2342,estar
3.13,3.89,3.44,3.75,3.6,s2702,estar
3.13,3.89,3.44,3.75,3.6,s2702,estar
3.13,3.89,3.44,3.75,3.6,s2702,estar
3.13,3.89,3.44,3.75,3.6,s2702,estar
3.13,3.89,3.44,3.75,3.6,s2702,estar
3.13,3.89,3.44,3.75,3.6,s2448,ter
3.13,3.89,3.44,3.75,3.6,s3118,ter
2.88,4.56,2.78,2.38,3.3,s4026,espalhar
2.88,4.56,2.78,2.38,3.3,s2860,usar
2.88,4.56,2.78,2.38,3.3,s1579,encontrar
3.13,3.67,2.11,4.0,3.7,s2342,estar
3.13,3.67,2.11,4.0,3.7,s2342,estar
3.13,3.67,2.11,4.0,3.7,s2702,estar
3.13,3.67,2.11,4.0,3.7,s2702,estar
3.13,3.67,2.11,4.0,3.7,s2342,ser
3.13,3.67,2.11,4.0,3.7,s2342,ser
3.13,3.67,2.11,4.0,3.7,s2501,ser
3.13,3.67,2.11,4.0,3.7,s2501,ser
3.13,3.67,2.11,4.0,3.7,s3022,ser
3.13,3.67,2.11,4.0,3.7,s3022,ser
3.13,3.67,2.11,4.0,3.7,s2448,ter
3.13,3.67,2.11,4.0,3.7,s2448,ter
3.13,3.67,2.11,4.0,3.7,s3118,ter
3.13,3.67,2.11,4.0,3.7,s3118,ter
3.13,3.67,2.11,4.0,3.7,s2860,usar
3.13,3.67,2.11,4.0,3.7,s2441,abraçar
3.13,3.67,2.11,4.0,3.7,s2464,abraçar
3.13,3.67,2.11,4.0,3.7,s3953,abraçar
3.13,3.67,2.11,4.0,3.7,s4026,espalhar
3.13,3.67,2.11,4.0,3.7,s2342,haver
1.88,4.22,2.89,2.25,3.5,s2342,ser
1.88,4.22,2.89,2.25,3.5,s2342,ser
1.88,4.22,2.89,2.25,3.5,s2501,ser
1.88,4.22,2.89,2.25,3.5,s2501,ser
1.88,4.22,2.89,2.25,3.5,s3022,ser
1.88,4.22,2.89,2.25,3.5,s3022,ser
1.88,4.22,2.89,2.25,3.5,s969,ver
1.88,4.22,2.89,2.25,3.5,s969,ver
1.88,4.22,2.89,2.25,3.5,s3434,ver
1.88,4.22,2.89,2.25,3.5,s3434,ver
1.88,4.22,2.89,2.25,3.5,s3756,ver
1.88,4.22,2.89,2.25,3.5,s3756,ver
1.88,4.22,2.89,2.25,3.5,s3716,indicar
1.88,4.22,2.89,2.25,3.5,s154,tratar
1.88,4.22,2.89,2.25,3.5,s2429,tratar
1.88,4.22,2.89,2.25,3.5,s3006,tratar
1.88,4.22,2.89,2.25,3.5,s3250,tratar
1.88,4.22,2.89,2.25,3.5,s341,segurar
1.88,4.22,2.89,2.25,3.5,s3005,segurar
1.88,4.22,2.89,2.25,3.5,s4043,segurar
1.88,4.22,2.89,2.25,3.5,s4026,espalhar
1.88,4.22,2.89,2.25,3.5,s2177,passar
1.88,4.22,2.89,2.25,3.5,s3717,passar
1.88,4.22,2.89,2.25,3.5,s3141,abrir
1.88,4.22,2.89,2.25,3.5,s3279,abrir
4.25,4.0,2.78,2.38,3.7,s2342,estar
4.25,4.0,2.78,2.38,3.7,s2342,estar
4.25,4.0,2.78,2.38,3.7,s2342,estar
4.25,4.0,2.78,2.38,3.7,s2342,estar
4.25,4.0,2.78,2.38,3.7,s2702,estar
4.25,4.0,2.78,2.38,3.7,s2702,estar
4.25,4.0,2.78,2.38,3.7,s2702,estar
4.25,4.0,2.78,2.38,3.7,s2702,estar
4.25,4.0,2.78,2.38,3.7,s2441,abraçar
4.25,4.0,2.78,2.38,3.7,s2464,abraçar
4.25,4.0,2.78,2.38,3.7,s3953,abraçar
4.25,4.0,2.78,2.38,3.7,s2342,ser
4.25,4.0,2.78,2.38,3.7,s2342,ser
4.25,4.0,2.78,2.38,3.7,s2501,ser
4.25,4.0,2.78,2.38,3.7,s2501,ser
4.25,4.0,2.78,2.38,3.7,s3022,ser
4.25,4.0,2.78,2.38,3.7,s3022,ser
3.63,4.44,2.22,2.88,4.1,s969,ver
3.63,4.44,2.22,2.88,4.1,s3434,ver
3.63,4.44,2.22,2.88,4.1,s3756,ver
3.63,4.44,2.22,2.88,4.1,s2448,ter
3.63,4.44,2.22,2.88,4.1,s2448,ter
3.63,4.44,2.22,2.88,4.1,s3118,ter
3.63,4.44,2.22,2.88,4.1,s3118,ter
3.63,4.44,2.22,2.88,4.1,s2441,abraçar
3.63,4.44,2.22,2.88,4.1,s2464,abraçar
3.63,4.44,2.22,2.88,4.1,s3953,abraçar
3.63,4.44,2.22,2.88,4.1,s2342,estar
3.63,4.44,2.22,2.88,4.1,s2342,estar
3.63,4.44,2.22,2.88,4.1,s2702,estar
3.63,4.44,2.22,2.88,4.1,s2702,estar
3.63,4.44,2.22,2.88,4.1,s3953,rodear
3.63,4.44,2.22,2.88,4.1,s2342,ser
3.63,4.44,2.22,2.88,4.1,s2501,ser
3.63,4.44,2.22,2.88,4.1,s3022,ser
2.88,3.78,3.78,4.0,3.3,s3716,mostrar
2.88,3.78,3.78,4.0,3.3,s3717,mostrar
2.88,3.78,3.78,4.0,3.3,s2342,estar
2.88,3.78,3.78,4.0,3.3,s2702,estar
2.88,3.78,3.78,4.0,3.3,s2448,ter
2.88,3.78,3.78,4.0,3.3,s3118,ter
2.88,3.78,3.78,4.0,3.3,s2860,usar
2.88,3.78,3.78,4.0,3.3,s2860,usar
2.88,3.78,3.78,4.0,3.3,s798,calçar
2.88,3.78,3.78,4.0,3.3,s840,calçar
1.88,4.56,4.22,3.75,2.1,s3716,revelar
1.88,4.56,4.22,3.75,2.1,s3717,revelar
1.88,4.56,4.22,3.75,2.1,s3357,transmitir
1.88,4.56,4.22,3.75,2.1,s4026,espalhar
1.88,4.56,4.22,3.75,2.1,s3896,apontar
1.88,4.56,4.22,3.75,2.1,s3897,apontar
3.0,3.44,4.89,4.0,2.9,s2441,abraçar
3.0,3.44,4.89,4.0,2.9,s2464,abraçar
3.0,3.44,4.89,4.0,2.9,s3953,abraçar
3.0,3.44,4.89,4.0,2.9,s2342,ser
3.0,3.44,4.89,4.0,2.9,s2501,ser
3.0,3.44,4.89,4.0,2.9,s3022,ser
3.0,3.44,4.89,4.0,2.9,s969,ver
3.0,3.44,4.89,4.0,2.9,s3434,ver
3.0,3.44,4.89,4.0,2.9,s3756,ver
3.0,3.44,4.89,4.0,2.9,s4026,espalhar
