Precision	Recall	F-Measure	Class
0,000	0,000	0,000	possuir
0,513	1,000	0,678	enrolar
0,000	0,000	0,000	maquinar
0,976	0,667	0,792	ser
0,818	1,000	0,900	ter
0,990	1,000	0,995	usar
0,000	0,000	0,000	desgastar
0,667	0,500	0,571	depositar
0,734	1,000	0,847	estar
0,000	0,000	0,000	apodrecer
0,878	1,000	0,935	calçar
0,939	1,000	0,968	vestir
0,800	0,500	0,615	parar
0,800	1,000	0,889	destruir
0,000	0,000	0,000	haver
0,467	0,689	0,556	espalhar
0,000	0,000	0,000	rodear
0,683	0,667	0,675	abraçar
0,000	0,000	0,000	afastar
0,857	1,000	0,923	abandonar
0,000	0,000	0,000	viver
0,000	0,000	0,000	vender
0,982	1,000	0,991	olhar
0,664	0,524	0,586	prender
0,000	0,000	0,000	deter
0,864	1,000	0,927	ver
0,957	1,000	0,978	encontrar
0,571	1,000	0,727	mostrar
0,000	0,000	0,000	isolar
0,784	0,500	0,611	passar
0,000	0,000	0,000	largar
0,833	1,000	0,909	acreditar
0,333	0,333	0,333	dividir
0,000	0,000	0,000	amassar
0,000	0,000	0,000	contar
0,000	0,000	0,000	acumular
0,000	0,000	0,000	incluir
0,000	0,000	0,000	avistar
0,000	0,000	0,000	provocar
0,714	0,200	0,313	levantar
0,000	0,000	0,000	juntar
0,000	0,000	0,000	amparar
0,061	0,083	0,071	unir
0,824	1,000	0,904	abrir
0,000	0,000	0,000	entulhar
0,000	0,000	0,000	visualizar
0,888	1,000	0,940	fazer
0,000	0,000	0,000	crer
0,000	0,000	0,000	cercar
0,000	0,000	0,000	indicar
0,869	1,000	0,930	tirar
0,000	0,000	0,000	escorar
0,909	1,000	0,952	soltar
0,868	1,000	0,929	cobrir
0,447	0,667	0,535	ir
0,925	0,500	0,649	receber
0,000	0,000	0,000	lavar
0,000	0,000	0,000	esticar
0,000	0,000	0,000	querer
0,707	0,667	0,686	pegar
0,550	0,688	0,611	montar
0,125	0,048	0,069	pôr
0,000	0,000	0,000	existir
0,663	0,397	0,496	dar
0,692	1,000	0,818	amontoar
0,000	0,000	0,000	distribuir
0,814	1,000	0,897	estender
0,000	0,000	0,000	reclamar
0,522	1,000	0,686	aglomerar
0,498	0,793	0,612	reunir
0,675	1,000	0,806	observar
0,514	1,000	0,679	pedir
0,629	0,367	0,463	fixar
0,000	0,000	0,000	favorecer
0,438	0,500	0,467	debilitar
0,824	0,667	0,737	deixar
0,000	0,000	0,000	levar
0,000	0,000	0,000	vir
0,000	0,000	0,000	aumentar
0,556	0,500	0,526	desesperar
0,000	0,000	0,000	aguardar
0,667	1,000	0,800	destacar
0,000	0,000	0,000	trazer
0,000	0,000	0,000	revelar
0,000	0,000	0,000	dirigir
0,000	0,000	0,000	aproximar
0,000	0,000	0,000	organizar
0,364	0,286	0,320	chegar
0,000	0,000	0,000	impressionar
0,000	0,000	0,000	colorir
0,000	0,000	0,000	protestar
0,000	0,000	0,000	explorar
0,000	0,000	0,000	impedir
0,000	0,000	0,000	ajudar
0,533	0,500	0,516	erguer
0,000	0,000	0,000	brigar
0,000	0,000	0,000	barrar
0,000	0,000	0,000	espremer
0,000	0,000	0,000	agarrar
0,534	1,000	0,696	fechar
0,786	1,000	0,880	aparecer
0,000	0,000	0,000	expressar
0,000	0,000	0,000	capturar
0,813	1,000	0,897	alcançar
0,000	0,000	0,000	indignar
0,353	0,400	0,375	apertar
0,000	0,000	0,000	comer
0,000	0,000	0,000	beneficiar
0,000	0,000	0,000	ouvir
0,000	0,000	0,000	agrupar
0,964	1,000	0,982	retratar
0,000	0,000	0,000	atropelar
0,000	0,000	0,000	necessitar
0,778	1,000	0,875	concentrar
0,513	0,667	0,580	dizer
0,944	1,000	0,971	esconder
0,792	1,000	0,884	segurar
0,000	0,000	0,000	precisar
0,923	1,000	0,960	notar
0,000	0,000	0,000	ansiar
0,833	1,000	0,909	ficar
0,486	1,000	0,655	perder
0,000	0,000	0,000	continuar
0,000	0,000	0,000	confinar
0,747	1,000	0,855	apoiar
0,000	0,000	0,000	auxiliar
0,000	0,000	0,000	remeter
0,000	0,000	0,000	seguir
0,000	0,000	0,000	arrumar
0,000	0,000	0,000	falar
0,000	0,000	0,000	dispersar
0,000	0,000	0,000	aparar
0,708	0,500	0,586	encostar
0,000	0,000	0,000	distinguir
0,577	0,333	0,423	andar
0,769	0,667	0,714	cansar
0,543	0,543	0,543	compor
0,000	0,000	0,000	entristecer
0,000	0,000	0,000	acotovelar
0,000	0,000	0,000	perceber
0,000	0,000	0,000	demonstrar
0,895	0,500	0,642	saber
0,000	0,000	0,000	aguar
0,455	0,500	0,476	separar
0,000	0,000	0,000	folgar
0,000	0,000	0,000	cultivar
0,000	0,000	0,000	entrar
0,000	0,000	0,000	entender
0,444	0,571	0,500	colocar
0,750	1,000	0,857	perguntar
0,000	0,000	0,000	lançar
0,000	0,000	0,000	angustiar
0,625	0,789	0,698	formar
0,000	0,000	0,000	alimentar
0,000	0,000	0,000	cuidar
0,000	0,000	0,000	misturar
0,000	0,000	0,000	construir
0,463	0,893	0,610	quebrar
0,750	0,500	0,600	despejar
0,000	0,000	0,000	bater
0,750	0,250	0,375	encher
0,000	0,000	0,000	expor
0,000	0,000	0,000	servir
0,000	0,000	0,000	guardar
0,000	0,000	0,000	desmanchar
0,625	1,000	0,769	cair
0,000	0,000	0,000	enxergar
0,000	0,000	0,000	assentar
0,606	1,000	0,755	identificar
0,000	0,000	0,000	recolher
0,000	0,000	0,000	armazenar
0,000	0,000	0,000	manusear
0,000	0,000	0,000	considerar
0,000	0,000	0,000	lembrar
0,000	0,000	0,000	começar
0,000	0,000	0,000	retirar
0,000	0,000	0,000	armar
0,696	0,500	0,582	carregar
0,000	0,000	0,000	sujeitar
0,000	0,000	0,000	adquirir
0,000	0,000	0,000	excluir
0,955	1,000	0,977	dormir
0,984	0,333	0,498	envolver
0,908	1,000	0,952	inchar
0,000	0,000	0,000	partir
0,000	0,000	0,000	vigiar
0,000	0,000	0,000	sugerir
0,917	0,500	0,647	forrar
0,000	0,000	0,000	melhorar
0,000	0,000	0,000	ornamentar
0,000	0,000	0,000	ocupar
0,000	0,000	0,000	molhar
0,000	0,000	0,000	grudar
0,600	0,125	0,207	tomar
0,000	0,000	0,000	maltratar
0,000	0,000	0,000	descansar
0,000	0,000	0,000	denotar
0,375	0,200	0,261	dobrar
0,556	0,333	0,417	achatar
0,000	0,000	0,000	preencher
0,000	0,000	0,000	pintar
0,643	0,333	0,439	embrulhar
0,639	0,750	0,690	tratar
0,000	0,000	0,000	decorar
0,000	0,000	0,000	sustentar
0,000	0,000	0,000	relevar
0,000	0,000	0,000	fornecer
0,500	1,000	0,667	repousar
0,000	0,000	0,000	manchar
0,000	0,000	0,000	desconhecer
0,000	0,000	0,000	escutar
0,000	0,000	0,000	evidenciar
0,000	0,000	0,000	entornar
0,824	1,000	0,903	machucar
0,000	0,000	0,000	costurar
0,651	0,667	0,659	agasalhar
0,000	0,000	0,000	reparar
0,833	1,000	0,909	limpar
0,000	0,000	0,000	desarrumar
0,000	0,000	0,000	desenvolver
0,000	0,000	0,000	passear
0,964	1,000	0,982	cruzar
0,667	1,000	0,800	sujar
0,000	0,000	0,000	acalentar
0,818	0,333	0,474	cortar
0,500	0,333	0,400	gastar
0,000	0,000	0,000	queimar
0,000	0,000	0,000	acolher
0,000	0,000	0,000	localizar
0,429	1,000	0,600	desolar
0,000	0,000	0,000	ferir
0,800	1,000	0,889	entrelaçar
0,000	0,000	0,000	adequar
0,000	0,000	0,000	originar
0,000	0,000	0,000	prover
0,375	0,300	0,333	manter
0,000	0,000	0,000	descobrir
0,000	0,000	0,000	desanimar
0,000	0,000	0,000	marcar
0,000	0,000	0,000	encimar
0,000	0,000	0,000	resgatar
0,000	0,000	0,000	associar
0,000	0,000	0,000	apontar
0,000	0,000	0,000	revestir
0,786	0,500	0,611	proteger
0,000	0,000	0,000	abrigar
0,000	0,000	0,000	conhecer
0,000	0,000	0,000	cometer
0,000	0,000	0,000	costumar
0,745	1,000	0,854	sorrir
0,000	0,000	0,000	rever
0,000	0,000	0,000	crescer
0,000	0,000	0,000	aprontar
0,000	0,000	0,000	atender
0,000	0,000	0,000	divertir
0,000	0,000	0,000	relacionar
0,000	0,000	0,000	amarrar
0,000	0,000	0,000	conversar
0,000	0,000	0,000	causar
0,000	0,000	0,000	determinar
0,000	0,000	0,000	comemorar
0,667	1,000	0,800	iluminar
0,792	1,000	0,884	sair
0,000	0,000	0,000	achar
0,000	0,000	0,000	condizer
0,000	0,000	0,000	fitar
0,000	0,000	0,000	amenizar
0,000	0,000	0,000	chatear
0,000	0,000	0,000	expulsar
0,000	0,000	0,000	acalmar
0,000	0,000	0,000	pavimentar
0,000	0,000	0,000	desalojar
0,000	0,000	0,000	afligir
0,000	0,000	0,000	disfarçar
0,800	1,000	0,889	consolar
0,000	0,000	0,000	caracterizar
0,818	1,000	0,900	agachar
0,000	0,000	0,000	desfrutar
0,000	0,000	0,000	comprar
0,000	0,000	0,000	desabrigar
0,429	1,000	0,600	ensinar
0,000	0,000	0,000	respeitar
0,000	0,000	0,000	explicar
0,714	1,000	0,833	preocupar
0,000	0,000	0,000	puxar
0,000	0,000	0,000	dispor
0,600	1,000	0,750	encurvar
0,000	0,000	0,000	pisar
0,000	0,000	0,000	temer
0,000	0,000	0,000	despedaçar
0,000	0,000	0,000	comprometer
0,250	0,333	0,286	transmitir
0,000	0,000	0,000	afirmar
0,000	0,000	0,000	estrear
0,000	0,000	0,000	matar
0,000	0,000	0,000	dificultar
0,000	0,000	0,000	pregar
0,000	0,000	0,000	ganhar
0,000	0,000	0,000	apregoar
0,000	0,000	0,000	encobrir
0,000	0,000	0,000	trançar
0,000	0,000	0,000	produzir
0,750	1,000	0,857	aproveitar
0,000	0,000	0,000	detectar
0,000	0,000	0,000	franzir
0,000	0,000	0,000	colar
0,000	0,000	0,000	surgir
0,000	0,000	0,000	descer
0,000	0,000	0,000	obrigar
0,000	0,000	0,000	ocultar
0,000	0,000	0,000	cerrar
0,000	0,000	0,000	romper
0,000	0,000	0,000	instituir
0,000	0,000	0,000	ligar
0,000	0,000	0,000	intrigar
0,000	0,000	0,000	conformar
0,000	0,000	0,000	caminhar
0,000	0,000	0,000	comerciar
0,000	0,000	0,000	descalçar
0,000	0,000	0,000	forçar
0,000	0,000	0,000	circundar
0,000	0,000	0,000	valorizar
0,000	0,000	0,000	modelar
0,000	0,000	0,000	circular
0,000	0,000	0,000	envergar
0,000	0,000	0,000	abotoar
0,000	0,000	0,000	adornar
0,000	0,000	0,000	dourar
0,000	0,000	0,000	curvar
0,000	0,000	0,000	relembrar
0,000	0,000	0,000	escurecer
0,000	0,000	0,000	ignorar
0,000	0,000	0,000	empilhar
0,000	0,000	0,000	conter
0,000	0,000	0,000	trocar
0,000	0,000	0,000	abaixar
0,000	0,000	0,000	acostumar
0,708	1,000	0,829	cozinhar
0,606	0,370	0,460	preparar
0,462	0,500	0,480	aquecer
0,000	0,000	0,000	educar
0,000	0,000	0,000	sedar
0,000	0,000	0,000	importar
0,000	0,000	0,000	combinar
0,000	0,000	0,000	apropriar
0,000	0,000	0,000	cumprir
0,000	0,000	0,000	rir
0,000	0,000	0,000	entusiasmar
0,000	0,000	0,000	alojar
0,000	0,000	0,000	esquentar
0,000	0,000	0,000	estimar
0,000	0,000	0,000	ofuscar
