Testing /home/feaneron/Documentos/Projetos/gmafell/corpus/output6.txt
==================================================================

ID	B5	BASELINE
0	5	5
2	0	5
4	5	5
12	9	7	preocupação	desespero
13	0	0
15	0	0
22	7	7
23	7	7
30	0	5
31	5	3	Criança no cama hospitalar	Criança no berço hospitalar
33	0	0
35	0	0
36	5	0	Menino doente sentado em cama	Menino doente sentado em berço
37	2	2
39	7	0	menino preto no leito	menino negro no berço
40	7	7
43	3	3
47	3	3
49	5	5
50	5	5
52	0	0
53	5	0	Criança sentada em cama	Criança sentada em berço
55	0	0
57	0	5
58	0	0
59	5	5
60	4	4
61	0	5
62	0	0
63	0	0
67	3	3
69	5	5
70	5	0	Criança sobre um cama	Criança sobre um berço
71	5	5
73	5	0	menino no cama	menino no berço
74	0	0
78	0	0
80	5	0	Bebê choroso no cama	Bebê choroso no berço
81	0	0
82	2	5
83	5	0	Bebê negro sentado no cama	Bebê negro sentado no berço
84	0	0
87	0	5
90	0	0
92	0	0
93	0	8
94	5	0	criança sentada em um cama	criança sentada em um berço
95	0	0
98	0	0
99	5	0	criança triste no cama	criança triste no berço
102	6	0	pessoa doente	criança doente
104	7	7
105	0	0
106	0	0
113	0	5
115	5	0	Uma criança no cama	Uma criança no berço
116	7	7
119	0	0
121	0	0
124	0	0
126	7	7
127	0	0
129	7	0	Menino negro com inchaço	Menino negro com machucados
130	0	3
131	0	0
135	0	0
136	6	7
137	0	0
145	5	0	Criança em um cama	Criança em um berço
149	12	7	A criança no cama	A criança no berço
AVG	1,298013	1,072848
